<?xml version="1.0" encoding="UTF-8" standalone="no"?>
<svg width="150px" height="150px" viewBox="0 0 150 150" version="1.1" xmlns="http://www.w3.org/2000/svg" xmlns:xlink="http://www.w3.org/1999/xlink">
    <!-- Generator: Sketch 50.2 (55047) - http://www.bohemiancoding.com/sketch -->
    <title>woman</title>
    <desc>Created with Sketch.</desc>
    <defs></defs>
    <g id="woman" stroke="none" stroke-width="1" fill="none" fill-rule="evenodd">
        <rect id="Rectangle" fill-opacity="0" fill="#FFFFFF" opacity="0" x="0" y="0" width="150" height="150"></rect>
        <g transform="translate(24.000000, 7.000000)" fill-rule="nonzero" id="Shape">
            <path d="M57.7235211,118.943979 C57.5784507,118.080493 57.8444131,117.091585 57.8444131,116.141268 C57.8444131,114.284049 56.074554,116.623662 55.7940845,117.072289 C55.5962117,117.387674 55.2875895,117.618149 54.9284977,117.718697 C53.9613615,117.97919 53.8307981,116.932394 53.6180282,116.329401 C53.2069953,115.176479 53.1006103,114.269577 51.6837559,115.017289 C51.0828891,115.347048 50.4609733,115.637108 49.8220188,115.885599 C50.6558529,116.583079 51.5328429,117.227544 52.4477934,117.815176 C54.0338967,118.659366 55.9246479,119.34919 57.7235211,118.943979 Z" fill="#FFFFFF"></path>
            <path d="M52.0270892,119.961831 C50.7008761,119.237849 49.4572829,118.372519 48.3181221,117.381021 C48.9467606,119.624155 50.818169,122.002359 53.090939,122.47993 C54.8994836,122.856197 56.6596714,122.040951 58.0475117,120.844613 C55.9980073,121.219565 53.8817473,120.909255 52.0270892,119.961831 Z" fill="#FFFFFF"></path>
            <path d="M63.4392958,132.272535 C75.3399061,129.378169 80.1804225,117.627042 82.5499061,106.739401 C84.0006103,100.111303 84.4261502,93.8305282 84.4358216,87.0528873 L84.4358216,74.1633099 C84.4358216,73.8835211 84.4358216,73.6037324 84.4358216,73.3239437 C81.1475587,72.3977465 77.9415023,69.6480986 75.6155399,67.8728873 C71.3746479,64.6360211 67.9751643,61.1193662 65.9441784,56.2664789 C64.2516901,58.4758451 62.6220657,60.7430986 60.6539437,62.7209155 C58.6858216,64.6987324 56.5871362,65.9240141 54.4932864,67.5979225 C50.7714388,70.568621 46.4990757,72.7783006 41.9205164,74.1005986 C34.1834272,76.2569014 24.8070423,75.3837676 17.4858216,71.5680282 C17.8871831,79.1078521 19.5071362,86.3437676 20.9433333,93.7871127 C22.4423944,101.558486 24.1493897,110.449014 28.4821596,117.212183 C35.474554,128.095 50.4071362,135.456338 63.4392958,132.272535 Z M76.8438028,85.6780634 C77.0517371,85.7504225 77.1532864,86.0832746 76.9115023,86.1942254 C76.0955725,86.6048545 75.4218049,87.2501014 74.97723,88.0466197 C75.7749548,88.0839022 76.5580486,88.2738779 77.2838498,88.6061972 C77.4385915,88.3891197 77.598169,88.1816901 77.7674178,87.9597887 C77.8910797,87.7522541 78.0423622,87.562393 78.2171362,87.3953873 C78.3597885,87.2791539 78.488034,87.1463614 78.5991549,86.9998239 C78.8264319,86.7103873 79.2906573,87.0239437 79.1939437,87.3471479 C79.1310798,87.5497535 79.0585446,87.7475352 78.9956808,87.9501408 C78.8836592,88.212161 78.7190973,88.448555 78.5121127,88.6447887 C78.373897,88.7922357 78.2234573,88.9277868 78.0623944,89.05 L78.2413146,89.1802465 C78.3921977,89.3228533 78.4534149,89.536024 78.4011128,89.7366974 C78.3488108,89.9373708 78.1912636,90.0938009 77.9898592,90.1450352 C76.4376056,90.4296479 74.8660094,90.1884507 73.2944131,90.1450352 C74.220101,90.7496771 74.810179,91.7503749 74.8901878,92.8512676 C75.083615,95.5140845 73.9230516,97.3230634 71.4326761,98.3891549 C68.9423005,99.4552465 67.2739906,97.1445775 67.2304695,94.9738028 C67.248192,93.7516733 67.5078452,92.5450852 67.994507,91.4233803 C66.8097653,91.9684859 65.5766667,92.4942958 64.3870892,92.4942958 C64.1358492,92.486739 63.9191558,92.3160719 63.8534911,92.0740355 C63.7878265,91.831999 63.8886579,91.5756048 64.101784,91.4426761 C66.5196244,90.1739789 68.6860094,88.5048944 71.5293897,88.2588732 C72.4239906,88.1816901 73.3814554,88.0755634 74.3244131,88.0755634 C74.614554,86.8695775 75.5430047,85.2294366 76.8438028,85.6780634 Z M63.1491549,84.9303521 C64.2369106,84.4265605 65.2830614,83.8378151 66.2778404,83.1696127 C67.1047418,82.6872183 68.3716901,82.624507 69.3098122,82.4942606 C70.8501638,82.2138846 72.4348824,82.2964798 73.9375587,82.7354577 C74.1993566,82.8176785 74.3774197,83.0598274 74.3774197,83.3336268 C74.3774197,83.6074262 74.1993566,83.849575 73.9375587,83.9317958 C71.9404225,84.5637324 69.8514085,84.4383099 67.8010798,84.8435211 C66.0699061,85.1860211 65.0930986,86.3678873 63.1491549,85.9192606 C62.602723,85.7890141 62.7187793,85.1040141 63.1491549,84.9303521 Z M56.2776526,92.6920775 C54.8785624,89.9788413 54.1444072,86.9733007 54.135446,83.9221479 C54.1628015,83.6241459 54.4133329,83.3960632 54.7133099,83.3960632 C55.0132868,83.3960632 55.2638182,83.6241459 55.2911737,83.9221479 C55.4797653,88.2251056 57.3705164,91.5729225 60.0349765,94.8580282 C61.2632394,96.3727465 62.8735211,98.3988028 63.4199531,100.284965 C63.6009565,101.023303 63.1785294,101.775505 62.4528169,102.007113 C59.6239437,103.111796 56.5823005,105.161972 56.0987324,108.355423 C55.861784,109.928028 53.2311737,109.551761 53.332723,107.983979 C53.5890141,104.047641 56.9691549,101.365528 60.4073239,99.841162 C59.5030516,97.3182394 57.4575587,94.9786268 56.2776526,92.6920775 Z M34.3720188,82.4942606 C38.11,81.4715845 42.2880282,83.396338 45.5569484,85.1233099 C46.3935211,85.5671127 45.8857746,86.6717958 45.0346948,86.570493 C43.2938498,86.4016549 41.8383099,85.5574648 40.2473709,84.9110563 C38.3796289,84.1799934 36.4318632,83.6715651 34.444554,83.396338 C34.2496792,83.3417124 34.1095325,83.1717847 34.0933474,82.9705005 C34.0771624,82.7692162 34.1883643,82.5791758 34.3720188,82.4942606 Z M37.0703286,99.493838 C35.3730047,97.6800352 35.4503756,95.3307746 36.3304695,93.1165845 C36.9107512,91.6694014 37.7811737,90.3235211 39.5075117,90.4923592 C39.6525822,90.4682394 39.8073239,90.4392958 39.95723,90.4248239 C40.2227006,90.2815934 40.5210953,90.210086 40.8228169,90.2173944 L40.9969014,90.2173944 C40.380158,89.8668502 39.732734,89.5729873 39.0626291,89.3394366 C37.4211849,88.7611805 35.7044175,88.42321 33.9658216,88.3360563 C34.0250022,88.4746466 34.0530609,88.6244782 34.0480282,88.7750352 C34.033636,89.0352755 33.8253336,89.2430723 33.5644601,89.2574296 C32.96,89.310493 32.2830047,88.8280986 31.7800939,88.3264085 C31.4996244,88.3264085 31.2143192,88.3601761 30.9338498,88.3842958 C30.9918779,88.4566549 31.0547418,88.5290141 31.1224413,88.6061972 C31.2672295,88.7513452 31.3243752,88.9620008 31.2727233,89.1601799 C31.2210714,89.358359 31.0683081,89.5145707 30.8709859,89.5709859 C30.3869739,89.7930641 29.8224809,89.7511488 29.3767606,89.4600352 C28.993719,89.2190301 28.652401,88.9176398 28.3661033,88.5676056 C27.7750308,87.8421125 27.5186254,86.9013215 27.6600939,85.9771479 C27.7616432,85.2342606 28.9705634,85.2825 29.1107981,85.9771479 C29.2083608,86.5663023 29.481312,87.1125605 29.8941784,87.5449296 C30.0334881,87.6824417 30.1839015,87.8082887 30.3438967,87.9211972 C30.6533803,87.853662 30.9628638,87.7909507 31.2723474,87.7378873 C30.8925244,87.0903242 30.6397912,86.3765305 30.5276526,85.6346479 C30.3100469,84.6939789 31.7414085,84.2935915 31.9783568,85.2342606 C32.1621127,85.9530282 32.2539906,86.6814437 32.839108,87.2072535 C32.9551643,87.3085563 33.0857277,87.4098592 33.2162911,87.506338 C36.079115,87.2914689 38.9338274,88.0165441 41.3450704,89.5709859 C43.3518779,90.8830986 46.470892,93.1021127 45.9824883,95.8421127 C45.9292958,96.1363732 45.5376056,96.073662 45.4505634,95.8421127 C45.2861502,95.3934859 45.10723,94.9738028 44.9138028,94.5685915 C45.3683568,98.6689437 40.6632394,103.343345 37.0703286,99.493838 Z M52.544507,124.477042 C50.9148826,124.062183 49.22723,122.340035 48.4390141,120.921796 C47.6507981,119.503556 47.7523474,118.456761 47.9119249,117.033697 C46.4128638,115.663697 45.10723,114.023556 44.7880751,112.412359 L44.7397183,112.373768 C44.6530897,112.287992 44.5812054,112.188576 44.5269484,112.079507 L44.5704695,112.122923 C44.2393413,111.621189 44.209659,110.979016 44.4930986,110.449014 C44.6376444,110.106713 44.8953346,109.824112 45.2232864,109.648239 C45.6315128,109.413871 46.1464766,109.481049 46.4805634,109.812254 C46.3016432,109.686831 46.3209859,109.706127 46.5385915,109.865317 L46.5676056,109.865317 C46.8049521,110.083651 46.8802857,110.426647 46.7561972,110.723979 C46.7398584,110.812986 46.7105327,110.899124 46.6691549,110.979648 C46.6691549,110.979648 46.6691549,110.979648 46.6691549,111.018239 C46.6736522,111.136358 46.663911,111.254587 46.6401408,111.370387 C46.6401408,111.370387 46.6401408,111.370387 46.6401408,111.370387 C46.5842668,111.719205 46.4280317,112.044324 46.1904225,112.306232 C46.9237847,113.192806 47.7327555,114.014339 48.6082629,114.76162 C48.6905576,114.688391 48.7879456,114.634052 48.8935681,114.60243 C50.0251174,114.255106 52.7379343,112.190458 53.9903756,113.463979 C54.5803286,114.0525 54.5948357,115.133063 54.8946479,115.875951 C54.9526761,115.808415 55.0397183,115.721585 55.1847887,115.58169 C55.8037559,114.973873 57.6026291,113.492923 58.468216,114.616901 C58.90149,115.198237 59.1431161,115.899443 59.1597183,116.623662 C59.2081638,117.191635 59.2856355,117.756771 59.391831,118.316866 C60.4506507,117.843683 61.5558986,117.48155 62.6897653,117.236303 C62.7235238,117.067096 62.7839107,116.904285 62.8686854,116.753908 C62.8686854,116.720141 62.9170423,116.691197 62.9412207,116.65743 L62.9412207,116.618838 L62.9895775,116.45 C63.0666772,116.201517 63.2970232,116.0321 63.55777,116.0321 C63.8185167,116.0321 64.0488628,116.201517 64.1259624,116.45 L64.1791549,116.647782 L64.2178404,116.700845 L64.2565258,116.758732 C64.3550268,116.939982 64.4251495,117.135198 64.4644601,117.337606 C64.5295373,117.61773 64.4659686,117.912212 64.2910806,118.140788 C64.1161925,118.369363 63.8482147,118.508205 63.5601878,118.519472 C63.2859888,118.518264 63.0268212,118.394307 62.8541784,118.181796 C62.0521953,119.074617 61.0611084,119.778229 59.95277,120.24162 C58.6519718,123.410951 56.074554,125.374296 52.5396714,124.472218 L52.544507,124.477042 Z" fill="#FFFFFF"></path>
            <path d="M14.0041315,84.086162 C14.7948268,84.3322943 15.5593242,84.6554476 16.2865728,85.0509507 C15.5171731,80.1012177 15.0874102,75.1048595 15.0002817,70.0967254 C14.647277,69.8603521 14.2942723,69.614331 13.9557746,69.3779577 C13.6102792,69.1466279 13.5045471,68.6872366 13.7142886,68.3287347 C13.9240302,67.9702327 14.3769915,67.8361203 14.7488263,68.0224296 L15.1260094,68.2105634 C15.6095775,67.2457746 17.403615,67.4194366 17.4181221,68.7653169 C17.4181221,68.9438028 17.4181221,69.1222887 17.4181221,69.3007746 C24.9956338,72.5665845 34.5702817,73.7146831 42.1961502,70.8540845 C46.7223474,69.1560563 50.4796714,66.6717254 54.4304225,63.965493 C58.5069014,61.1724296 61.6500939,57.2650352 65.4702817,54.1487676 C65.7324231,53.897652 66.1265609,53.8428188 66.4475722,54.0128051 C66.7685835,54.1827913 66.9439079,54.5391738 66.8823005,54.8964789 C69.343662,59.7493662 73.584554,62.9862324 78.0043662,66.0542606 C80.0885446,67.5014437 81.7471831,69.1078169 84.2907512,69.8507042 L84.5083568,69.9085915 C84.5083568,69.2477113 84.5083568,68.586831 84.5373709,67.9259507 C84.5760563,66.3340493 83.9038967,65.0846479 83.7007981,63.531338 C83.4396714,61.5390493 86.6022066,61.2592606 87.1099531,63.0489437 C87.6176995,64.8386268 88.3623944,65.933662 88.4059155,67.9114789 C88.4059155,68.9100352 88.4349296,69.9085915 88.4446009,70.9071479 C88.8364433,71.0556295 89.2122992,71.2431013 89.5664789,71.4667254 C89.8149467,71.6159471 89.9668867,71.8841166 89.9668867,72.1734331 C89.9668867,72.4627496 89.8149467,72.7309191 89.5664789,72.8801408 C89.2144771,73.0775204 88.8434914,73.2391297 88.459108,73.3625352 C88.459108,74.0475352 88.459108,74.7325352 88.459108,75.4223592 C88.459108,77.9726174 88.459108,80.5212676 88.459108,83.0683099 C89.4523491,82.4682938 90.5710332,82.1051087 91.7280282,82.0070423 C92.7501874,81.9006208 93.7833406,81.9940179 94.7696714,82.282007 C100.030892,77.1396831 99.8858216,67.2602465 98.9960563,60.5742606 C97.9322066,52.4266197 94.8760563,44.2741549 89.8566197,37.7135915 C86.8004695,33.7048944 82.4386854,30.1930634 78.3283568,27.3083451 C74.7306103,24.7805986 70.7943662,24.0135915 66.4422535,23.8592254 C63.7192351,23.7064155 60.9880507,23.7903473 58.2796244,24.1100704 C57.8267225,24.4614072 57.3409048,24.7683449 56.8289202,25.0266197 C56.3330247,25.3146524 55.6981373,25.1689828 55.378216,24.6937676 C54.6074248,24.889642 53.8485789,25.1296284 53.105446,25.4125352 C51.0057371,26.2656673 48.9540016,27.2318776 46.9592958,28.3069014 C46.7551308,28.4103421 46.5452474,28.5021445 46.3306573,28.5818662 C47.2977934,28.5818662 48.2939437,28.6059859 49.2852582,28.683169 C49.792686,28.683169 50.2040376,29.0935221 50.2040376,29.5997183 C50.2040376,30.1059145 49.792686,30.5162676 49.2852582,30.5162676 C47.2010798,30.7333451 45.0250235,31.0324296 42.8151174,31.427993 C42.810278,31.5147568 42.810278,31.601722 42.8151174,31.6884859 C42.7996233,31.9341926 42.6123352,32.1347831 42.36775,32.1676281 C42.1231648,32.2004731 41.8893707,32.0564292 41.8092958,31.8235563 C41.8092958,31.7511972 41.8092958,31.6884859 41.7802817,31.6161268 C30.566338,33.7772535 18.54,38.4709507 12.1810798,47.5110211 C10.3822066,50.0725352 8.2641784,52.233662 6.93920188,55.1328521 C5.40305147,58.342668 4.3301678,61.7532706 3.75248826,65.2631338 C3.22539906,68.9052113 2.50488263,84.1344014 8.6171831,84.6409155 C10.2384334,83.659044 12.2160005,83.4553921 14.0041315,84.086162 Z M79.5276056,45.0845775 C80.8745153,45.561425 82.0582901,46.4094662 82.9415962,47.5303169 C83.7878404,48.6060563 84.9097183,49.831338 85.0112676,51.2495775 C85.0081669,51.5170986 84.863809,51.7631396 84.6315067,51.8968349 C84.3992044,52.0305301 84.1134282,52.0320411 83.8797183,51.9008099 C82.7626761,51.3267606 82.2597653,49.9712324 81.6214554,48.9630282 C80.9202817,47.8535211 80.3158216,46.7391901 79.0537089,46.1989085 C78.4153991,45.9287676 78.8747887,44.8675 79.5276056,45.0845775 Z M72.9752582,44.3754577 C74.0052582,45.3981338 74.7257746,46.7150704 75.5671831,47.8872887 C76.0183773,48.5627081 76.5438989,49.1856548 77.1339437,49.744507 C77.3757277,49.9567606 77.6175117,50.1400704 77.8883099,50.3378521 C78.0104232,50.4595557 78.0987394,50.6108248 78.1446009,50.776831 C78.0769014,50.6176408 78.1446009,50.5983451 78.28,50.7237676 C78.48585,50.8516122 78.5979089,51.087591 78.5666798,51.3274712 C78.5354507,51.5673513 78.366686,51.766948 78.1349296,51.8380986 C77.5302503,52.1137531 76.8247483,52.0514384 76.2780282,51.6740845 C75.619602,51.182138 75.0518364,50.5798412 74.6000469,49.8940493 C73.6329108,48.5095775 72.9075587,46.8453169 71.7760094,45.5525 C71.0458216,44.7613732 72.1918779,43.5939789 72.9752582,44.3754577 Z M47.4960563,51.5390141 C47.9796244,51.0566197 48.7049765,51.6740845 48.4051643,52.2384859 C45.8132394,57.1396127 41.0694366,58.7025704 36.2676056,60.7382746 C35.701831,60.9794718 35.2037559,60.2124648 35.7840376,59.8892606 C39.8508451,57.5641197 44.2851643,55.0122535 47.4960563,51.5390141 Z M40.6342254,48.8761972 C38.0761502,50.9360211 34.7105164,51.5100704 31.8913146,53.1309155 C28.9318779,54.8337676 26.325446,57.2167958 24.9714554,60.3909507 C24.8989202,60.5597887 24.6668075,60.4295423 24.6909859,60.2751761 C25.8757277,53.2997535 33.7143662,49.2958803 40.0587793,47.8921127 C40.5858685,47.776338 41.1274648,48.4806338 40.6342254,48.8761972 Z M14.3619718,60.1449296 C16.4364789,54.032993 22.553615,45.7068662 29.7249296,45.8708803 C30.0080209,45.8708803 30.2375117,46.0998141 30.2375117,46.3822183 C30.2375117,46.6646225 30.0080209,46.8935563 29.7249296,46.8935563 C22.7276995,47.8197535 19.811784,56.3147183 15.5467136,60.8299296 C15.3162513,61.0441453 14.9724824,61.0828564 14.6999496,60.925282 C14.4274168,60.7677075 14.2902047,60.4509005 14.3619718,60.1449296 Z" fill="#FFFFFF"></path>
            <path d="M16.6057277,87.2024296 C15.1550235,86.2086972 12.5921127,86.1749296 11.1075587,86.5897887 C8.87830986,87.2169014 6.62488263,93.2661268 7.33089202,95.5430282 C8.24967136,98.4904577 11.8038967,101.331761 14.4635211,102.778944 C16.1656808,103.695493 17.9548826,104.12 19.7392488,104.602394 C19.0429108,101.708028 18.4964789,98.813662 18.0274178,95.9434155 C17.5486854,92.9815141 17.055446,90.0871479 16.6057277,87.2024296 Z" fill="#FFFFFF"></path>
            <path d="M41.8141315,92.1759155 L41.7367606,92.2338028 C41.5389834,92.345744 41.2909185,92.3143201 41.1274648,92.1566197 C41.0452582,92.0890845 40.9630516,92.0263732 40.8760094,91.963662 C40.5714041,91.9619578 40.2674145,91.9361492 39.9669014,91.8864789 C39.6380751,91.8430634 38.5161972,91.5970423 38.5161972,92.1469718 C38.5101396,92.2754955 38.41976,92.3846004 38.2943732,92.4147542 C38.1689865,92.4449079 38.0386989,92.3888705 37.9746009,92.2772183 L37.8778873,92.4364085 C37.7150462,93.082923 37.6018853,93.7408886 37.5393897,94.4045775 C37.3556338,95.8517606 37.5393897,97.7234507 39.019108,98.471162 C40.9001878,99.4359507 42.4282629,97.8585211 43.0037089,96.1122535 C43.4969484,94.5927113 43.1923005,93.0876408 41.8141315,92.1759155 Z M41.5626761,95.0075704 L41.5288263,95.0992254 C41.5463601,95.2434569 41.5331776,95.3897562 41.4901408,95.5285563 C41.4675012,95.8354148 41.339398,96.1250774 41.1274648,96.3486268 C40.7426696,96.7323704 40.1471197,96.8096039 39.6767606,96.5367606 C39.3129547,96.318344 39.0880361,95.927972 39.0819718,95.5044366 C39.0719931,95.2981629 39.0817082,95.0914099 39.1109859,94.8869718 C39.1093355,94.7312443 39.1338534,94.5763415 39.1835211,94.4286972 C39.2746498,94.1240715 39.490318,93.8719001 39.7775241,93.7341554 C40.0647301,93.5964107 40.3968464,93.5858634 40.6922535,93.7051056 L40.6148826,93.6616901 C40.6835965,93.6731761 40.7514514,93.6892928 40.8179812,93.7099296 C41.3779303,93.8693995 41.7083319,94.4451287 41.5626761,95.0075704 Z" fill="#FFFFFF"></path>
            <path d="M93.957277,85.1377817 C91.5394366,84.0958099 89.7357277,84.9978873 88.4784507,86.5849648 L88.4784507,90.9265141 C88.4748841,95.3348478 88.0767778,99.7340612 87.2888732,104.071761 C91.1574178,101.230458 93.9476056,95.7118662 94.9244131,91.1966549 C95.2774178,89.6047535 95.9979343,86.0157394 93.957277,85.1377817 Z" fill="#FFFFFF"></path>
            <path d="M70.4848826,90.3572887 C69.919108,91.3799648 69.3291549,92.4798239 69.2904695,93.6906338 C69.251784,94.9014437 69.2904695,97.7427465 71.5003756,96.7104225 C73.2847418,95.8855282 73.8456808,94.7084859 74.0246009,92.8126761 C74.2035211,90.9168662 72.8060094,90.4585915 71.3601408,90.1836268 C71.06503,90.2231699 70.7727014,90.2811715 70.4848826,90.3572887 Z M71.645446,91.8913028 L71.7276526,91.8913028 L71.7760094,91.8913028 C71.8436448,91.9126594 71.9085576,91.9417993 71.9694366,91.9781338 L71.9984507,91.9781338 C72.1526616,92.0724788 72.2611059,92.2260262 72.2982629,92.4026408 C72.4209696,92.5226351 72.513724,92.6696905 72.569061,92.8319718 C72.4675117,92.5328873 72.6367606,92.9959859 72.6657746,93.0972887 L72.7189671,93.2757746 C72.7662267,93.432267 72.7906556,93.5947316 72.7915023,93.758169 C72.8053084,93.8686923 72.8053084,93.9804978 72.7915023,94.0910211 C72.7915023,94.1296127 72.7915023,94.1633803 72.7915023,94.2019718 C72.7296895,94.5431659 72.5010558,94.8309797 72.1822066,94.9689789 C72.0969451,95.0183114 72.00602,95.0571848 71.9114085,95.0847535 C71.6894827,95.128313 71.4611746,95.128313 71.2392488,95.0847535 C71.1447004,95.0570098 71.0537957,95.0181452 70.9684507,94.9689789 C70.6496015,94.8309797 70.4209677,94.5431659 70.3591549,94.2019718 C70.3591549,94.1633803 70.3591549,94.1296127 70.3591549,94.0910211 C70.3455011,93.9821026 70.3455011,93.8719115 70.3591549,93.762993 C70.3575488,93.5914693 70.3820048,93.420693 70.4316901,93.2564789 C70.4607042,93.1648239 70.4848826,93.077993 70.5187324,92.991162 C70.5634546,92.9061107 70.6006687,92.8173365 70.6299531,92.7258451 C70.612097,92.7554528 70.5959517,92.7860543 70.5815962,92.8175 C70.5959517,92.7860543 70.612097,92.7554528 70.6299531,92.7258451 C70.6825601,92.6005488 70.7579797,92.4860584 70.8523944,92.388169 C70.8882009,92.2058004 71.000954,92.0476262 71.1618779,91.9540141 L71.2247418,91.9202465 C71.335766,91.8592036 71.4606509,91.8276429 71.5874178,91.8285915 L71.645446,91.8913028 Z" fill="#FFFFFF"></path>
            <path d="M24.0333333,34.4333099 C29.990892,31.592007 36.1805634,29.4357042 42.6313615,28.7892958 C43.9660094,27.2745775 46.4999061,26.3773239 48.1150235,25.5379577 C50.5904623,24.2147802 53.2025078,23.1634402 55.9053052,22.4023944 C57.6703286,19.5369718 60.9585915,16.3145775 59.619108,12.8558099 C58.361831,9.61411972 54.6673709,7.8003169 51.6547418,6.50267606 C44.7493897,3.53112676 36.6302817,1.96334507 29.2703756,4.19683099 C22.5099541,6.3788779 17.1823546,11.6219923 14.9035681,18.3358099 C13.8286484,21.400424 13.4118188,24.6562947 13.6801408,27.8920423 C14.1056808,31.9441549 18.6173709,34.679331 22.3843662,35.2340845 L24.0333333,34.4333099 Z M28.506338,20.632007 C29.9812207,20.8490845 30.5324883,22.006831 30.9241784,23.2996479 C31.0462362,23.8715485 31.31823,24.4008988 31.7123944,24.833662 C32.1621127,25.2244014 32.9309859,25.8466901 32.4861033,26.5365141 C31.4029108,28.2104225 29.3042254,26.1891901 28.9125352,24.9976761 C28.6417371,24.1872535 28.6997653,22.3059155 27.9937559,21.8283451 C27.7094793,21.6606768 27.5939377,21.308699 27.7237325,21.0057651 C27.8535274,20.7028312 28.1884003,20.542902 28.506338,20.632007 Z M22.5923005,18.9146831 C22.9307981,18.7217254 23.1919249,19.2041197 22.887277,19.4211972 C21.6686854,20.3039789 22.4907512,23.3864789 23.1774178,24.4332746 C23.8640845,25.4800704 25.053662,25.6392606 25.8515493,26.5220423 C26.0546479,26.7487676 26.0062911,27.2118662 25.6532864,27.2697535 C23.6416432,27.5977817 22.1280751,25.6151408 21.6058216,23.892993 C21.160939,22.4554577 21.0738967,19.782993 22.5923005,18.919507 L22.5923005,18.9146831 Z" fill="#FFFFFF"></path>
            <path d="M63.405446,100.289789 C62.8735211,98.4036268 61.2632394,96.3775704 60.0204695,94.8628521 C57.3608451,91.5777465 55.4652582,88.2299296 55.2766667,83.9269718 C55.2493112,83.6289699 54.9987797,83.4008872 54.6988028,83.4008872 C54.3988259,83.4008872 54.1482944,83.6289699 54.120939,83.9269718 C54.1299002,86.9781246 54.8640553,89.9836653 56.2631455,92.6969014 C57.4237089,94.9786268 59.4885446,97.3182394 60.3686385,99.841162 C56.9256338,101.365528 53.545493,104.047641 53.2940376,107.983979 C53.1924883,109.551761 55.8279343,109.913556 56.0600469,108.355423 C56.543615,105.161972 59.5852582,103.11662 62.4141315,102.007113 C63.1472548,101.785544 63.5813446,101.03354 63.405446,100.289789 Z" fill="#E20400"></path>
            <path d="M45.5569484,85.1233099 C42.2880282,83.3915141 38.11,81.4715845 34.3720188,82.4942606 C34.1723804,82.5676991 34.0443214,82.7626876 34.0565554,82.9745991 C34.0687894,83.1865107 34.2184414,83.3655441 34.4252113,83.4156338 C36.4125205,83.6908609 38.3602862,84.1992892 40.2280282,84.9303521 C41.8189671,85.5767606 43.2793427,86.4209507 45.0153521,86.5897887 C45.8857746,86.6766197 46.3886854,85.5671127 45.5569484,85.1233099 Z" fill="#E20400"></path>
            <path d="M73.9375587,82.7306338 C72.4348824,82.2916559 70.8501638,82.2090607 69.3098122,82.4894366 C68.3765258,82.6196831 67.1095775,82.6823944 66.2778404,83.1647887 C65.2830614,83.8329912 64.2369106,84.4217365 63.1491549,84.9255282 C62.7187793,85.0991901 62.6075587,85.7890141 63.1491549,85.8903169 C65.0834272,86.3389437 66.0505634,85.1522535 67.8010798,84.8145775 C69.8514085,84.4093662 71.9404225,84.5347887 73.9375587,83.9028521 C74.1814273,83.8102752 74.3426156,83.5770391 74.3426156,83.316743 C74.3426156,83.0564468 74.1814273,82.8232107 73.9375587,82.7306338 Z" fill="#E20400"></path>
            <path d="M29.7297653,45.8564085 C22.553615,45.6730986 16.4413146,54.0185211 14.3619718,60.1449296 C14.2837678,60.4537708 14.4201217,60.77693 14.696185,60.9370163 C14.9722484,61.0971027 15.3212238,61.055381 15.5515493,60.8347535 C19.8166197,56.3195423 22.7325352,47.8101056 29.7297653,46.8983803 C30.0181979,46.8983803 30.2520188,46.6651269 30.2520188,46.3773944 C30.2520188,46.0896618 30.0181979,45.8564085 29.7297653,45.8564085 Z" fill="#E20400"></path>
            <path d="M40.049108,47.8969366 C33.6998592,49.3007042 25.8612207,53.3045775 24.6813146,60.28 C24.6571362,60.4391901 24.8892488,60.5694366 24.961784,60.3957746 C26.3157746,57.2167958 28.9222066,54.8385915 31.8816432,53.1357394 C34.7056808,51.5100704 38.0664789,50.9408451 40.624554,48.8810211 C41.1274648,48.4806338 40.5858685,47.776338 40.049108,47.8969366 Z" fill="#E20400"></path>
            <path d="M47.4960563,51.5390141 C44.2851643,55.0122535 39.8508451,57.5641197 35.7743662,59.8940845 C35.2085915,60.2172887 35.701831,60.9794718 36.2579343,60.7430986 C41.0549296,58.7073944 45.8035681,57.1444366 48.395493,52.2433099 C48.7049765,51.6740845 47.9602817,51.0421479 47.4960563,51.5390141 Z" fill="#E20400"></path>
            <path d="M78.2509859,50.7237676 C78.0914085,50.5983451 78.0478873,50.6128169 78.1155869,50.776831 C78.0697253,50.6108248 77.9814091,50.4595557 77.8592958,50.3378521 C77.6078404,50.1400704 77.3467136,49.9567606 77.1049296,49.744507 C76.5148848,49.1856548 75.9893633,48.5627081 75.538169,47.8872887 C74.7015962,46.7150704 73.9762441,45.3981338 72.9462441,44.3754577 C72.1628638,43.5939789 71.0119718,44.7613732 71.7421596,45.5766197 C72.8737089,46.8501408 73.5748826,48.5144014 74.5661972,49.918169 C75.0179866,50.6039609 75.5857522,51.2062577 76.2441784,51.6982042 C76.7908986,52.0755581 77.4964005,52.1378728 78.1010798,51.8622183 C78.3473182,51.800454 78.5307717,51.5949395 78.5638393,51.34381 C78.5969069,51.0926805 78.4728813,50.8468748 78.2509859,50.7237676 Z" fill="#E20400"></path>
            <path d="M82.9415962,47.5303169 C82.0582901,46.4094662 80.8745153,45.561425 79.5276056,45.0845775 C78.8747887,44.8675 78.4153991,45.9287676 79.0440376,46.1989085 C80.3061502,46.7391901 80.9106103,47.8535211 81.611784,48.9630282 C82.2452582,49.9664085 82.7530047,51.3267606 83.8700469,51.9008099 C84.1037568,52.0320411 84.3895331,52.0305301 84.6218353,51.8968349 C84.8541376,51.7631396 84.9984956,51.5170986 85.0015962,51.2495775 C84.9097183,49.831338 83.7878404,48.6060563 82.9415962,47.5303169 Z" fill="#E20400"></path>
            <path d="M25.8515493,26.5268662 C25.053662,25.6440845 23.8785915,25.513838 23.1774178,24.4380986 C22.4762441,23.3623592 21.6686854,20.3088028 22.887277,19.4260211 C23.1870892,19.2089437 22.9259624,18.7265493 22.5923005,18.919507 C21.0738967,19.7878169 21.1415962,22.4554577 21.6251643,23.9171127 C22.1474178,25.6199648 23.6609859,27.6074296 25.6726291,27.2938732 C26.0256338,27.2166901 26.0546479,26.7535915 25.8515493,26.5268662 Z" fill="#E20400"></path>
            <path d="M31.7220657,24.833662 C31.3279014,24.4008988 31.0559075,23.8715485 30.9338498,23.2996479 C30.5324883,22.006831 29.9667136,20.8490845 28.5160094,20.632007 C28.2054957,20.5694868 27.8944259,20.7366736 27.775962,21.0297511 C27.657498,21.3228285 27.765306,21.6585076 28.0324413,21.8283451 C28.7432864,22.3107394 28.6852582,24.1872535 28.9512207,24.9976761 C29.3477465,26.1891901 31.4464319,28.2104225 32.5247887,26.5365141 C32.9406573,25.8466901 32.171784,25.2292254 31.7220657,24.833662 Z" fill="#E20400"></path>
            <path d="M41.3450704,89.5709859 C38.9251451,88.012068 36.0592547,87.2884373 33.187277,87.511162 C33.0567136,87.4146831 32.9261502,87.3182042 32.8100939,87.2120775 C32.2249765,86.6910915 32.1330986,85.9530282 31.9493427,85.2390845 C31.7123944,84.2984155 30.2810329,84.6988028 30.4986385,85.6394718 C30.6107771,86.3813545 30.8635104,87.0951482 31.2433333,87.7427113 C30.9338498,87.7957746 30.6243662,87.853662 30.3148826,87.9260211 C30.1548874,87.8131126 30.0044741,87.6872657 29.8651643,87.5497535 C29.4653031,87.1241494 29.1996193,86.5907167 29.1011268,86.0157394 C28.960892,85.3210915 27.7519718,85.2728521 27.6504225,86.0157394 C27.5089541,86.939913 27.7653594,87.880704 28.3564319,88.6061972 C28.6427297,88.9562314 28.9840477,89.2576217 29.3670892,89.4986268 C29.8128095,89.7897403 30.3773026,89.8316556 30.8613146,89.6095775 C31.0586367,89.5531622 31.2114,89.3969505 31.263052,89.1987714 C31.3147039,89.0005924 31.2575582,88.7899368 31.11277,88.6447887 C31.0402347,88.5676056 30.9822066,88.4952465 30.9241784,88.4228873 C31.2046479,88.3939437 31.4899531,88.3794718 31.7704225,88.365 C32.2539906,88.8473944 32.9503286,89.3297887 33.5547887,89.2960211 C33.8156622,89.2816639 34.0239646,89.073867 34.0383568,88.8136268 C34.0433895,88.6630697 34.0153309,88.5132381 33.9561502,88.3746479 C35.7035756,88.4527986 37.4302891,88.7843029 39.0819718,89.3587324 C39.7520768,89.5922831 40.3995007,89.886146 41.0162441,90.2366901 L40.8421596,90.2366901 C40.540438,90.2293817 40.2420434,90.3008892 39.9765728,90.4441197 C39.8266667,90.4441197 39.6767606,90.4875352 39.5268545,90.5116549 C37.8053521,90.337993 36.9300939,91.6742254 36.3498122,93.1358803 C35.4697183,95.3452465 35.3826761,97.699331 37.0896714,99.5131338 C40.6874178,103.372289 45.3731925,98.6882394 44.9379812,94.5830634 C45.1314085,94.9834507 45.3103286,95.4079577 45.4747418,95.8565845 C45.561784,96.0881338 45.9583099,96.1508451 46.0066667,95.8565845 C46.470892,93.0972887 43.3518779,90.8782746 41.3450704,89.5709859 Z M42.9940376,96.1170775 C42.4185915,97.8633451 40.8905164,99.4263028 39.0094366,98.4759859 C37.5248826,97.7234507 37.3459624,95.8710563 37.5297183,94.4094014 C37.5922139,93.7457125 37.7053748,93.0877469 37.868216,92.4412324 L37.9649296,92.2820423 C38.0290276,92.3936945 38.1593152,92.4497319 38.2847019,92.4195781 C38.4100886,92.3894243 38.5004682,92.2803194 38.5065258,92.1517958 C38.5065258,91.6018662 39.6429108,91.8478873 39.95723,91.8913028 C40.2577431,91.9409731 40.5617328,91.9667818 40.866338,91.9684859 C40.9533803,92.0311972 41.0355869,92.0939085 41.1177934,92.1614437 C41.2812471,92.3191441 41.529312,92.3505679 41.7270892,92.2386268 L41.8044601,92.1807394 C43.1923005,93.0876408 43.4969484,94.5927113 42.9940376,96.1122535 L42.9940376,96.1170775 Z" fill="#312783"></path>
            <path d="M40.8228169,93.7051056 C40.7562871,93.6844689 40.6884322,93.6683521 40.6197183,93.6568662 L40.6970892,93.7002817 C40.401682,93.5810395 40.0695658,93.5915868 39.7823597,93.7293315 C39.4951537,93.8670762 39.2794855,94.1192476 39.1883568,94.4238732 C39.1386891,94.5715176 39.1141712,94.7264203 39.1158216,94.8821479 C39.0865439,95.086586 39.0768288,95.2933389 39.0868075,95.4996127 C39.0928718,95.923148 39.3177904,96.31352 39.6815962,96.5319366 C40.1519554,96.80478 40.7475053,96.7275464 41.1323005,96.3438028 C41.3442337,96.1202535 41.4723369,95.8305909 41.4949765,95.5237324 C41.5380133,95.3849322 41.5511958,95.2386329 41.533662,95.0944014 L41.5675117,95.0027465 C41.7131676,94.4403048 41.382766,93.8645755 40.8228169,93.7051056 Z" fill="#312783"></path>
            <path d="M78.5846479,86.9901761 C78.4735269,87.1367136 78.3452815,87.269506 78.2026291,87.3857394 C78.0278551,87.5527451 77.8765727,87.7426062 77.7529108,87.9501408 C77.598169,88.1672183 77.4434272,88.3794718 77.2693427,88.5965493 C76.5350544,88.2662031 75.7435024,88.0810822 74.9385446,88.0514437 C75.3831195,87.2549253 76.056887,86.6096784 76.8728169,86.1990493 C77.1146009,86.0880986 77.0130516,85.7552465 76.8051174,85.6828873 C75.5043192,85.2342606 74.5807042,86.8744014 74.2470423,88.0369718 C73.3040845,88.0369718 72.3466197,88.1430986 71.4520188,88.2202817 C68.6086385,88.4663028 66.4519249,90.1498592 64.0244131,91.4040845 C63.811287,91.5370133 63.7104556,91.7934074 63.7761202,92.0354439 C63.8417849,92.2774804 64.0584783,92.4481475 64.3097183,92.4557042 C65.5138028,92.4557042 66.7275587,91.9298944 67.9171362,91.3847887 C67.4304743,92.5064936 67.1708211,93.7130817 67.1530986,94.9352113 C67.1966197,97.1108099 68.9277934,99.3925352 71.3553052,98.3505634 C73.7828169,97.3085915 75.0062441,95.4561972 74.8128169,92.8126761 C74.7328081,91.7117833 74.1427301,90.7110855 73.2170423,90.1064437 C74.7934742,90.1546831 76.3602347,90.3958803 77.9124883,90.1064437 C78.1138928,90.0552094 78.2714399,89.8987793 78.3237419,89.6981059 C78.376044,89.4974325 78.3148269,89.2842617 78.1639437,89.1416549 L77.9850235,89.0114085 C78.1460864,88.8891953 78.2965261,88.7536441 78.4347418,88.6061972 C78.6417264,88.4099635 78.8062883,88.1735695 78.9183099,87.9115493 C78.9811737,87.7137676 79.0537089,87.511162 79.1165728,87.3085563 C79.2761502,87.0142958 78.8119249,86.7007394 78.5846479,86.9901761 Z M74.0197653,92.8078521 C73.8408451,94.698838 73.2750704,95.8758803 71.4955399,96.7055986 C69.2711268,97.7379225 69.2469484,94.9400352 69.2856338,93.6858099 C69.3243192,92.4315845 69.9142723,91.3799648 70.4800469,90.3524648 C70.7678657,90.2763475 71.0601943,90.2183459 71.3553052,90.1788028 C72.8060094,90.4537676 74.2035211,90.8638028 74.0246009,92.8126761 L74.0197653,92.8078521 Z" fill="#312783"></path>
            <path d="M70.5719249,92.9028521 C70.5867682,92.8702588 70.6034621,92.8385404 70.6219249,92.8078521 L70.5719249,92.9028521 Z" fill="#312783"></path>
            <path d="M72.8398592,93.845 C72.8390124,93.6815626 72.8145835,93.519098 72.7673239,93.3626056 L72.7141315,93.1841197 C72.6851174,93.0876408 72.5158685,92.6197183 72.6174178,92.9188028 C72.5620808,92.7565215 72.4693264,92.6094661 72.3466197,92.4894718 C72.3094627,92.3128572 72.2010184,92.1593098 72.0468075,92.0649648 L72.0177934,92.0649648 C71.9569144,92.0286303 71.8920016,91.9994904 71.8243662,91.9781338 L71.7760094,91.9781338 L71.6938028,91.9781338 L71.6164319,91.9781338 C71.489665,91.9771851 71.3647801,92.0087458 71.2537559,92.0697887 L71.190892,92.1035563 C71.0299681,92.1971685 70.917215,92.3553427 70.8814085,92.5377113 C70.7869938,92.6356007 70.7115742,92.750091 70.6589671,92.8753873 C70.6296828,92.9668788 70.5924687,93.0556529 70.5477465,93.1407042 C70.5138967,93.2275352 70.4848826,93.3191901 70.4607042,93.4060211 C70.4110189,93.5702352 70.3865629,93.7410115 70.388169,93.9125352 C70.3745152,94.0214538 70.3745152,94.1316448 70.388169,94.2405634 C70.388169,94.2791549 70.388169,94.3129225 70.388169,94.3515141 C70.4499818,94.6927081 70.6786156,94.9805219 70.9974648,95.1185211 C71.0828098,95.1676875 71.1737144,95.2065521 71.2682629,95.2342958 C71.4901886,95.2778552 71.7184968,95.2778552 71.9404225,95.2342958 C72.035034,95.206727 72.1259592,95.1678537 72.2112207,95.1185211 C72.5300698,94.9805219 72.7587036,94.6927081 72.8205164,94.3515141 C72.8205164,94.3129225 72.8205164,94.2791549 72.8205164,94.2405634 C72.8464818,94.1103818 72.853,93.9770846 72.8398592,93.845 Z" fill="#312783"></path>
            <path d="M64.4741315,117.395493 C64.4348209,117.193085 64.3646982,116.997869 64.2661972,116.81662 L64.2275117,116.758732 L64.1888263,116.705669 L64.1356338,116.507887 C64.0585341,116.259405 63.828188,116.089987 63.5674413,116.089987 C63.3066946,116.089987 63.0763485,116.259405 62.9992488,116.507887 L62.950892,116.676725 L62.950892,116.715317 C62.950892,116.749085 62.9025352,116.778028 62.8783568,116.811796 C62.793582,116.962172 62.7331952,117.124984 62.6994366,117.29419 C61.56557,117.539437 60.4603221,117.90157 59.4015023,118.374754 C59.2953068,117.814659 59.2178352,117.249522 59.1693897,116.681549 C59.1527874,115.95733 58.9111614,115.256124 58.4778873,114.674789 C57.6123005,113.560458 55.8134272,115.041408 55.1944601,115.639577 C55.0493897,115.779472 54.9623474,115.871127 54.9043192,115.933838 C54.604507,115.195775 54.5948357,114.115211 54.0000469,113.521866 C52.7476056,112.272465 50.0347887,114.317817 48.9032394,114.660317 C48.797617,114.691939 48.7002289,114.746279 48.6179343,114.819507 C47.7424268,114.072227 46.9334561,113.250693 46.2000939,112.36412 C46.4377031,112.102211 46.5939381,111.777092 46.6498122,111.428275 C46.6498122,111.428275 46.6498122,111.428275 46.6498122,111.428275 C46.6735824,111.312474 46.6833235,111.194245 46.6788263,111.076127 C46.6788263,111.076127 46.6788263,111.052007 46.6788263,111.037535 C46.7202041,110.957011 46.7495297,110.870873 46.7658685,110.781866 C46.889957,110.484534 46.8146234,110.141538 46.577277,109.923204 L46.5482629,109.923204 C46.3306573,109.764014 46.3113146,109.744718 46.4902347,109.870141 C46.1561479,109.538936 45.6411841,109.471758 45.2329577,109.706127 C44.9050059,109.881999 44.6473158,110.1646 44.50277,110.506901 C44.2193303,111.036904 44.2490126,111.679076 44.5801408,112.18081 L44.5366197,112.137394 C44.5908768,112.246463 44.662761,112.345879 44.7493897,112.431655 L44.7977465,112.470246 C45.1169014,114.081444 46.4225352,115.716761 47.9215962,117.091585 C47.7620188,118.538768 47.6507981,119.561444 48.4486854,120.979683 C49.2465728,122.397923 50.9293897,124.124894 52.5541784,124.53493 C56.089061,125.432183 58.6664789,123.473662 59.9576056,120.362218 C61.065944,119.898828 62.057031,119.195216 62.8590141,118.302394 C63.0316569,118.514906 63.2908244,118.638862 63.5650235,118.64007 C63.8683039,118.634932 64.1515996,118.488151 64.3302322,118.243601 C64.5088648,117.999051 64.5621392,117.685065 64.4741315,117.395493 Z M51.6982629,115.012465 C53.0957746,114.264754 53.2021596,115.171655 53.6325352,116.324577 C53.8453052,116.92757 53.9855399,117.97919 54.9430047,117.713873 C55.3020965,117.613325 55.6107187,117.38285 55.8085915,117.067465 C56.089061,116.614014 57.8637559,114.279225 57.8589202,116.136444 C57.8589202,117.101232 57.5977934,118.066021 57.7380282,118.939155 C55.9391549,119.344366 54.0484038,118.654542 52.4768075,117.82 C51.5618569,117.232368 50.684867,116.587903 49.8510329,115.890423 C50.4851665,115.639788 51.102222,115.348123 51.6982629,115.017289 L51.6982629,115.012465 Z M53.090939,122.489577 C50.818169,122.007183 48.9467606,119.633803 48.3181221,117.390669 C49.4572829,118.382167 50.7008761,119.247496 52.0270892,119.971479 C53.880351,120.917837 55.9947296,121.22812 58.0426761,120.854261 C56.6548357,122.050599 54.8946479,122.856197 53.105446,122.494401 L53.090939,122.489577 Z" fill="#E20400"></path>
            <path d="M6.82314554,86.3051761 C6.11885097,87.2267465 5.62384858,88.2900645 5.37244131,89.4214437 C4.91788732,91.4571479 3.92173709,93.3915493 4.2699061,95.5382042 C4.66643192,98.0321831 6.07361502,99.8797535 7.90150235,101.529542 C11.11723,104.472148 15.8707042,108.080458 20.5564789,107.723486 C21.8766197,112.330352 23.6706573,116.787676 26.2867606,120.748134 C30.4551174,127.019261 37.0558216,131.843204 44.4012207,134.534965 L49.0241315,135.856725 L53.5406573,136.652676 L54.2128169,136.715387 L57.1432394,136.807042 L59.7931925,136.807042 C60.7603286,136.739507 61.7613146,136.638204 62.7284507,136.479014 C75.8476526,134.337183 82.4918779,123.015387 85.70277,111.148486 C86.1379812,109.540505 86.5248357,107.922876 86.8633333,106.295599 C87.139131,106.483336 87.4769218,106.557642 87.8062911,106.503028 C91.5829577,105.938627 93.8895775,102.060176 95.5433803,99.0017958 C97.4776526,95.4851408 99.0444131,91.0953521 98.5415023,87.0384155 C98.442241,86.091983 98.1226482,85.1817851 97.608216,84.3804225 C103.377183,78.6447535 103.217606,67.9307746 102.342347,60.5887324 C101.205962,51.0180282 97.047277,40.1062676 90.0161972,33.2755634 C86.2201878,29.5900704 81.6069484,25.6682042 76.795446,23.3961268 C72.2934272,21.2687676 66.7033803,21.5389085 61.8580282,21.5775 C61.4276526,21.5775 60.997277,21.6112676 60.5717371,21.6402113 C62.0492362,19.4513616 62.9353471,16.9191151 63.1443192,14.2885211 C63.4296244,10.4534859 60.0639906,7.59288732 57.2061033,5.70672535 C48.743662,0.115774648 36.8962441,-1.4809507 27.2732394,1.47130282 C18.6657277,4.11 12.4035211,12.8268662 10.8319249,21.3845423 C10.1500939,25.0748592 9.94699531,29.5321831 12.5292488,32.5519718 C14.3408474,34.752821 16.9132154,36.1968037 19.7392488,36.5992606 C17.3455869,37.8969014 14.9664319,39.4019718 13.269108,41.0951761 C11.8667606,42.4941197 10.7497183,44.4044014 9.53596244,45.9963028 C8.10943662,47.867993 6.63455399,49.5370775 5.38694836,51.5534859 C3.24474178,55.0701408 1.9584507,59.2235563 1.08802817,63.2177817 C0.270798122,66.961162 -0.575446009,72.4315141 0.604460094,76.1073592 C1.54741784,79.1898592 3.29793427,85.8999648 6.82314554,86.3051761 Z M14.4683568,102.754824 C11.8087324,101.307641 8.25450704,98.4904577 7.3357277,95.5189085 C6.62488263,93.242007 8.87830986,87.1927817 11.1123944,86.565669 C12.5969484,86.1508099 15.1405164,86.1845775 16.6105634,87.1783099 C17.055446,90.0726761 17.5535211,92.9670423 18.0370892,95.9 C18.5206573,98.7557746 19.0525822,101.688732 19.7489202,104.558979 C17.9597183,104.100704 16.1705164,103.671373 14.4683568,102.754824 Z M84.4551643,74.1633099 L84.4551643,87.0528873 C84.4551643,93.8353521 84.0151174,100.111303 82.5692488,106.739401 C80.1852582,117.631866 75.3495775,129.368521 63.4392958,132.272535 C50.4071362,135.456338 35.474554,128.095 28.5015023,117.202535 C24.1493897,110.449014 22.4665728,101.548838 20.9626761,93.7774648 C19.5119718,86.3341197 17.9065258,79.0982042 17.5051643,71.5583803 C24.826385,75.3741197 34.1930986,76.2472535 41.9398592,74.0909507 C46.5184184,72.7686527 50.7907815,70.5589731 54.5126291,67.5882746 C56.6064789,65.9143662 58.7631925,64.6311972 60.6732864,62.7112676 C62.5833803,60.791338 64.2758685,58.4661972 65.9635211,56.256831 C67.9896714,61.1097183 71.3891549,64.6311972 75.6348826,67.8632394 C77.9608451,69.6384507 81.1669014,72.3929225 84.4551643,73.3142958 C84.4551643,73.6037324 84.4551643,73.8835211 84.4551643,74.1633099 Z M94.9292488,91.2014789 C93.9621127,95.7166901 91.1719249,101.235282 87.2937089,104.076585 C88.0816391,99.7388886 88.4797455,95.3396729 88.4832864,90.931338 L88.4832864,86.5897887 C89.7405634,84.9882394 91.5394366,84.086162 93.9621127,85.1426056 C95.9979343,86.0157394 95.2774178,89.6047535 94.9292488,91.2014789 Z M13.6607981,27.8920423 C13.3986744,24.6549376 13.822099,21.39903 14.9035681,18.3358099 C17.1924565,11.6238968 22.5292405,6.38772335 29.294554,4.21612676 C36.6544601,1.98746479 44.7687324,3.55524648 51.6789202,6.52197183 C54.6915493,7.81961268 58.3860094,9.63341549 59.6432864,12.8751056 C60.98277,16.3338732 57.7090141,19.5514437 55.9294836,22.4216901 C53.2266985,23.182772 50.6146568,24.2341104 48.1392019,25.5572535 C46.5095775,26.4014437 43.9950235,27.2938732 42.6555399,28.8085915 C36.1999061,29.4405282 30.0102347,31.596831 24.0575117,34.4381338 L22.3988732,35.2389085 C18.5980282,34.679331 14.086338,31.9441549 13.6607981,27.8920423 Z M3.78150235,65.2824296 C4.35918189,61.7725664 5.43206556,58.3619638 6.96821596,55.1521479 C8.29319249,52.2577817 10.406385,50.091831 12.2100939,47.5303169 C18.5690141,38.4902465 30.5856808,33.7965493 41.8092958,31.6354225 C41.8092958,31.7077817 41.8092958,31.770493 41.8383099,31.8428521 C41.9183848,32.075725 42.1521789,32.2197689 42.3967641,32.1869238 C42.6413493,32.1540788 42.8286374,31.9534884 42.8441315,31.7077817 C42.8392417,31.6210192 42.8392417,31.5340512 42.8441315,31.4472887 C45.0588732,31.0517254 47.2349296,30.7478169 49.3142723,30.5355634 C49.8217001,30.5355634 50.2330516,30.1252103 50.2330516,29.6190141 C50.2330516,29.1128179 49.8217001,28.7024648 49.3142723,28.7024648 C48.3471362,28.6252817 47.3413146,28.601162 46.3596714,28.601162 C46.5742654,28.5214499 46.7841493,28.4296472 46.9883099,28.3261972 C48.9731575,27.2455745 51.0151906,26.2729307 53.105446,25.4125352 C53.8545028,25.122418 54.6198311,24.8759813 55.3975587,24.6744718 C55.71748,25.149687 56.3523674,25.2953567 56.8482629,25.0073239 C57.3602475,24.7490492 57.8460652,24.4421114 58.2989671,24.0907746 C61.0073934,23.7710515 63.7385778,23.6871197 66.4615962,23.8399296 C70.8137089,23.9942958 74.7499531,24.7613028 78.3476995,27.2890493 C82.4531925,30.1834155 86.8198122,33.6855986 89.8759624,37.6942958 C94.880892,44.2548592 97.9370423,52.4169718 99.0153991,60.5549648 C99.9003286,67.2264789 100.045399,77.1059155 94.7890141,82.2627113 C93.8027065,81.9746002 92.7695292,81.8812009 91.7473709,81.9877465 C90.590376,82.0858129 89.4716918,82.448998 88.4784507,83.0490141 C88.4784507,80.4987559 88.4784507,77.9501056 88.4784507,75.4030634 C88.4784507,74.7180634 88.4784507,74.0282394 88.4784507,73.3432394 C88.8628226,73.2198035 89.2338053,73.0581955 89.5858216,72.8608451 C89.8342894,72.7116234 89.9862294,72.4434539 89.9862294,72.1541373 C89.9862294,71.8648208 89.8342894,71.5966513 89.5858216,71.4474296 C89.2316419,71.2238055 88.855786,71.0363337 88.4639437,70.8878521 C88.4639437,69.8892958 88.4639437,68.8907394 88.4252582,67.8921831 C88.3817371,65.8998944 87.6370423,64.8820423 87.1051174,63.0392958 C86.5731925,61.1965493 83.43,61.5101056 83.6959624,63.5216901 C83.899061,65.0701761 84.5712207,66.3244014 84.5325352,67.9163028 C84.5325352,68.5771831 84.5325352,69.2380634 84.5035211,69.8989437 L84.2859155,69.8410563 C81.7616901,69.098169 80.1030516,67.4966197 77.9995305,66.0446127 C73.5893897,62.9765845 69.3533333,59.7397183 66.8774648,54.886831 C66.9390722,54.5295259 66.7637478,54.1731434 66.4427365,54.0031572 C66.1217252,53.8331709 65.7275874,53.8880041 65.465446,54.1391197 C61.6500939,57.2553873 58.5020657,61.1579577 54.4255869,63.9558451 C50.4796714,66.6620775 46.7223474,69.1464085 42.1913146,70.8444366 C34.565446,73.7050352 24.9907981,72.5569366 17.4132864,69.2911268 C17.4132864,69.1126408 17.4132864,68.9341549 17.4132864,68.755669 C17.4132864,67.4097887 15.6192488,67.2264789 15.1211737,68.2009155 L14.7439906,68.0127817 C14.3721559,67.8264724 13.9191945,67.9605848 13.7094529,68.3190868 C13.4997114,68.6775887 13.6054435,69.13698 13.950939,69.3683099 C14.2894366,69.6191549 14.6424413,69.8507042 14.995446,70.0870775 C15.0826046,75.0952101 15.5123673,80.0915662 16.2817371,85.0413028 C15.5544885,84.6457997 14.7899911,84.3226464 13.9992958,84.0765141 C12.2083081,83.4559225 10.2326462,83.6701857 8.6171831,84.6602113 C2.51455399,84.1536972 3.23507042,68.924507 3.78150235,65.2824296 Z" fill="#312783"></path>
        </g>
    </g>
</svg>