<?xml version="1.0" encoding="UTF-8" standalone="no"?>
<svg width="150px" height="150px" viewBox="0 0 150 150" version="1.1" xmlns="http://www.w3.org/2000/svg" xmlns:xlink="http://www.w3.org/1999/xlink">
    <!-- Generator: Sketch 50.2 (55047) - http://www.bohemiancoding.com/sketch -->
    <title>equilibrista</title>
    <desc>Created with Sketch.</desc>
    <defs>
        <rect id="path-1" x="0" y="0" width="150" height="150"></rect>
        <polygon id="path-3" points="18.3457356 20.3785057 0.10883908 19.2256322 22.1424023 25.1170115 23.3636667 14.6727586 17.4996437 0.156321839"></polygon>
        <polygon id="path-5" points="0.024816092 14.6297701 1.24412644 25.072069 23.2778851 19.1806897 5.04274713 20.3355172 5.88883908 0.11137931"></polygon>
        <polyline id="path-7" points="8.99182759 0.0449425287 0.173321839 10.6083908 7.0378046 21.6427586 16.2275747 16.744023 25.4173448 21.6427586 31.9574598 10.6083908 23.4633218 0.0449425287"></polyline>
        <polyline id="path-9" points="8.99182759 0.0449425287 0.173321839 10.6083908 7.0378046 21.6427586 16.2275747 16.744023 25.4173448 21.6427586 31.9574598 10.6083908 23.4633218 0.0449425287"></polyline>
    </defs>
    <g id="equilibrista" stroke="none" stroke-width="1" fill="none" fill-rule="evenodd">
        <g id="Group">
            <mask id="mask-2" fill="white">
                <use xlink:href="#path-1"></use>
            </mask>
            <use id="Mask" fill-opacity="0" fill="#FFFFFF" opacity="0" xlink:href="#path-1"></use>
            <g mask="url(#mask-2)">
                <g transform="translate(-10.000000, 20.000000)">
                    <g id="Group-11" transform="translate(0.000000, 24.483908)">
                        <path d="M1.17380115,24.902069 C0.526237931,24.9028506 0.000801149425,24.3785862 1.95402299e-05,23.731023 C-0.000762068966,23.1414943 0.436548276,22.643023 1.02138736,22.5670115 C26.4236862,19.1865517 55.5952954,17.3986207 85.4019621,17.3986207 C114.81587,17.3986207 143.661157,19.1416092 168.821157,22.44 C169.463249,22.5242184 169.915606,23.1129655 169.831387,23.7550575 C169.747169,24.3971494 169.158422,24.8495057 168.51633,24.7652874 C143.455985,21.4805747 114.716215,19.7434483 85.4019621,19.7434483 C55.7008126,19.7434483 26.6269046,21.5235632 1.33012299,24.8903448 C1.27834138,24.8977701 1.22616897,24.9016782 1.17380115,24.902069" id="Fill-1" fill="#312783"></path>
                        <polygon id="Fill-3" fill="#E89D94" points="47.7870195 19.6164368 69.8225368 25.5078161 71.0418471 15.0635632 65.1778241 0.547126437 66.0239161 20.7693103"></polygon>
                        <path d="M52.6623069,20.4156322 L69.4004678,24.8903448 L70.5416172,15.131954 L65.7835713,3.36091954 L66.5124218,20.7517241 C66.5237552,21.0211839 66.3144793,21.249023 66.0448241,21.2603563 C66.0274333,21.2611379 66.0100425,21.2609425 65.9926517,21.2597701 L52.6623069,20.4156322 Z M69.8205828,25.9963218 C69.7777897,25.9967126 69.7349966,25.9914368 69.6935713,25.9806897 L47.6619621,20.0873563 C47.4012954,20.0174023 47.2467322,19.7495057 47.3166862,19.4890345 C47.3768701,19.2647126 47.5865368,19.1138621 47.8182839,19.127931 L65.5119621,20.2475862 L64.6893184,0.566666667 C64.6816977,0.297011494 64.8941,0.0721034483 65.1637552,0.0644827586 C65.3685368,0.0586206897 65.555146,0.181137931 65.6311575,0.371264368 L71.4932264,14.8877011 C71.5242954,14.9637126 71.5358241,15.0463678 71.5264448,15.128046 L70.3051805,25.5722989 C70.2764563,25.8183103 70.0681575,26.0037471 69.8205828,26.0041379 L69.8205828,25.9963218 Z" id="Fill-5" fill="#312783"></path>
                        <polygon id="Fill-7" fill="#E89D94" points="113.164721 19.9622989 91.1311575 25.8536782 89.9098931 15.4094253 95.7758701 0.892988506 94.9278241 21.1171264"></polygon>
                        <path d="M90.410123,15.4758621 L91.5493184,25.245977 L108.287479,20.7517241 L94.9571345,21.5958621 C94.6878701,21.6134483 94.4555368,21.4092529 94.4379506,21.1399885 C94.4367782,21.1225977 94.4365828,21.1052069 94.4373644,21.0878161 L95.1662149,3.69701149 L90.410123,15.4758621 Z M91.1292034,26.3421839 C90.8816287,26.3417931 90.6733299,26.1563563 90.6446057,25.9103448 L89.4233414,15.4758621 C89.4141575,15.3941839 89.4254908,15.3115287 89.4565598,15.2355172 L95.3186287,0.71908046 C95.4188701,0.468574713 95.7031805,0.34683908 95.9536862,0.44708046 C96.1438126,0.523091954 96.2663299,0.709701149 96.2604678,0.914482759 L95.4436862,20.5954023 L113.137364,19.4757471 C113.406629,19.4593333 113.638376,19.6643103 113.65479,19.9335747 C113.668859,20.1653218 113.518008,20.3749885 113.293686,20.4351724 L91.2562149,26.3265517 C91.2147897,26.3372989 91.1719966,26.3425747 91.1292034,26.3421839 Z" id="Fill-9" fill="#312783"></path>
                    </g>
                    <g id="Group-14" transform="translate(47.678161, 24.874713)">
                        <mask id="mask-4" fill="white">
                            <use xlink:href="#path-3"></use>
                        </mask>
                        <g id="Clip-13"></g>
                        <path d="M-7.17573908,31.1783908 C-6.55631379,31.1783908 20.2997782,26.6958621 20.2997782,26.6958621 L24.4344908,23.2118391 L17.4977092,18.4987356 L-2.62872759,18.1802299 L-7.17573908,31.1783908 Z" id="Fill-12" fill="#D27375" mask="url(#mask-4)"></path>
                    </g>
                    <g id="Group-17" transform="translate(89.885057, 25.265517)">
                        <mask id="mask-6" fill="white">
                            <use xlink:href="#path-5"></use>
                        </mask>
                        <g id="Clip-16"></g>
                        <polygon id="Fill-15" fill="#D27375" mask="url(#mask-6)" points="3.16692414 28.9371264 29.6908322 25.072069 28.0494529 18.5768966 0.0248551724 21.1034483 -1.74353563 24.7457471"></polygon>
                    </g>
                    <g id="Group-48" transform="translate(47.287356, 0.058621)">
                        <path d="M5.37495057,44.8409195 L22.1131115,49.3156322 L23.2542609,39.5572414 L18.4962149,27.7862069 L19.2250655,45.1770115 C19.2363989,45.4464713 19.027123,45.6743103 18.7574678,45.6856437 C18.740077,45.6864253 18.7226862,45.6862299 18.7052954,45.6850575 L5.37495057,44.8409195 Z M22.5332264,50.4216092 C22.4904333,50.422 22.4476402,50.4167241 22.4062149,50.405977 L0.374605747,44.5126437 C0.11393908,44.4426897 -0.0406241379,44.1747931 0.0293298851,43.9143218 C0.0895137931,43.69 0.29918046,43.5391494 0.530927586,43.5532184 L18.2246057,44.6728736 L17.4019621,24.991954 C17.3943414,24.7222989 17.6067437,24.4973908 17.8763989,24.4897701 C18.0811805,24.483908 18.2677897,24.6064253 18.3438011,24.7965517 L24.2058701,39.3129885 C24.2369391,39.389 24.2484678,39.4716552 24.2390885,39.5533333 L23.0178241,49.9975862 C22.9891,50.2435977 22.7808011,50.4290345 22.5332264,50.4294253 L22.5332264,50.4216092 Z" id="Fill-18" fill="#312783"></path>
                        <path d="M43.1227667,39.9011494 L44.2619621,49.6712644 L61.000123,45.1770115 L47.6697782,46.0211494 C47.4005138,46.0387356 47.1681805,45.8345402 47.1505943,45.5652759 C47.1494218,45.5478851 47.1492264,45.5304943 47.150008,45.5131034 L47.8788586,28.1222989 L43.1227667,39.9011494 Z M43.8418471,50.7674713 C43.5942724,50.7670805 43.3859736,50.5816437 43.3572494,50.3356322 L42.1359851,39.9011494 C42.1268011,39.8194713 42.1381345,39.7368161 42.1692034,39.6608046 L48.0312724,25.1443678 C48.1315138,24.8938621 48.4158241,24.7721264 48.6663299,24.8723678 C48.8564563,24.9483793 48.9789736,25.1349885 48.9731115,25.3397701 L48.1563299,45.0206897 L65.850008,43.9010345 C66.1192724,43.8846207 66.3510195,44.0895977 66.3674333,44.3588621 C66.3815023,44.5906092 66.2306517,44.8002759 66.0063299,44.8604598 L43.9688586,50.7518391 C43.9274333,50.7625862 43.8846402,50.7678621 43.8418471,50.7674713 Z" id="Fill-20" fill="#312783"></path>
                        <path d="M33.0654299,10.9816092 C34.2417517,10.9816092 35.1953149,14.5711494 35.1953149,18.9989655 C35.1953149,23.4267816 34.2417517,27.0163218 33.0654299,27.0163218 C31.889108,27.0163218 30.9355448,23.4267816 30.9355448,18.9989655 C30.9355448,14.5711494 31.889108,10.9816092 33.0654299,10.9816092" id="Fill-22" fill="#E89D94"></path>
                        <path d="M33.0654299,11.4701149 C32.5749701,11.4701149 31.4240506,14.0318391 31.4240506,18.9989655 C31.4240506,23.966092 32.5749701,26.5278161 33.0654299,26.5278161 C33.5558897,26.5278161 34.7068092,23.966092 34.7068092,18.9989655 C34.7068092,14.0318391 33.5558897,11.4701149 33.0654299,11.4701149 M33.0654299,27.5028736 C31.2657747,27.5028736 30.4470391,23.0945977 30.4470391,18.9970115 C30.4470391,14.8994253 31.2657747,10.4911494 33.0654299,10.4911494 C34.8650851,10.4911494 35.6838207,14.8994253 35.6838207,18.9970115 C35.6838207,23.0945977 34.8689931,27.5028736 33.0654299,27.5028736" id="Fill-24" fill="#312783"></path>
                        <polygon id="Fill-26" fill="#312783" points="19.7203322 126.598551 60.9973092 85.3215736 62.6345851 86.9588494 21.357608 128.235826"></polygon>
                        <polygon id="Fill-28" fill="#E20400" points="16.327269 22.0413793 50.1279586 22.0413793 40.5747402 47.7074713 33.2276138 61.0221839 25.9918667 47.9087356"></polygon>
                        <path d="M26.4373644,47.7035632 L33.2275943,60.013908 L40.1292034,47.5081609 L49.4264448,22.5298851 L17.0306977,22.5298851 L26.4373644,47.7035632 Z M33.2275943,61.5106897 C33.0497782,61.5108851 32.8858356,61.4143563 32.7996632,61.2586207 L25.5697782,48.1451724 C25.5584448,48.1244598 25.5486747,48.1027701 25.5404678,48.0806897 L15.868054,22.2133333 C15.7742609,21.9604828 15.903031,21.6792989 16.156077,21.5853103 C16.2102034,21.5651839 16.2674563,21.5548276 16.3252954,21.5548276 L50.1298931,21.5548276 C50.3997437,21.5552184 50.618008,21.7742644 50.6176172,22.0441149 C50.6176172,22.1017586 50.6072609,22.1592069 50.5871345,22.2133333 L41.0319621,47.8774713 C41.0239506,47.9003333 41.0139851,47.9226092 41.0026517,47.943908 L33.6555253,61.2586207 C33.5693529,61.4143563 33.4054103,61.5108851 33.2275943,61.5106897 Z" id="Fill-30" fill="#312783"></path>
                        <polygon id="Fill-32" fill="#E89D94" points="24.0378437 70.4933333 33.2276138 112.786207 33.2276138 65.3991954"></polygon>
                        <path d="M24.5927667,70.7454023 L32.7390885,108.237241 L32.7390885,66.2257471 L24.5927667,70.7454023 Z M33.2275943,113.274713 C32.9962379,113.273736 32.797123,113.11077 32.7508126,112.883908 L23.5669046,70.5910345 C23.5207897,70.3801954 23.6184908,70.1642759 23.8072494,70.0595402 L32.9911575,64.9654023 C33.2272034,64.8348736 33.5244103,64.9202644 33.6551345,65.1565057 C33.695192,65.229 33.7161,65.3104828 33.7161,65.3933333 L33.7161,112.786207 C33.7164908,113.035931 33.5287092,113.245793 33.2803529,113.272759 L33.2275943,113.274713 Z" id="Fill-34" fill="#312783"></path>
                        <polygon id="Fill-36" fill="#E20400" points="30.9413874 115.134943 34.9608126 115.134943 33.2803529 111.944023"></polygon>
                        <path d="M31.9066747,114.646437 L34.1518471,114.646437 L33.2139161,112.864368 L31.9066747,114.646437 Z M34.9608126,115.623448 L30.9413874,115.623448 C30.6715368,115.623448 30.4528816,115.404793 30.4528816,115.134943 C30.4528816,115.02923 30.487077,114.926448 30.5505828,114.841839 L32.8954103,111.65092 C33.0546632,111.433046 33.3602724,111.385563 33.578146,111.544816 C33.6381345,111.588782 33.6873759,111.645644 33.7219621,111.711494 L35.4004678,114.902414 C35.5266977,115.140805 35.4358356,115.436448 35.1974448,115.562678 C35.1269046,115.6 35.0483529,115.61954 34.9686287,115.61954 L34.9608126,115.623448 Z" id="Fill-38" fill="#312783"></path>
                        <path d="M25.9918667,0.625287356 L40.4633609,0.625287356 C40.4633609,0.625287356 42.5287632,17.0390805 33.2334759,17.2344828 C23.9381885,17.4298851 25.9918667,0.625287356 25.9918667,0.625287356" id="Fill-40" fill="#A97919"></path>
                        <path d="M26.4237057,1.11574713 C26.2439356,3.08931034 25.7143954,11.3509195 29.0166943,15.0049425 C30.1089931,16.2144828 31.4748552,16.7850575 33.2080736,16.747931 C34.941292,16.7108046 36.3814069,16.0522989 37.4717517,14.793908 C40.7134759,11.0382759 40.1937057,3.05413793 40.0119816,1.11574713 L26.4237057,1.11574713 Z M33.0673839,17.7249425 C31.1426713,17.7249425 29.5403724,17.0293103 28.3015218,15.6575862 C24.2566943,11.1809195 25.4545103,1.00241379 25.507269,0.564712644 C25.5377517,0.320264368 25.7454644,0.136781609 25.9918667,0.136781609 L40.4633609,0.136781609 C40.7097632,0.136781609 40.9174759,0.320264368 40.9479586,0.564712644 C41.0007172,0.98091954 42.1887632,10.8331034 38.2123264,15.4270115 C36.9343954,16.9081609 35.2578437,17.68 33.2295678,17.7229885 L33.0673839,17.7249425 Z" id="Fill-42" fill="#312783"></path>
                        <polygon id="Fill-44" fill="#8E2118" points="17.1733414 59.4589655 25.9918471 48.8955172 40.4633414 48.8955172 48.9574793 59.4589655 42.4173644 70.4933333 33.2275943 65.5945977 24.0378241 70.4933333"></polygon>
                        <path d="M17.7751805,59.5 L24.2117322,69.8465517 L33.0048356,65.1568966 C33.1482609,65.0804943 33.3204103,65.0804943 33.464031,65.1568966 L42.2415023,69.8348276 L48.3712724,59.4941379 L40.2366747,49.3762069 L26.2204678,49.3762069 L17.7751805,59.5 Z M42.4173644,70.9818391 C42.3376402,70.9820345 42.2590885,70.9624943 42.1887437,70.9251724 L33.2275943,66.1475862 L24.2683989,70.9232184 C24.041146,71.0441724 23.7591805,70.9681609 23.6235713,70.7493103 L16.7590885,59.7149425 C16.6477092,59.5361494 16.6635368,59.3063563 16.798169,59.1443678 L25.6166747,48.5809195 C25.7094908,48.4695402 25.8468586,48.4050575 25.9918471,48.4050575 L40.4633414,48.4050575 C40.6112609,48.4048621 40.7513644,48.4716897 40.8443759,48.5867816 L49.3287437,59.1521839 C49.456146,59.311046 49.4717782,59.532046 49.3678241,59.7071264 L42.8277092,70.7414943 C42.7417322,70.8872644 42.5865828,70.9781264 42.4173644,70.9818391 Z" id="Fill-46" fill="#312783"></path>
                    </g>
                    <g id="Group-55" transform="translate(64.287356, 48.909195)">
                        <g id="Group-51">
                            <mask id="mask-8" fill="white">
                                <use xlink:href="#path-7"></use>
                            </mask>
                            <g id="Clip-50"></g>
                            <path d="M17.1147402,-7.96068966 C29.0979816,-7.96068966 38.8122115,-2.6346092 38.8122115,3.9354023 C38.8122115,10.5054138 29.0979816,15.8314943 17.1147402,15.8314943 C5.13149885,15.8314943 -4.58273103,10.5054138 -4.58273103,3.9354023 C-4.58273103,-2.6346092 5.13149885,-7.96068966 17.1147402,-7.96068966" id="Fill-49" fill="#E20400" mask="url(#mask-8)"></path>
                        </g>
                        <g id="Group-54">
                            <mask id="mask-10" fill="white">
                                <use xlink:href="#path-9"></use>
                            </mask>
                            <g id="Clip-53"></g>
                            <path d="M17.1147402,-7.96068966 C29.0979816,-7.96068966 38.8122115,-2.6346092 38.8122115,3.9354023 C38.8122115,10.5054138 29.0979816,15.8314943 17.1147402,15.8314943 C5.13149885,15.8314943 -4.58273103,10.5054138 -4.58273103,3.9354023 C-4.58273103,-2.6346092 5.13149885,-7.96068966 17.1147402,-7.96068966" id="Fill-52" fill="#E20400" mask="url(#mask-10)"></path>
                        </g>
                    </g>
                    <g id="Group-84" transform="translate(42.988506, 5.920690)">
                        <path d="M22.074031,53.637931 L28.5105828,63.9844828 L37.3036862,59.2948276 C37.4471115,59.2184253 37.6192609,59.2184253 37.7628816,59.2948276 L46.5403529,63.9727586 L52.670123,53.632069 L44.5355253,43.5141379 L30.5193184,43.5141379 L22.074031,53.637931 Z M46.7162149,65.1197701 C46.6364908,65.1199655 46.5579391,65.1004253 46.4875943,65.0631034 L37.5264448,60.2855172 L28.5672494,65.0611494 C28.3399966,65.1821034 28.058031,65.106092 27.9224218,64.8872414 L21.0579391,53.8528736 C20.9465598,53.6740805 20.9623874,53.4442874 21.0970195,53.2822989 L29.9155253,42.7188506 C30.0083414,42.6074713 30.1457092,42.5429885 30.2906977,42.5429885 L44.762192,42.5429885 C44.9101115,42.5427931 45.0502149,42.6096207 45.1432264,42.7247126 L53.6275943,53.2901149 C53.7549966,53.448977 53.7706287,53.669977 53.6666747,53.8450575 L47.1265598,64.8794253 C47.0405828,65.0251954 46.8854333,65.1160575 46.7162149,65.1197701 Z" id="Fill-56" fill="#312783"></path>
                        <path d="M29.3273839,3.93931034 C30.8933379,3.93931034 32.1626713,5.20864368 32.1626713,6.7745977 C32.1626713,8.34055172 30.8933379,9.60988506 29.3273839,9.60988506 C27.7614299,9.60988506 26.4920966,8.34055172 26.4920966,6.7745977 C26.4920966,5.20864368 27.7614299,3.93931034 29.3273839,3.93931034" id="Fill-58" fill="#D7A611"></path>
                        <path d="M29.3273839,4.43172414 C28.0324529,4.43172414 26.9825563,5.48162069 26.9825563,6.77655172 C26.9825563,8.07148276 28.0324529,9.12137931 29.3273839,9.12137931 C30.6223149,9.12137931 31.6722115,8.07148276 31.6722115,6.77655172 C31.6743609,5.48162069 30.626223,4.42996552 29.331292,4.42781609 L29.3273839,4.42781609 L29.3273839,4.43172414 Z M29.3273839,10.0983908 C27.4927517,10.0983908 26.0055448,8.61118391 26.0055448,6.77655172 C26.0055448,4.94191954 27.4927517,3.45471264 29.3273839,3.45471264 C31.1620161,3.45471264 32.649223,4.94191954 32.649223,6.77655172 C32.649223,8.61118391 31.1620161,10.0983908 29.3273839,10.0983908 Z" id="Fill-60" fill="#312783"></path>
                        <path d="M45.2487437,3.93931034 C46.8146977,3.93931034 48.084031,5.20864368 48.084031,6.7745977 C48.084031,8.34055172 46.8146977,9.60988506 45.2487437,9.60988506 C43.6827897,9.60988506 42.4134563,8.34055172 42.4134563,6.7745977 C42.4134563,5.20864368 43.6827897,3.93931034 45.2487437,3.93931034" id="Fill-62" fill="#D7A611"></path>
                        <path d="M45.2487437,4.43172414 C43.9538126,4.43172414 42.9039161,5.48162069 42.9039161,6.77655172 C42.9039161,8.07148276 43.9538126,9.12137931 45.2487437,9.12137931 C46.5436747,9.12137931 47.5935713,8.07148276 47.5935713,6.77655172 C47.5957207,5.48162069 46.5475828,4.42996552 45.2526517,4.42781609 L45.2487437,4.42781609 L45.2487437,4.43172414 Z M45.2487437,10.0983908 C43.4141115,10.0983908 41.9269046,8.61118391 41.9269046,6.77655172 C41.9269046,4.94191954 43.4141115,3.45471264 45.2487437,3.45471264 C47.0833759,3.45471264 48.5705828,4.94191954 48.5705828,6.77655172 C48.5705828,8.61118391 47.0833759,10.0983908 45.2487437,10.0983908 Z" id="Fill-64" fill="#312783"></path>
                        <path d="M33.8489931,3.2554023 C32.481177,-0.0879310345 30.2457747,-0.457241379 28.311292,2.54413793 C27.5296828,3.74781609 27.2150851,5.44 25.6948552,5.9754023 C24.6377287,6.34862069 22.8146253,6.02229885 22.9768092,4.88310345 C22.0701425,7.08137931 25.4486483,7.14 26.9239356,7.30218391 C30.3962345,7.68321839 32.2916368,6.5616092 33.8489931,3.2554023" id="Fill-66" fill="#D7A611"></path>
                        <path d="M25.0558701,6.59091954 C25.5561,6.67689655 26.0758701,6.72574713 26.4842609,6.76287356 L26.9766747,6.80977011 C30.1754103,7.15954023 31.8617322,6.22356322 33.3135713,3.23390805 C32.7156402,1.86609195 31.9594333,1.06494253 31.164146,0.990689655 C30.3688586,0.916436782 29.5169046,1.56126437 28.7157552,2.80011494 C28.5090195,3.13835632 28.3229966,3.48871264 28.1588586,3.84942529 C27.678169,4.84597701 27.1329966,5.97735632 25.8511575,6.42678161 C25.5943989,6.51686207 25.3270885,6.57411494 25.0558701,6.59678161 L25.0558701,6.59091954 Z M28.1471345,7.85517241 C27.7207667,7.8536092 27.2947897,7.8287931 26.8711575,7.78091954 L26.3963299,7.73402299 C25.0519621,7.61091954 23.2093184,7.44287356 22.5586287,6.3662069 C22.2713874,5.89333333 22.2616172,5.32666667 22.5254103,4.68574713 C22.6264333,4.43563218 22.9111345,4.31467816 23.1612494,4.41570115 C23.3711115,4.50050575 23.495192,4.71798851 23.4613874,4.94172414 C23.4346172,5.08612644 23.4959736,5.23267816 23.6177092,5.31494253 C24.0085138,5.63149425 24.9171345,5.72137931 25.5326517,5.51034483 C26.4334563,5.1937931 26.8477092,4.33793103 27.2912724,3.42931034 C27.473192,3.03205747 27.6793414,2.64633333 27.9087437,2.27448276 C29.2003529,0.273563218 30.4489736,-0.0547126437 31.2696632,0.0214942529 C32.1235713,0.101609195 33.3448356,0.693678161 34.310123,3.06586207 C34.3613184,3.19189655 34.3578011,3.33336782 34.3003529,3.45666667 C32.8367897,6.54988506 31.0547207,7.85517241 28.1471345,7.85517241 Z" id="Fill-68" fill="#312783"></path>
                        <path d="M41.3993184,3.2554023 C42.7671345,-0.0879310345 45.0025368,-0.457241379 46.9370195,2.54413793 C47.7186287,3.74781609 48.0332264,5.44 49.5534563,5.9754023 C50.6105828,6.34862069 52.4336862,6.02229885 52.2715023,4.88310345 C53.178169,7.08137931 49.7996632,7.14 48.3243759,7.30218391 C44.852077,7.68321839 42.9566747,6.5616092 41.3993184,3.2554023" id="Fill-70" fill="#D7A611"></path>
                        <path d="M41.9347207,3.23390805 C43.3924218,6.2216092 45.0728816,7.15954023 48.2716172,6.80977011 L48.764031,6.76287356 C49.1724218,6.72574713 49.692192,6.67885057 50.1924218,6.59091954 C49.9202264,6.57098851 49.6517437,6.51647126 49.3932264,6.42873563 C48.1113874,5.97735632 47.5662149,4.84793103 47.0855253,3.84942529 C46.9213874,3.48871264 46.7353644,3.13816092 46.5286287,2.80011494 C45.7274793,1.55931034 44.8559851,0.918390805 44.0802379,0.990689655 C43.3044908,1.06298851 42.5306977,1.86609195 41.9347207,3.24172414 L41.9347207,3.23390805 Z M47.1011575,7.85517241 C44.1935713,7.85517241 42.4115023,6.54402299 40.9577092,3.45666667 C40.9002609,3.33336782 40.8967437,3.19189655 40.9479391,3.06586207 C41.9151805,0.693678161 43.1344908,0.101609195 43.9883989,0.0214942529 C44.8110425,-0.0547126437 46.0577092,0.273563218 47.3493184,2.27448276 C47.5787207,2.64633333 47.7848701,3.03205747 47.9667897,3.42931034 C48.4044908,4.33597701 48.8187437,5.18793103 49.7254103,5.51034483 C50.3428816,5.72724138 51.2554103,5.63735632 51.6403529,5.31494253 C51.7620885,5.23267816 51.8234448,5.08612644 51.7966747,4.94172414 C51.7564218,4.675 51.9399046,4.42605747 52.2066287,4.3856092 C52.4303644,4.3518046 52.6478471,4.47608046 52.7326517,4.68574713 C52.9964448,5.32666667 52.9847207,5.89137931 52.6994333,6.3662069 C52.0487437,7.44091954 50.208054,7.60896552 48.8617322,7.73402299 L48.3869046,7.78091954 C47.9599506,7.82918391 47.5308471,7.854 47.1011575,7.85517241 Z" id="Fill-72" fill="#312783"></path>
                        <path d="M34.1225368,123.298851 C22.5019621,123.298851 11.102192,120.506552 1.15426092,115.222874 C0.243686207,114.751954 -0.112727586,113.631908 0.358191954,112.721333 C0.829111494,111.810563 1.94915747,111.454149 2.85973218,111.925069 C2.87165172,111.931322 2.88357126,111.937575 2.8952954,111.944023 C12.3097782,116.944368 23.1077092,119.586207 34.1225368,119.586207 C44.8403529,119.586207 55.3842609,117.077241 64.6052954,112.327011 C65.5172379,111.858046 66.6365023,112.217195 67.1054678,113.129138 C67.5744333,114.04108 67.2152839,115.160345 66.3033414,115.62931 C56.5586287,120.647241 45.4206977,123.298851 34.1225368,123.298851" id="Fill-74" fill="#312783"></path>
                        <polygon id="Fill-76" fill="#E89D94" points="37.5264448 59.5371264 30.2906977 115.131034 46.7162149 64.6312644"></polygon>
                        <path d="M37.9114069,60.3206897 L31.4553149,109.972414 L46.1280736,64.8618391 L37.9114069,60.3206897 Z M30.2907172,115.61954 C30.0208667,115.61954 29.8022115,115.400885 29.8020161,115.13123 C29.8020161,115.110126 29.8033839,115.089218 29.8061195,115.068506 L37.0360046,59.4745977 C37.0713724,59.207092 37.3167977,59.0189195 37.584108,59.054092 C37.6448782,59.0621034 37.7034989,59.0814483 37.7570391,59.1111494 L46.9409471,64.2052874 C47.1496368,64.3190115 47.2461655,64.5665862 47.1695678,64.7914943 L30.7557747,115.281494 C30.6905103,115.483149 30.5027287,115.619736 30.2907172,115.61954 Z" id="Fill-78" fill="#312783"></path>
                        <polygon id="Fill-80" fill="#E20400" points="27.5609276 116.342529 33.0204678 116.342529 30.740123 112.006552"></polygon>
                        <path d="M28.5262149,115.854023 L32.2115023,115.854023 L30.6697782,112.922989 L28.5262149,115.854023 Z M33.0204678,116.831034 L27.5609276,116.831034 C27.291077,116.831034 27.0724218,116.612379 27.0724218,116.342529 C27.0724218,116.236816 27.1066172,116.134034 27.170123,116.049425 L30.3493184,111.715402 C30.5085713,111.497529 30.8141805,111.450046 31.032054,111.609299 C31.0920425,111.653264 31.1412839,111.710126 31.1758701,111.775977 L33.4542609,116.108046 C33.5804908,116.346437 33.4896287,116.64208 33.2512379,116.76831 C33.1806977,116.805632 33.102146,116.825172 33.0224218,116.825172 L33.0204678,116.831034 Z" id="Fill-82" fill="#312783"></path>
                    </g>
                </g>
            </g>
        </g>
    </g>
</svg>