<?xml version="1.0" encoding="UTF-8" standalone="no"?>
<svg width="150px" height="150px" viewBox="0 0 150 150" version="1.1" xmlns="http://www.w3.org/2000/svg" xmlns:xlink="http://www.w3.org/1999/xlink">
    <!-- Generator: Sketch 50.2 (55047) - http://www.bohemiancoding.com/sketch -->
    <title>jefe-de-pista</title>
    <desc>Created with Sketch.</desc>
    <defs></defs>
    <g id="jefe-de-pista" stroke="none" stroke-width="1" fill="none" fill-rule="evenodd">
        <rect id="Rectangle" fill-opacity="0" fill="#FFFFFF" opacity="0" x="0" y="0" width="150" height="150"></rect>
        <g transform="translate(12.000000, 22.000000)">
            <path d="M74.9280673,13.2570675 C74.886934,13.5030545 74.8301308,13.7490416 74.7752863,13.9930918 C74.53828,15.0235258 71.5668859,15.9803575 71.5375049,17.0243499 C71.5159589,17.8320397 71.1712224,18.7675654 70.8166921,19.4958421 C70.0880444,20.9775752 68.4466283,21.5935114 67.1186091,20.280289 C66.6832084,19.9811308 66.3558546,19.5522368 66.1842947,19.0561644 C66.0211854,18.5479126 66.1744898,17.9923124 66.5760408,17.6364122 C66.9677868,17.3265072 67.6357139,17.3826775 67.9138536,17.7874909 C67.6748885,17.4717752 67.0480948,17.6054217 66.9344884,18.0005505 C66.8208821,18.3956794 67.1891234,18.8682845 67.6259203,18.9205809 C68.0746018,18.9419692 68.4991942,18.7190339 68.732603,18.3395091 C68.9582244,17.9631624 69.0923323,17.5401246 69.124349,17.103763 C69.5160951,13.9039941 70.6658699,10.5182822 67.8648854,8.8622275 C66.8012948,8.23466992 65.353793,7.90345897 64.5820532,6.92532139 C63.8192719,5.923649 62.8820548,5.06443121 61.8143671,4.38797438 C61.3658178,4.09743846 60.8957225,3.79721801 60.3609891,3.73523702 C59.8262557,3.67325602 59.2151318,3.92892763 59.0584334,4.43833394 C58.821427,4.00446697 58.2240142,3.87663116 57.7402078,4.00446697 C57.2564014,4.13230277 56.8548616,4.44995537 56.4435282,4.72886985 C56.0321948,5.00778433 54.7355153,5.96655286 54.2497501,5.83678015 C53.6934707,5.68763838 54.2086168,4.96904621 54.4299533,4.52743162 C55.1174677,3.158039 56.0929155,1.91841908 57.4366046,1.12816139 C58.4575744,0.558265841 59.5864956,0.202856093 60.7527352,0.0841689963 C64.5410314,-0.351748955 68.326656,0.920723589 71.0615334,3.54929403 C73.2259306,5.66052169 74.4285911,8.58524992 74.9026038,11.513852 C74.9752254,11.9092998 75.0073803,12.3109756 74.9985816,12.7127968 C74.9860964,12.8954507 74.9625494,13.0772003 74.9280673,13.2570675 Z" id="Shape" fill="#E20400" fill-rule="nonzero"></path>
            <path d="M68.2563437,22 C67.5500568,21.9815757 66.8802258,21.6858666 66.3947303,21.1781568 C65.8943963,20.8296335 65.5211202,20.3307236 65.330386,19.7555854 C65.1152983,19.0896092 65.3232212,18.360954 65.8586015,17.9044816 C66.1655406,17.6740522 66.5541456,17.5772534 66.9348158,17.6364041 C67.2769665,17.6803926 67.5848099,17.8642208 67.7835216,18.1432074 C67.9102637,18.3193605 67.8686343,18.5637856 67.6905398,18.6891461 C67.5124453,18.8145066 67.2653265,18.773331 67.1385843,18.5971779 C67.0998591,18.5742891 67.0531733,18.5686058 67.0099926,18.5815238 C66.9400821,18.5882012 66.8779547,18.6284365 66.8438124,18.6891461 C66.8270669,18.7683214 66.8450399,18.8508069 66.8932708,18.9161314 C66.966233,19.0215961 67.0801178,19.0924409 67.2078261,19.1118083 C67.5122595,19.1144465 67.7950186,18.9563359 67.9497018,18.6969732 C68.139477,18.3665922 68.2510809,17.9979655 68.2761271,17.6187932 C68.3414121,17.0748113 68.4304372,16.5230023 68.5155056,15.9888043 C68.948761,13.2747651 69.3226664,10.9305553 67.1939777,9.67626604 C66.8357958,9.47602879 66.4665916,9.29572548 66.0880884,9.13619768 C65.2334476,8.75658441 64.3511101,8.3534899 63.7675012,7.61774459 C63.0227576,6.64089211 62.1083933,5.8027514 61.0670737,5.14243124 C60.6714066,4.88609445 60.2282596,4.59649257 59.7712641,4.54365979 C59.4210988,4.50256764 58.9799301,4.65715242 58.8810133,4.97806261 C58.8344123,5.1288219 58.7009065,5.23720546 58.5423249,5.25301897 C58.3837432,5.26883249 58.2310516,5.18898808 58.1549643,5.05046308 C58.0125241,4.78825597 57.5950954,4.71781227 57.2746051,4.80391013 C56.915936,4.92722873 56.5813485,5.11056961 56.2854375,5.34593527 L56.087604,5.48095236 L55.9352722,5.58661791 C54.8412529,6.34780122 54.0598105,6.79394465 53.5454433,6.65501402 C53.3290422,6.60856769 53.1477354,6.4633609 53.0567945,6.26366014 C52.8846794,5.87230625 53.1379063,5.40268158 53.3614581,4.99763031 C53.4030032,4.92327307 53.4425699,4.8508726 53.4762016,4.78629921 C54.2912757,3.16609411 55.3635333,1.95681059 56.6632996,1.18975697 C57.7410268,0.586512816 58.9331839,0.210113835 60.1649528,0.0841822327 C64.1099333,-0.359322834 68.0487826,0.964914031 70.9033562,3.69442186 C73.510802,6.23822213 74.5138179,9.59408173 74.8956366,11.9578592 C74.9733718,12.3832206 75.007835,12.815214 74.99851,13.2473703 C74.9890461,13.4487343 74.9672444,13.6493453 74.933225,13.8480985 C74.8897016,14.1083488 74.8303515,14.3666424 74.7729798,14.6151521 C74.6226263,15.2706699 73.8233789,15.7892138 72.9786298,16.3234118 C72.3633676,16.7147657 71.5205968,17.2587476 71.5107051,17.6011823 C71.4830084,18.6108753 71.0180996,19.7007959 70.743111,20.2584752 C70.2880939,21.1840271 69.5007165,21.8238908 68.6342057,21.9667349 C68.5093958,21.9881189 68.38301,21.9992453 68.2563437,22 Z M66.080175,18.9865751 C66.0400188,19.1684928 66.0461367,19.3574241 66.09798,19.5364273 C66.2465278,19.9572325 66.5281712,20.3195149 66.9011841,20.5696015 L66.9407508,20.6048234 C67.4234646,21.0822751 67.9655284,21.2857792 68.511549,21.1918542 C69.1248329,21.0901022 69.6985501,20.6048234 70.040802,19.9140838 C70.4602091,19.0589755 70.7114577,18.2077808 70.7292627,17.5777011 C70.7510244,16.8243448 71.6274269,16.2607952 72.5572444,15.6659373 C73.16855,15.2745834 73.930209,14.7853911 74.0093424,14.4409996 C74.0647358,14.2042305 74.1201292,13.9596344 74.1596959,13.7209085 C74.1891347,13.5532729 74.2082936,13.3840294 74.2170676,13.2141052 C74.2244896,12.8343224 74.1933395,12.4547622 74.1240859,12.0811357 C73.7620505,9.8328076 72.814428,6.64914372 70.365249,4.25405792 C67.6832951,1.68935617 63.9822407,0.445432754 60.2757396,0.862976471 C59.1524144,0.976069641 58.0647488,1.31713108 57.0807283,1.86484243 C55.9115322,2.55362527 54.9421479,3.65528647 54.1963156,5.13656094 C54.1587272,5.21091817 54.1152038,5.29114572 54.0677238,5.37528681 C53.9691399,5.54275371 53.8850893,5.7181868 53.8164752,5.89970102 C53.9965037,5.87426302 54.4297591,5.69228346 55.4901468,4.95458138 L55.6503919,4.84304552 L55.8383338,4.71389874 C56.2099544,4.422777 56.631444,4.20007954 57.0827066,4.0564242 C57.5449971,3.93448262 58.0376121,4.00520032 58.4457796,4.25210115 C58.8279528,3.89264218 59.3526375,3.72108939 59.8761159,3.78443325 C60.5190748,3.85879049 61.063117,4.2168793 61.5141774,4.50648118 C62.6271214,5.21062352 63.6050431,6.10434661 64.4025468,7.14616315 C64.8654772,7.73319399 65.6212013,8.07367187 66.422427,8.42980391 C66.8289243,8.60328028 67.2252191,8.79926768 67.6094281,9.01683474 C70.1990689,10.5411581 69.7460301,13.3804306 69.3068397,16.1238214 C69.2217713,16.6501923 69.1347245,17.196131 69.0714178,17.7244588 C69.0343928,18.2252179 68.8792312,18.7104251 68.6183791,19.1411598 C68.3010101,19.6492523 67.725143,19.9415814 67.1227577,19.9003864 C66.7615527,19.8519989 66.4394961,19.6505865 66.2404202,19.3485774 C66.1636143,19.239154 66.1067075,19.1173104 66.0722617,18.9885318 L66.080175,18.9865751 Z" id="Shape" fill="#312783" fill-rule="nonzero"></path>
            <path d="M56.2159185,18.0699408 C56.1852604,16.4540202 56.7907579,14.1284313 56.5359124,12.5321691 C56.2810669,10.9359069 56.9363839,10.0650398 58.0994756,8.97399849 C59.2108319,7.93013737 59.285561,7.71192911 60.642182,8.38424644 C61.998803,9.05656377 62.9990236,10.3088039 63.7673923,11.6377119 C65.5031785,14.6551023 66.2575184,18.1611034 65.921124,21.6477699 C65.7295109,23.4995913 65.250478,25.396627 65.7505883,27.1855416 C65.8148287,27.5098404 65.9852051,27.8018613 66.2334534,28.0131603 C66.4959634,28.1999151 66.9213446,28.1743592 67.0765513,27.8873465 C67.2317579,27.6003338 66.8849381,27.1717807 66.6090152,27.3506721 C66.898351,26.9810942 67.5306744,27.0951129 67.7989328,27.4804176 C68.0671912,27.8657223 68.0384492,28.3984649 67.8794103,28.8427448 C67.5210937,29.849255 66.5783571,30.5530257 65.5685558,30.8302092 C64.5587546,31.1073927 63.485721,31.0071348 62.4605907,30.8007216 C60.6402659,30.4331095 58.7931152,29.6585685 57.6855913,28.1330765 C56.9900356,27.1757124 56.6432158,26.0021058 56.3902864,24.8363626 C56.0961159,23.5838848 55.9672219,22.2965498 56.0070602,21.0088718 C56.0377183,20.0298834 56.2293314,19.0548267 56.2159185,18.0699408 Z" id="Shape" fill="#E20400" fill-rule="nonzero"></path>
            <path d="M64.0773323,30.9993344 C63.5012544,30.9945953 62.9269646,30.9309001 62.3625039,30.8091407 C60.2032237,30.3602835 58.6179521,29.4416479 57.6588718,28.0817629 C56.9391118,27.0547169 56.6062227,25.8203597 56.3812977,24.7476672 C56.0936224,23.5035699 55.9677052,22.2238353 56.0070225,20.943793 C56.0250165,20.5481901 56.0664027,20.1525872 56.1059895,19.7702978 C56.1742632,19.2248541 56.2091242,18.6753176 56.2103547,18.1251222 C56.2208054,17.3665688 56.2809292,16.6096902 56.3902947,15.8599152 C56.5180521,14.7815169 56.6512077,13.6669817 56.5198515,12.8168159 C56.2373457,11.0023679 57.0596716,10.030478 58.0997249,9.03196106 L58.3030571,8.84176735 C59.2369458,7.92883755 59.5374456,7.71962447 60.8869957,8.40622376 C62.0530071,8.99962813 63.0624706,10.0780265 63.9747665,11.7022807 C65.6455869,14.691512 66.3710974,18.166002 66.0458761,21.6208826 C66.0044899,22.0469165 65.946909,22.4805582 65.8911276,22.8989843 C65.7111876,24.2816926 65.5312476,25.5883234 65.8731336,26.8359941 C65.9000396,26.9381574 65.934329,27.0379856 65.9756994,27.1345982 C65.966826,27.0361449 65.9945787,26.9379093 66.0530737,26.8607193 C66.2436625,26.6174763 66.5320511,26.4841167 66.8304145,26.5012532 C67.1912101,26.5121407 67.527394,26.6971703 67.7427104,27.0033645 C68.0360127,27.4389081 68.0809977,28.0456261 67.8650696,28.6732653 C67.5051896,29.7003113 66.6054895,30.5067327 65.4484752,30.8319639 C65.0002669,30.9505912 64.5393236,31.0068569 64.0773323,30.9993344 Z M56.926516,18.1003971 C56.9260771,18.6836059 56.8900141,19.2661764 56.8185519,19.8444734 C56.7807645,20.2248608 56.7411777,20.6052482 56.7231837,20.974224 C56.6881348,22.1860426 56.8092047,23.3972689 57.0830638,24.5745909 C57.2917942,25.5674021 57.5940934,26.7066624 58.2364793,27.6176902 C59.0857962,28.8216164 60.5199181,29.6413513 62.5028571,30.0521697 C63.6328804,30.286108 64.5073889,30.2975196 65.2595382,30.0864046 C66.1772323,29.8277411 66.9149863,29.1829844 67.1848964,28.4012883 C67.3166814,28.0977086 67.3087152,27.7468676 67.1633036,27.4503198 C67.1645143,27.5692806 67.1366217,27.6865537 67.0823306,27.7907665 C66.9709499,27.9994022 66.7803172,28.1475811 66.5587051,28.197781 C66.2874701,28.2631857 66.0027192,28.2067095 65.7723672,28.0418222 C65.4703392,27.7879526 65.2600557,27.4320578 65.1767658,27.0337955 C64.7952929,25.630166 64.9968258,24.1808899 65.1767658,22.7829662 C65.2307478,22.3721478 65.2883286,21.9461138 65.3279154,21.5333935 C65.6361732,18.2401939 64.9428019,14.9288984 63.3485752,12.0807662 C62.5100547,10.5896475 61.6013576,9.608248 60.5667025,9.08141142 C59.602224,8.59071166 59.602224,8.59071166 58.7834969,9.38952523 L58.5765659,9.59113056 C57.4969258,10.637196 57.0146866,11.3694417 57.2216176,12.6893861 C57.3709678,13.6403546 57.2306146,14.8138498 57.0956596,15.9455024 C56.9926063,16.6588838 56.9354939,17.3788375 56.9247166,18.1003971 L56.926516,18.1003971 Z" id="Shape" fill="#312783" fill-rule="nonzero"></path>
            <path d="M72.923055,15.8198597 C72.4468544,14.3012447 72.4809971,12.6538013 72.2042616,11.076628 C71.9275261,9.49945469 71.2213116,7.84420348 69.8556042,7.23129206 C68.5509942,6.64570791 66.9804307,7.23129206 65.9938867,8.32243054 C65.0073428,9.41356901 64.5185633,10.9399917 64.2562037,12.4468949 C63.6683192,15.8669721 64.0981951,19.401545 65.4835434,22.5384618 C66.2239006,24.2015208 67.2463842,25.8040695 67.3631881,27.6467076 C67.4079481,27.9718469 67.3489776,28.3038353 67.1960687,28.5875462 C67.0163703,28.853011 66.6408008,28.9779356 66.4143809,28.7632214 C66.187961,28.5485072 66.3658623,28.0253854 66.6587706,28.0995594 C66.288592,27.855566 65.7602789,28.1815411 65.6506629,28.6343929 C65.5410469,29.0872446 65.7261362,29.5732795 66.0100596,29.9343897 C66.6408008,30.7483517 67.6920361,31.0782308 68.6677981,30.9845373 C69.6435602,30.8908438 70.5582247,30.4262804 71.397416,29.8758313 C72.8871153,28.8998577 74.2725896,27.5334947 74.773948,25.7240396 C75.0866231,24.5880064 75.0255256,23.381703 74.8853609,22.1968711 C74.7556359,20.9247789 74.4691496,19.6773866 74.0335908,18.4881714 C73.6903669,17.5883238 73.2195573,16.7431307 72.923055,15.8198597 Z" id="Shape" fill="#E20400" fill-rule="nonzero"></path>
            <path d="M68.800705,31 C67.7258268,31 66.7521786,30.5762686 66.1411177,29.8328469 C65.7251546,29.3258825 65.5668677,28.7413602 65.7049086,28.2287208 C65.8109493,27.8656698 66.0726248,27.5723413 66.4153589,27.4323327 C66.6968778,27.3097757 67.0181407,27.3308065 67.2822555,27.4890825 C67.3640345,27.5397963 67.4234329,27.6211935 67.4479046,27.7160815 C67.4556932,27.6109313 67.4556932,27.5053247 67.4479046,27.4001745 C67.3613989,26.1119554 66.7632219,24.9542606 66.1282339,23.7284661 C65.9441794,23.3501345 65.7380384,22.9718028 65.557665,22.5934712 C64.1029147,19.4810875 63.6515979,15.9730548 64.2692836,12.579033 C64.6097844,10.7327746 65.2245264,9.36321413 66.1484799,8.38901019 C67.3411529,7.13105752 69.1338436,6.6619263 70.5087307,7.2540153 C71.8155175,7.79313787 72.7633981,9.25349796 73.1315071,11.2378474 C73.2382587,11.8242614 73.3008372,12.423917 73.3615752,13.0027644 C73.4628051,13.97886 73.5585135,14.8944225 73.8511601,15.7816102 C74.0342325,16.2953756 74.2494109,16.7964476 74.4953508,17.2816951 C74.6591593,17.6259769 74.83033,17.979717 74.9794141,18.344807 C75.4405167,19.5273772 75.7426913,20.7690058 75.8776,22.035432 C76.0156409,23.1193522 76.1076681,24.3905464 75.7506024,25.6106659 C75.2794229,27.226142 74.0609822,28.6524522 72.1302507,29.8498718 C71.0259238,30.5365438 70.0835648,30.8940671 69.1853789,30.9848667 C69.0540867,30.9949556 68.9258621,31 68.800705,31 Z M66.4079967,28.4500448 C66.3670679,28.7789696 66.4756751,29.1089561 66.7024839,29.3447991 C67.2215175,29.9785046 68.1436305,30.3171114 69.1099166,30.2282035 C69.9013508,30.1563205 70.7406393,29.8309553 71.7492579,29.2067081 C73.5180215,28.1095464 74.62787,26.8288938 75.0438332,25.3988002 C75.3604069,24.3148801 75.2720607,23.1420521 75.1450631,22.1375816 C75.0184756,20.938237 74.7336444,19.7621813 74.2984125,18.6417973 C74.1585311,18.2994072 73.9928821,17.9532338 73.8327547,17.6203019 C73.5733061,17.1055745 73.3464477,16.5741755 73.1535936,16.0294174 C72.8351794,15.0684551 72.7302683,14.062093 72.6290383,13.0859974 C72.5701409,12.5184999 72.5094029,11.9377609 72.4081729,11.383505 C72.2590888,10.5625254 71.7455768,8.58385098 70.2234462,7.93690389 C69.1191193,7.46777267 67.6595672,7.86691254 66.6730352,8.90921618 C65.8539927,9.77370395 65.3036698,11.0165234 64.9907772,12.7114491 C64.4017824,15.9464311 64.8318278,19.290167 66.2184206,22.2567561 C66.3932723,22.6350877 66.5865296,23.0134193 66.770584,23.3709427 C67.4129342,24.6137621 68.0755303,25.898198 68.1730792,27.3434248 C68.2246058,27.745492 68.1401317,28.153546 67.9338084,28.4992279 C67.767128,28.7368541 67.5117187,28.8924364 67.2288797,28.9286343 C66.9994611,28.9624091 66.7669565,28.8935441 66.5902106,28.7394685 C66.5081784,28.6605303 66.4467838,28.5616526 66.4116778,28.4519365 L66.4079967,28.4500448 Z" id="Shape" fill="#312783" fill-rule="nonzero"></path>
            <path d="M46.2159185,18.0699408 C46.1852604,16.4540202 46.7907579,14.1284313 46.5359124,12.5321691 C46.2810669,10.9359069 46.9363839,10.0650398 48.0994756,8.97399849 C49.2108319,7.93013737 49.285561,7.71192911 50.642182,8.38424644 C51.998803,9.05656377 52.9990236,10.3088039 53.7673923,11.6377119 C55.5031785,14.6551023 56.2575184,18.1611034 55.921124,21.6477699 C55.7295109,23.4995913 55.250478,25.396627 55.7505883,27.1855416 C55.8148287,27.5098404 55.9852051,27.8018613 56.2334534,28.0131603 C56.4959634,28.1999151 56.9213446,28.1743592 57.0765513,27.8873465 C57.2317579,27.6003338 56.8849381,27.1717807 56.6090152,27.3506721 C56.898351,26.9810942 57.5306744,27.0951129 57.7989328,27.4804176 C58.0671912,27.8657223 58.0384492,28.3984649 57.8794103,28.8427448 C57.5210937,29.849255 56.5783571,30.5530257 55.5685558,30.8302092 C54.5587546,31.1073927 53.485721,31.0071348 52.4605907,30.8007216 C50.6402659,30.4331095 48.7931152,29.6585685 47.6855913,28.1330765 C46.9900356,27.1757124 46.6432158,26.0021058 46.3902864,24.8363626 C46.0961159,23.5838848 45.9672219,22.2965498 46.0070602,21.0088718 C46.0377183,20.0298834 46.2293314,19.0548267 46.2159185,18.0699408 Z" id="Shape" fill="#E20400" fill-rule="nonzero"></path>
            <path d="M54.0773323,29.9993344 C53.5012544,29.9945953 52.9269646,29.9309001 52.3625039,29.8091407 C50.2032237,29.3602835 48.6179521,28.4416479 47.6588718,27.0817629 C46.9391118,26.0547169 46.6062227,24.8203597 46.3812977,23.7476672 C46.0936224,22.5035699 45.9677052,21.2238353 46.0070225,19.943793 C46.0250165,19.5481901 46.0664027,19.1525872 46.1059895,18.7702978 C46.1742632,18.2248541 46.2091242,17.6753176 46.2103547,17.1251222 C46.2208054,16.3665688 46.2809292,15.6096902 46.3902947,14.8599152 C46.5180521,13.7815169 46.6512077,12.6669817 46.5198515,11.8168159 C46.2373457,10.0023679 47.0596716,9.03047803 48.0997249,8.03196106 L48.3030571,7.84176735 C49.2369458,6.92883755 49.5356462,6.71962447 50.8869957,7.40622376 C52.0530071,7.99962813 53.0624706,9.07802645 53.9747665,10.7022807 C55.6455869,13.691512 56.3710974,17.166002 56.0458761,20.6208826 C56.0044899,21.0469165 55.946909,21.4805582 55.8911276,21.8989843 C55.7111876,23.2816926 55.5312476,24.5883234 55.8731336,25.8359941 C55.9000396,25.9381574 55.934329,26.0379856 55.9756994,26.1345982 C55.966826,26.0361449 55.9945787,25.9379093 56.0530737,25.8607193 C56.2438398,25.6177251 56.5321036,25.4844231 56.8304145,25.5012532 C57.1912101,25.5121407 57.527394,25.6971703 57.7427104,26.0033645 C58.0360127,26.4389081 58.0809977,27.0456261 57.8650696,27.6732653 C57.5051896,28.7003113 56.6054895,29.5067327 55.4484752,29.8319639 C55.0002669,29.9505912 54.5393236,30.0068569 54.0773323,29.9993344 Z M46.926516,17.1003971 C46.9260771,17.6836059 46.8900141,18.2661764 46.8185519,18.8444734 C46.7807645,19.2248608 46.7411777,19.6052482 46.7231837,19.974224 C46.6881348,21.1860426 46.8092047,22.3972689 47.0830638,23.5745909 C47.2917942,24.5674021 47.5940934,25.7066624 48.2364793,26.6176902 C49.0857962,27.8216164 50.5199181,28.6413513 52.5028571,29.0521697 C53.6328804,29.286108 54.5073889,29.2975196 55.2595382,29.0864046 C56.1772323,28.8277411 56.9149863,28.1829844 57.1848964,27.4012883 C57.3166814,27.0977086 57.3087152,26.7468676 57.1633036,26.4503198 C57.1645143,26.5692806 57.1366217,26.6865537 57.0823306,26.7907665 C56.9709499,26.9994022 56.7803172,27.1475811 56.5587051,27.197781 C56.2874701,27.2631857 56.0027192,27.2067095 55.7723672,27.0418222 C55.4703392,26.7879526 55.2600557,26.4320578 55.1767658,26.0337955 C54.7952929,24.630166 54.9968258,23.1808899 55.1767658,21.7829662 C55.2307478,21.3721478 55.2883286,20.9461138 55.3279154,20.5333935 C55.6361732,17.2401939 54.9428019,13.9288984 53.3485752,11.0807662 C52.5100547,9.58964753 51.6013576,8.608248 50.5667025,8.08141142 C49.602224,7.59071166 49.602224,7.59071166 48.7834969,8.38952523 L48.5765659,8.59113056 C47.4969258,9.63719596 47.0146866,10.3694417 47.2216176,11.6893861 C47.3709678,12.6403546 47.2306146,13.8138498 47.0956596,14.9455024 C46.9926063,15.6588838 46.9354939,16.3788375 46.9247166,17.1003971 L46.926516,17.1003971 Z" id="Shape" fill="#312783" fill-rule="nonzero"></path>
            <path d="M100.100778,55.1176776 C100.100778,55.1176776 98.2491068,53.423233 99.3489118,51.1669275 C100.448717,48.910622 101.992443,46.1456287 103.548167,47.251626 C105.103891,48.3576234 106.853581,50.532397 105.535815,51.3796193 C104.218048,52.2268416 103.650149,51.9999704 103.650149,51.9999704 C103.650149,51.9999704 101.650504,53.513627 104.09807,57 C104.100069,57 101.510528,56.4735878 100.100778,55.1176776 Z" id="Shape" fill="#F5D252" fill-rule="nonzero"></path>
            <path d="M104.693483,57 L103.853969,56.8083827 C103.755308,56.785102 101.408975,56.2353214 100.08692,54.8044592 C99.973908,54.6862653 98.2930864,52.8667959 99.3442726,50.4241224 C100.251952,48.3234948 101.260086,46.3392703 102.472718,46.0366224 C102.89509,45.9360411 103.340115,46.0454423 103.66741,46.3303163 C104.623524,47.0949948 106.033476,48.6959846 105.999394,49.9782091 C105.999434,50.4122265 105.788837,50.8193644 105.434336,51.0706071 C104.558946,51.7027653 103.979537,51.8048418 103.662029,51.7869336 C103.349902,52.1701683 102.548059,53.5526785 104.237849,56.2639745 L104.693483,57 Z M102.784845,46.713551 C102.737047,46.7136438 102.689445,46.7196592 102.643132,46.7314591 C101.60809,46.9893367 100.440305,49.6898877 99.9990217,50.7070714 C99.1182496,52.7450204 100.587399,54.2887041 100.60175,54.308403 C101.319283,55.0820357 102.418903,55.5780918 103.174106,55.8485051 C101.559657,52.6590612 103.215364,51.1923826 103.292499,51.1279132 L103.495202,50.9488316 L103.662029,51.0598622 C103.742751,51.0706071 104.162508,51.0867244 105.007404,50.4760561 C105.183328,50.3547865 105.284854,50.1520758 105.276479,49.9388112 C105.298005,49.0684744 104.243231,47.6931275 103.211777,46.8675612 C103.091127,46.7692901 102.94055,46.7149712 102.784845,46.713551 Z" id="Shape" fill="#312783" fill-rule="nonzero"></path>
            <polygon id="Shape" fill="#312783" fill-rule="nonzero" points="76.266115 34 83.9299771 58.0230259 98.9347751 52.8865551 101 56.8257891 81.6732494 68 74 54.7081883"></polygon>
            <path d="M80.9566447,68 L73,54.3956679 L73.0131951,54.2707534 L75.4825636,32 L83.5975495,57.1153988 L98.604147,52.0431102 L101,56.5570685 L80.9566447,68 Z M73.7766258,54.2291152 L81.2299717,66.9722938 L99.9915174,56.2637085 L98.2403393,52.966721 L83.1168709,58.0768624 L75.8444863,35.577099 L73.7766258,54.2291152 Z" id="Shape" fill="#E20400" fill-rule="nonzero"></path>
            <path d="M22.8992215,55.1191167 C22.8992215,55.1191167 24.7508932,53.4243716 23.6510882,51.1676662 C22.5512832,48.9109608 21.007557,46.1454772 19.4518328,47.2516707 C17.8961087,48.3578641 16.146419,50.5330232 17.4641853,51.3803957 C18.7819516,52.2277682 20.5896311,49.4020113 20.5896311,49.4020113 C20.5896311,49.4020113 21.351496,53.5147817 18.9079293,57 C18.8979311,57 21.4894715,56.4734945 22.8992215,55.1191167 Z" id="Shape" fill="#F5D252" fill-rule="nonzero"></path>
            <path d="M18.3061895,58 L18.7617306,57.2689899 C20.2234078,54.9218742 20.3579179,52.252254 20.3041139,50.8350261 C19.8575401,51.4262842 19.2083043,52.1178771 18.5285796,52.2683792 C18.1941485,52.3467403 17.8421415,52.2747061 17.5654868,52.0712931 C17.2110583,51.8199277 17.0005036,51.4125908 17.0005441,50.9783614 C16.9682616,49.6955103 18.3797217,48.0937382 19.3320537,47.3304777 C19.6592831,47.0454645 20.1042171,46.9360098 20.526504,47.0366403 C21.738889,47.3376444 22.7468186,49.3246302 23.6543139,51.4262842 C24.7088736,53.8683596 23.0248063,55.6887181 22.9118177,55.8087614 C21.5882376,57.2421145 19.2423803,57.7903721 19.1455329,57.8136641 L18.3061895,58 Z M20.7614485,48.7244136 L20.9264476,49.7277608 C20.9533496,49.8908047 21.5147054,53.4741875 19.8127034,56.862276 C20.5677538,56.5917306 21.6725307,56.0972237 22.3881248,55.3214213 C22.4526897,55.2551288 23.8659432,53.7411495 22.9907304,51.7183299 C22.5513305,50.7006492 21.3766083,47.9969869 20.3471571,47.740775 C20.1414475,47.6915705 19.924846,47.7510769 19.7732471,47.8984438 C18.7420024,48.7244136 17.6874427,50.0986409 17.7089643,50.9711946 C17.7005904,51.1845634 17.802096,51.3873732 17.9779846,51.508702 C18.0885897,51.5935571 18.2322128,51.62265 18.3671674,51.5875364 C19.084555,51.4298676 19.9938437,50.0843074 20.2538967,49.6166759 L20.7614485,48.7244136 Z" id="Shape" fill="#312783" fill-rule="nonzero"></path>
            <path d="M19,56.3875029 L16.5896434,55.3836353 C16.5896434,55.3836353 16.6114297,54.1459648 16.0945003,53.8731949 C15.577571,53.600425 14.7873226,54.3853344 14.7873226,54.3853344 C14.7873226,54.3853344 14.8526815,53.2460096 14.5278676,53.1346749 C14.2030537,53.0233403 13.6108626,53.4352785 13.6108626,53.4352785 C13.6108626,53.4352785 13.5969986,52.3850215 13.1256224,52.0658621 C12.6542461,51.7467027 12.349238,52.6911918 12.349238,52.6911918 C12.349238,52.6911918 11.9531235,53.5150684 12.0046184,53.8527835 C12.0561133,54.1904987 15.1319422,57.2039571 15.6944247,57.4433267 C16.2575962,57.6563275 16.8320564,57.8421293 17.4155421,58" id="Shape" fill="#F5D252" fill-rule="nonzero"></path>
            <path d="M17.2808434,58 C16.7213691,57.8312899 16.1707623,57.6315097 15.6313328,57.4014976 C15.1713026,57.1814031 12.0812195,53.9668659 12.0060751,53.3645021 C11.954757,52.9513424 12.242505,52.2176943 12.3451412,51.96864 C12.4092888,51.7581988 12.6182268,51.1809336 13.0306045,51.034204 C13.2324244,50.9637605 13.4542815,51.0035552 13.6225955,51.1403899 C13.9469992,51.3855828 14.097288,51.8585928 14.1724323,52.2543767 C14.3821417,52.1525235 14.6197467,52.1340087 14.8414005,52.202249 C15.0943255,52.3007123 15.2482798,52.5883796 15.3050963,53.0864881 C15.6148377,52.8934228 15.9942252,52.7891676 16.344288,52.9976781 C16.8538034,53.2988599 16.9637708,54.183099 16.9839315,54.6522477 L19,55.596337 L18.7030881,56.302956 L16.2508157,55.1561481 L16.2508157,54.9013019 C16.2508157,54.3568578 16.126186,53.760286 15.9795628,53.6734066 C15.8329397,53.5865272 15.4572178,53.8664719 15.2152896,54.1348327 L14.5298263,54.9070939 L14.5829772,53.8568187 C14.6027962,53.5523937 14.5836863,53.2465437 14.5261607,52.9474811 C14.3659771,53.0070174 14.2152194,53.091628 14.0789601,53.198466 L13.5034642,53.6521694 L13.4943002,52.8953535 C13.4943002,52.5459053 13.3971624,52.0053224 13.2358769,51.8180491 C13.1506239,51.9432775 13.0850291,52.082124 13.0416012,52.2292782 L13.0251061,52.2736832 C12.8875843,52.5803493 12.7895792,52.9049975 12.7336926,53.2390097 C13.0269389,53.7892458 15.5231982,56.4998826 15.9374087,56.7141851 C16.4425367,56.9280599 16.9575956,57.1149277 17.4806175,57.2740745 L17.2808434,58 Z" id="Shape" fill="#312783" fill-rule="nonzero"></path>
            <polygon id="Shape" fill="#312783" fill-rule="nonzero" points="45.733885 34 38.0700229 58.0211165 23.0652249 52.8865551 21 56.8257891 40.3267506 68 48 54.7081883"></polygon>
            <path d="M40.0438909,68 L20,56.560164 L22.390037,52.0466803 L37.3956244,57.1165431 L45.5176035,32 L48,54.3933134 L40.0438909,68 Z M21.0065298,56.2668349 L39.7668125,66.9742943 L47.2196567,54.2324554 L45.1462807,35.5786154 L37.8838102,58.0779057 L22.7670145,52.9683015 L21.0065298,56.2668349 Z" id="Shape" fill="#E20400" fill-rule="nonzero"></path>
            <polygon id="Shape" fill="#312783" fill-rule="nonzero" points="70.7055157 76.6036921 71.5597402 80.1581844 77 115 60.6415065 94.3722584 41 113.147769 51.8032057 78.9506309 52.4707454 75.7525616 60.6415065 69"></polygon>
            <path d="M79,117 L61.2843459,95.5130021 L40,115.07789 L51.7285102,79.3704065 L52.4501134,76.0496887 L61.3040081,69 L72.1555836,76.8876816 L73.101336,80.6205592 L79,117 Z M61.3629947,94.3702845 L77.7593143,114.265291 L72.3148475,80.7612013 L71.4693723,77.346722 L61.3335014,69.9805885 L53.1579531,76.4794286 L52.481573,79.5891832 L41.6850517,112.462337 L61.3629947,94.3702845 Z" id="Shape" fill="#E20400" fill-rule="nonzero"></path>
            <path d="M45.5333958,125.302311 L46.8028376,125.302311 C46.8480017,125.302371 46.8929837,125.296326 46.9366643,125.284327 C48.8140617,124.772765 56.9870492,121 56.9870492,121 L64.0014799,121 C64.0014799,121 72.1744675,124.772765 74.0518649,125.284327 C74.0955455,125.296326 74.1405274,125.302371 74.1856916,125.302311 L75.4551334,125.302311 C75.5996408,125.302311 75.7382295,125.362313 75.8404117,125.469117 C75.9425939,125.575921 75.9999992,125.720779 75.9999992,125.871823 L75.9999992,126.597201 C76.0003131,126.789737 75.907535,126.969403 75.7533757,127.074791 L74.5317292,127.908077 C74.4429673,127.968346 74.3393326,128.000287 74.2334868,127.999998 L64.5214922,127.999998 C64.367986,128.000212 64.2215151,127.932733 64.1181003,127.814157 L62.8849829,126.397372 L62.6058587,127.996001 L61.0496454,127.996001 C60.7487243,127.996001 60.5047795,127.741022 60.5047795,127.42649 C60.5047795,127.741022 60.2608348,127.996001 59.9599137,127.996001 L58.3941413,127.996001 L58.1150171,126.397372 L56.8818997,127.814157 C56.7784849,127.932733 56.632014,128.000212 56.4785078,127.999998 L46.7665132,127.999998 C46.6606674,128.000287 46.5570327,127.968346 46.4682708,127.908077 L45.2466243,127.074791 C45.092465,126.969403 44.9996869,126.789737 45.0000008,126.597201 L45.0000008,125.871823 C44.9999351,125.561914 45.2369637,125.308836 45.5333958,125.302311 Z" id="Shape" fill="#312783" fill-rule="nonzero"></path>
            <path d="M74.8245668,127.999928 L65.0447591,127.999928 C64.781635,127.999435 64.5308438,127.895931 64.353627,127.714693 L63.6355427,126.97918 L63.4430268,127.999928 L61.5409697,127.999928 C61.343719,127.999952 61.1515701,127.941525 60.9922994,127.833092 C60.8330286,127.941525 60.6408798,127.999952 60.443629,127.999928 L58.5454223,127.999928 L58.3529064,126.97918 L57.6348221,127.714693 C57.4576052,127.895931 57.2068141,127.999435 56.94369,127.999928 L47.1638823,127.999928 C46.9826549,127.999924 46.805362,127.950673 46.6537152,127.858207 L45.4235386,127.110137 C45.158588,126.949464 44.9991291,126.674574 45.0000036,126.380006 L45.0000036,125.728808 C45.0010626,125.248698 45.4184756,124.859738 45.9337057,124.858751 L47.2120113,124.858751 C47.2247951,124.860251 47.2377306,124.860251 47.2505144,124.858751 C49.0890413,124.412061 57.2305387,121.064582 57.3113954,121.030497 L57.3864766,121 L64.6115983,121 L64.6866795,121.030497 C64.7694613,121.064582 72.9090336,124.412061 74.7494856,124.858751 L74.7879887,124.858751 L76.0662943,124.858751 C76.5815244,124.859738 76.9989374,125.248698 76.9999964,125.728808 L76.9999964,126.380006 C77.0008709,126.674574 76.841412,126.949464 76.5764614,127.110137 L75.3462848,127.858207 C75.1914034,127.952804 75.0097375,128.002152 74.8245668,127.999928 Z M63.1581032,125.422046 L64.923474,127.232125 C64.9546161,127.263896 64.9985825,127.282105 65.0447591,127.282355 L74.8245668,127.282355 C74.8567205,127.282448 74.8881914,127.273713 74.9150492,127.25724 L76.1452258,126.509169 C76.1917503,126.48127 76.2199958,126.433354 76.220307,126.3818 L76.220307,125.730602 C76.2192671,125.646792 76.1466093,125.579087 76.0566685,125.578118 L74.7783629,125.578118 C74.7004407,125.578357 74.6228053,125.569314 74.5473439,125.551209 C72.7068919,125.108107 65.310431,122.078154 64.4287082,121.715779 L57.5308635,121.715779 C56.652991,122.074566 49.2526798,125.108107 47.4257039,125.551209 C47.3496069,125.569408 47.2713221,125.578451 47.1927597,125.578118 L45.9144541,125.578118 C45.8245133,125.579087 45.7518555,125.646792 45.7508156,125.730602 L45.7508156,126.3818 C45.7504718,126.433991 45.7787974,126.482719 45.8258968,126.510963 L47.0560734,127.259034 C47.0829312,127.275507 47.1144021,127.284242 47.1465559,127.284149 L56.9205881,127.284149 C56.9667646,127.283899 57.010731,127.26569 57.0418731,127.233918 L58.8072439,125.42384 L59.171099,127.284149 L60.4263026,127.284149 C60.5162434,127.28318 60.5889013,127.215474 60.5899411,127.131664 L61.3600047,127.131664 C61.3610446,127.215474 61.4337024,127.28318 61.5236432,127.284149 L62.7788469,127.284149 L63.1581032,125.422046 Z" id="Shape" fill="#E20400" fill-rule="nonzero"></path>
            <path d="M71.8334726,80.3526412 L73,92.6078866 L64.2289439,121 L57.1798128,121 L50,92.6078866 L51.6988636,79.1681264 C51.6988636,79.1681264 56.0574866,72 60.7063001,72 C65.3551136,72 71.8334726,80.3526412 71.8334726,80.3526412 Z" id="Shape" fill="#8E2118" fill-rule="nonzero"></path>
            <path d="M64.0412155,121 L56.3373202,121 L49,92.1131555 L50.7339583,78.4574517 L50.7766284,78.3884545 C50.9705835,78.0875498 55.3462098,71 60.1989656,71 C65.0517214,71 71.4658154,79.1934223 71.7373525,79.5422416 L71.8052368,79.6304048 L73,92.1304048 L64.0412155,121 Z M56.94246,120.233364 L63.469048,120.233364 L72.2125424,92.0479914 L71.048812,79.9217265 C70.3447551,79.0439282 64.3922741,71.7647194 60.1873283,71.7647194 C55.9823824,71.7647194 51.9306611,77.9936369 51.4709876,78.7161914 L49.7758203,92.0652407 L56.94246,120.233364 Z" id="Shape" fill="#E20400" fill-rule="nonzero"></path>
            <path d="M71,80.3510589 L63.4482199,121 L56.4443066,121 L51,79.1684055 C51,79.1684055 55.3294836,72 59.9472177,72 C64.5649518,72 71,80.3510589 71,80.3510589 Z" id="Shape"></path>
            <path d="M56.34198,79.0237182 C57.4566421,79.5192162 58.5026518,80.1894065 59.4486136,81.0141738 C59.5067409,81.0386045 59.5561348,81.0836116 59.5892717,81.1423398 C60.0625852,81.5658569 60.5077294,82.0273062 60.9211823,82.5230363 C61.1712411,82.824032 60.7683686,83.2764966 60.5183097,82.9735589 C60.2387301,82.635667 59.9452583,82.319136 59.6396308,82.0181402 L59.9226835,120.677643 C59.9236097,120.762443 59.8942529,120.844153 59.8411197,120.904665 C59.7879865,120.965176 59.7154657,120.999489 59.6396308,121 C59.4830217,121.000003 59.3557965,120.858598 59.3548416,120.683469 L59.0665793,81.4899413 C58.1905883,80.7264713 57.2224422,80.1053833 56.1909028,79.6451288 C55.854018,79.4897761 55.9998856,78.8722494 56.34198,79.0237182 Z" id="Shape" fill="#E20400" fill-rule="nonzero"></path>
            <polyline id="Shape" fill="#312783" fill-rule="nonzero" points="56.4285714 121.217218 56.1807704 120.698275 51 101.231076 60.0303306 101.231076 60.2070569 127 60.0303306 101 70 101.904722 63.313214 122.656549"></polyline>
            <polygon id="Shape" fill="#E20400" fill-rule="nonzero" points="60.3168298 127 60.1421992 102.034452 52.0036461 102.034452 57.039148 120.664222 57.2713491 121.140031 56.5805028 121.477143 56.3080023 120.899237 51 101.26391 60.1402802 101.26391 60.1364421 101 71 101.970882 64.1682978 122.846781 63.4390712 122.605987 69.9675686 102.652812 60.9117252 101.843743 61.0844368 126.994221"></polygon>
            <path d="M75,32.366946 L62.7899695,32 L61.0943936,32.0513344 L59.3988176,32 L59.1727409,32.1140765 C55.3727668,32.2395606 46.4314299,32.3916626 46,32.9050067 L48.814656,58.4144074 L48.7845124,58.4144074 L51.8478529,85.8231815 L59.9300981,71.1833674 L69.9151562,86 L75,32.366946 Z" id="Shape" fill="#E20400" fill-rule="nonzero"></path>
            <path d="M70.7543161,88 L60.4545627,72.6749169 L52.0387023,87.9673648 L48.7717701,58.6514004 L48.804022,58.6514004 L46,33.1806246 L46.1062417,33.0539234 C46.4856763,32.6066299 48.7983305,32.4280964 57.3773478,32.1862123 C58.1988238,32.1631758 58.94631,32.1420589 59.5666856,32.120942 L59.8057295,32 L59.9005881,32 L61.5890723,32.0518323 L63.2775564,32 L63.3003225,32 L76,32.383943 L70.7543161,88 Z M60.3900588,71.2140139 L70.2003415,85.8038463 L75.1690381,33.1326317 L63.2908367,32.7736451 L61.6023525,32.8254774 L61.5776892,32.8254774 L59.9726807,32.7755648 L59.756403,32.8849885 L59.6729273,32.8849885 C59.0373743,32.9061054 58.2576361,32.9272222 57.3963195,32.9521785 C54.0648833,33.0462446 48.0299753,33.2151795 46.8025043,33.528093 L49.6482641,59.4557609 L49.6179093,59.4557609 L52.5186872,85.4909328 L60.3900588,71.2140139 Z" id="Shape" fill="#312783" fill-rule="nonzero"></path>
            <path d="M20.87546,56.6936321 C21.6932191,54.5262042 18.2740239,52.5222469 16.7327885,51.0644737 C15.1915531,49.6067006 13.0769243,46.2565148 10.9411299,47.148872 C10.0906604,49.4163054 5.41692658,54.7165993 0.131316521,56.3955386 C-0.55944941,56.5993961 1.562876,60.0495874 4.43561565,62.8689745 C7.70665209,66.0806911 11.855096,68.6500644 12.0571306,67.8538664 C13.5271728,62.5093392 18.6415345,57.6340688 20.87546,56.6936321 Z" id="Shape" fill="#312783"></path>
            <path d="M12.7845368,68 L12.5589334,67.8071479 L12.53754,67.8071479 C11.4134127,68.1214968 7.34477214,65.253786 4.59474451,62.5789273 C2.26091625,60.312915 -0.240169704,56.8840046 0.0184962619,55.8541743 C0.0302063128,55.8080598 0.0471708958,55.7634166 0.0690625408,55.7211064 L0.0107168343,55.5668247 L0.399688211,55.4433993 C5.51271696,53.8330843 10.2192706,48.6762189 11.0788974,46.4044211 L11.1372431,46.2501394 L11.2908868,46.1864982 C13.2357436,45.3668768 15.0639091,47.4168947 16.5264415,49.0657802 C16.899854,49.4861978 17.2518731,49.8834731 17.5688848,50.1920365 C17.8858964,50.5005999 18.300151,50.8226629 18.7357989,51.1775108 C20.4550524,52.5602604 22.5924501,54.2805011 21.8475699,56.2514497 L21.7892242,56.4057314 L21.6355805,56.4693726 C19.3795465,57.4104908 14.3676503,62.278078 12.9479048,67.407944 L12.7845368,68 Z M0.778935303,56.145381 C0.895626716,56.8762905 2.6421082,59.6051478 5.13930444,62.0350843 C8.14021861,64.9529367 11.4134127,66.9643842 12.2302526,67.0685243 L12.346944,66.6133934 L12.3683375,66.6326786 C14.0623078,61.4256717 18.8797183,56.9110039 21.1649252,55.8329606 C21.5422274,54.4270687 19.7198965,52.9613927 18.2476398,51.7830664 C17.796433,51.4205044 17.3705094,51.0772277 17.0282146,50.7551646 C16.6859198,50.4331016 16.3241764,50.0146125 15.9410396,49.5826238 C14.6885517,48.1690179 13.1404457,46.4217778 11.7382038,46.851838 C10.7366025,49.187277 6.29260457,54.2284311 1.02204241,56.0605261 L1.02204241,56.0740257 L0.778935303,56.145381 Z" id="Shape" fill="#E20400" fill-rule="nonzero"></path>
            <path d="M19.8821374,56.3887653 C20.6560511,54.2895035 17.4201813,52.3485711 15.9615815,50.9366452 C14.5029818,49.5247193 12.501732,46.2798975 10.4804514,47.1441899 C10.2528297,47.7644687 9.73567328,48.6194475 9,49.5656987 C11.1988357,53.0035737 14.1305396,55.8871863 17.574964,58 C18.4763459,57.2083529 19.2848581,56.6458178 19.8821374,56.3887653 Z" id="Shape" fill="#8E2118"></path>
            <path d="M18.2090266,58 L17.983288,57.8696823 C14.4277054,55.6946157 11.4022734,52.7240186 9.13507312,49.1818384 L9,48.955199 L9.16282788,48.7474462 C9.8714992,47.8408886 10.3858873,47.0042115 10.6097756,46.3960624 L10.6652851,46.2449695 L10.8114601,46.1826436 C12.6617769,45.3799624 14.4010747,47.3876098 15.7925129,49.0024156 C16.1477737,49.4141438 16.482681,49.8032081 16.7842827,50.105394 C17.0858843,50.4075799 17.4800018,50.7229864 17.8944727,51.0705002 C19.5301528,52.4246706 21.5636509,54.1093569 20.8549796,56.0395691 L20.7994701,56.1906621 L20.6532951,56.2529879 C20.0667446,56.5041799 19.2692581,57.0613351 18.4088608,57.8224658 L18.2090266,58 Z M9.90110427,49.0137475 C12.0463135,52.2703775 14.8493824,55.0207729 18.1220617,57.0802217 C18.7564022,56.5128693 19.4560311,56.0264254 20.2055184,55.6316182 C20.5644799,54.2547838 18.830733,52.8194009 17.4300432,51.6654286 C17.0007697,51.3103602 16.5955504,50.9741784 16.2698946,50.6587719 C15.9442389,50.3433654 15.6000799,49.9335258 15.2355675,49.5104656 C14.0439635,48.1260765 12.5711114,46.414949 11.237033,46.8361206 C10.8799985,47.6152562 10.4313908,48.3471421 9.90110427,49.0156362 L9.90110427,49.0137475 Z" id="Shape" fill="#E20400" fill-rule="nonzero"></path>
            <path d="M15.2357573,52.8645982 C19.8647144,57.4850456 24.2070722,60.641046 24.9047154,59.8892444 C25.6023586,59.1374428 22.3931998,54.7558491 17.7642427,50.1354018 C13.1352856,45.5149544 8.79292785,42.358954 8.09528462,43.1107556 C7.39764139,43.8625572 10.6068002,48.2480665 15.2357573,52.8645982 Z" id="Shape" fill="#312783"></path>
            <path d="M24.2153798,59.9990134 C23.6725301,59.9990134 22.7168089,59.616797 20.8952042,58.2958727 C19.023902,56.9393013 16.7378168,54.9410815 14.453643,52.6656062 C12.1694693,50.3921114 10.1528975,48.110695 8.77092455,46.2194166 C6.712301,43.4131951 6.85948207,42.6190562 7.20545316,42.2388202 C7.55142424,41.8585841 8.31791268,41.6823288 11.1047958,43.7043134 C12.976098,45.0608848 15.2621832,47.0591046 17.546357,49.3325994 C19.8305307,51.6060943 21.8471025,53.8875107 23.2290755,55.7787891 C25.287699,58.5850105 25.1405179,59.3791494 24.7945468,59.7593855 C24.6444169,59.9228849 24.4329144,60.0103932 24.2153798,59.9990134 Z M14.9831126,52.0952521 C20.0618153,57.1551645 23.6018067,59.3494435 24.2364056,59.2028942 C24.3510922,58.5394614 22.0955901,54.9628659 17.0168874,49.8950319 C11.9381847,44.827198 8.39819326,42.642821 7.76359436,42.7873899 C7.64890781,43.4508227 9.90249849,47.0274182 14.9831126,52.0952521 Z" id="Shape" fill="#E20400" fill-rule="nonzero"></path>
            <path d="M15.9990107,51.0408327 C18.4624859,53.5017309 20.6962253,55.2647624 20.9719083,54.9672508 C21.2475913,54.6697393 19.4627205,52.4182011 17.0010125,49.9591394 C14.5393045,47.5000777 12.3037979,45.7352097 12.0281149,46.0327212 C11.7524319,46.3302328 13.5355355,48.578098 15.9990107,51.0408327 Z" id="Shape" fill="#212529"></path>
            <path d="M16,57.2438992 C15.5259415,57.7447613 11.4240692,62.3075598 10.8486852,63.5606323 C10.2733013,64.8137049 10.5447088,65.5328914 9.15691168,64.5201593 C7.76911456,63.5074272 6.44283647,62.5020337 7.24077458,62.7662247 C8.03871269,63.0304157 9.87161816,61.7589966 10.8740166,60.4673962 C11.8764151,59.1757958 14.2503262,56 14.2503262,56 L16,57.2438992 Z" id="Shape" fill="#8E2118"></path>
            <path d="M8.73312232,50 C8.01183129,50.726116 4.49193108,53.8025547 2.91591019,54.4887169 C1.33988929,55.1748791 0.541059483,55.0810747 1.2749731,56.2432076 C2.00888672,57.4053406 2.80050362,58.5674736 2.61116473,57.6954396 C2.42182584,56.8234056 1.66627348,55.95832 2.73198098,55.2843177 C3.79768847,54.6103153 5.45124815,53.5089815 6.45744913,52.6682156 C7.46365011,51.8274498 9,50.5680381 9,50.5680381 L8.73312232,50 Z" id="Shape" fill="#8E2118"></path>
            <ellipse id="Oval" fill="#F5D252" fill-rule="nonzero" cx="60" cy="29" rx="2" ry="3"></ellipse>
            <path d="M59,32 C57.8782979,32 57,30.6817102 57,29 C57,27.3182898 57.8782979,26 59,26 C60.1217021,26 61,27.3182898 61,29 C61,30.6817102 60.1217021,32 59,32 Z M59,26.7143705 C58.2851064,26.7143705 57.6808511,27.7618765 57.6808511,29.0017815 C57.6808511,30.2416865 58.2851064,31.2891924 59,31.2891924 C59.7148936,31.2891924 60.3191489,30.2416865 60.3191489,29.0017815 C60.3191489,27.7618765 59.7217021,26.7125891 59,26.7125891 L59,26.7143705 Z" id="Shape" fill="#312783" fill-rule="nonzero"></path>
            <polygon id="Shape" fill="#F2EDE3" fill-rule="nonzero" points="60.8076211 72 68 32 60.1209315 32 53 32.1250305"></polygon>
            <path d="M56.0017757,29 L63,29 L63,32.1821826 C63,32.6338507 62.6350814,33 62.1849315,33 L56.8150685,33 C56.3649186,33 56,32.6338507 56,32.1821826 L56,29 L56.0017757,29 Z" id="Shape" fill="#F2EDE3" fill-rule="nonzero" transform="translate(59.500000, 31.000000) rotate(-180.000000) translate(-59.500000, -31.000000) "></path>
            <path d="M59.8888731,33.0871603 C59.8888731,33.0871603 60.1025183,32.4448993 59.9373472,32.2703535 C59.6159817,31.9314295 57.7721694,31.2535815 56.644697,31.006167 C56.5212728,30.9791517 56.3958416,31.0430703 56.3520569,31.1552935 C56.1635464,31.6314818 55.7560046,32.9685369 56.1994531,34.8173673 C56.2277907,34.9333514 56.3433443,35.0111554 56.4687539,34.9986916 C57.1940705,34.9309068 59.4921033,34.6004559 59.8888731,33.0871603 Z" id="Shape" fill="#312783" fill-rule="nonzero"></path>
            <path d="M60.1111269,33.0871603 C60.1111269,33.0871603 59.8974817,32.4448993 60.0626528,32.2703535 C60.3840183,31.9314295 62.2278306,31.2535815 63.355303,31.006167 C63.4787272,30.9791517 63.6041584,31.0430703 63.6479431,31.1552935 C63.8364536,31.6314818 64.2439954,32.9685369 63.8005469,34.8173673 C63.7722093,34.9333514 63.6566557,35.0111554 63.5312461,34.9986916 C62.8059295,34.9309068 60.5078967,34.6004559 60.1111269,33.0871603 Z" id="Shape" fill="#312783" fill-rule="nonzero"></path>
            <circle id="Oval" fill="#312783" fill-rule="nonzero" cx="59.5" cy="33.5" r="1"></circle>
            <path d="M52.7230523,68 L53,70.0210865 L50.1104589,73 C50.0800427,72.2852037 50.0416222,71.5436026 50,70.7734096 L52.7230523,68 Z" id="Shape" fill="#312783" fill-rule="nonzero"></path>
            <path d="M72,70.8414097 C71.9737903,71.5801423 71.9495968,72.3053202 71.9274194,73 L68,69.9179939 L68.3508065,68 L72,70.8414097 Z" id="Shape" fill="#312783" fill-rule="nonzero"></path>
            <circle id="Oval" fill="#312783" fill-rule="nonzero" cx="60" cy="37" r="1"></circle>
            <path d="M68.5992922,7 L51.8152543,7 L51.8152543,16.1199282 C50.8146258,15.8953348 49.789973,16.3755458 49.2925843,17.3021958 C48.7951957,18.2288457 48.942365,19.3834128 49.6549116,20.1447114 C50.3674581,20.9060101 51.4773498,21.0945114 52.3874374,20.6087971 C53.7721205,25.4965889 57.5084762,29 61.9047498,29 C67.4797205,29 71.9999671,23.367684 71.9999671,16.4201077 C72.0075962,12.6698384 70.6877605,9.30466786 68.5992922,7 Z" id="Shape" stroke="#312783" stroke-width="4" fill="#F5D252" fill-rule="nonzero"></path>
            <polygon id="Shape" fill="#F2EDE3" fill-rule="nonzero" points="56.0122736 30.1441214 55 33 59.9997988 31.0657396 64 33 63.2665996 30"></polygon>
            <circle id="Oval" fill="#312783" fill-rule="nonzero" cx="60" cy="50" r="1"></circle>
            <circle id="Oval" fill="#312783" fill-rule="nonzero" cx="60" cy="44" r="1"></circle>
            <polyline id="Shape" fill="#F5D252" points="18.3975428 48 16 50.294042 17.4918824 52 20 49.5465066"></polyline>
            <polygon id="Shape" fill="#312783" fill-rule="nonzero" points="17.064612 53 15 50.6489707 17.7831415 48 18.3030078 48.5146262 16.015596 50.6941134 17.1073153 51.9364391 19.4745637 49.6287468 20 50.1397616"></polygon>
            <rect id="Rectangle-path" fill="#F9AE00" fill-rule="nonzero" transform="translate(105.000000, 50.500000) rotate(28.770000) translate(-105.000000, -50.500000) " x="104" y="16" width="2" height="69"></rect>
            <path d="M89.1920601,82 L87,80.8074354 L120.798283,20 L123,21.1944727 L122.806867,21.5283907 L89.1920601,82 Z M88.0332618,80.504047 L88.8791845,80.9638999 L121.924249,21.495953 L121.08412,21.034192 L88.0332618,80.504047 Z" id="Shape" fill="#312783" fill-rule="nonzero"></path>
            <polyline id="Shape" fill="#F5D252" points="103.602457 47 106 49.2933105 104.508118 51 102 48.5454545"></polyline>
            <polygon id="Shape" fill="#312783" fill-rule="nonzero" points="104.935388 52 102 49.1389892 102.525436 48.6299639 104.892685 50.9368231 105.984404 49.6931408 103.696992 47.5162455 104.216859 47 107 49.6498195"></polygon>
            <path d="M103,55.8576673 L104.323292,54.0557524 C104.323292,54.0557524 103.935624,52.9346395 104.323292,52.5509148 C104.710961,52.16719 105.650312,52.6711603 105.650312,52.6711603 C105.650312,52.6711603 105.251461,51.6526098 105.512392,51.4633999 C105.773323,51.27419 106.427514,51.4952296 106.427514,51.4952296 C106.427514,51.4952296 106.127443,50.5350335 106.457334,50.1212474 C106.787226,49.7074613 107.342636,50.4855207 107.342636,50.4855207 C107.342636,50.4855207 107.940913,51.1327246 107.998691,51.4510217 C108.056468,51.7693187 106.185221,55.3289406 105.750957,55.6949822 C105.316694,56.0610237 103.81075,57 103.81075,57" id="Shape" fill="#F5D252" fill-rule="nonzero"></path>
            <path d="M104.383602,58 L103.951349,57.3819305 C104.387549,57.1136069 105.601408,56.3493473 105.958657,56.0495651 C106.315907,55.7497829 108.068601,52.5058432 108.202816,51.9155314 C108.044268,51.6261035 107.845125,51.3578671 107.61069,51.1179626 L107.581083,51.0809525 C107.492536,50.9595232 107.383937,50.8520831 107.259361,50.7626652 C107.150805,50.9902776 107.219886,51.5028682 107.320548,51.826707 L107.539634,52.5224978 L106.815267,52.2782308 C106.642818,52.2204057 106.461515,52.189159 106.278406,52.1857054 C106.31026,52.4754104 106.383278,52.7598231 106.495519,53.0313874 L106.870532,53.9769967 L105.932999,53.4810607 C105.569828,53.2960099 105.102048,53.1923815 105.007308,53.2960099 C104.882961,53.4199939 104.928358,54.0047543 105.100074,54.5025408 L105.161261,54.678339 L103.647391,56.7138973 L103,56.2901311 L104.292809,54.550654 C104.17241,54.1342898 103.980956,53.2349432 104.432945,52.7852699 C104.729009,52.4910392 105.155339,52.4799361 105.528379,52.5558069 C105.437586,52.0913296 105.508641,51.7730423 105.737597,51.6083471 C105.944817,51.4803778 106.194203,51.4265219 106.440253,51.4566055 C106.39091,51.0735504 106.402752,50.5961195 106.661314,50.2741312 C106.791567,50.097231 107.008468,49.9941599 107.23765,50.0002561 C107.707404,50.0113591 108.096233,50.477687 108.224527,50.6497842 C108.406113,50.845938 108.923236,51.4325489 108.996265,51.8248565 C109.102848,52.4003643 106.896191,56.2660745 106.489597,56.6065679 C106.008001,56.9988754 104.446762,57.9592888 104.383602,58 Z" id="Shape" fill="#312783" fill-rule="nonzero"></path>
            <circle id="Oval" fill="#312783" fill-rule="nonzero" cx="122.5" cy="20.5" r="3.5"></circle>
            <path d="M122.5,24 C120.567003,24 119,22.4329966 119,20.5 C119,18.5670034 120.567003,17 122.5,17 C124.432997,17 126,18.5670034 126,20.5 C125.998114,22.4322149 124.432215,23.998114 122.5,24 Z M122.5,17.684262 C120.944911,17.684262 119.684262,18.9449108 119.684262,20.5 C119.684262,22.0550892 120.944911,23.315738 122.5,23.315738 C124.055089,23.315738 125.315738,22.0550892 125.315738,20.5 C125.313853,18.9456924 124.054308,17.6861471 122.5,17.684262 Z" id="Shape" fill="#F9AE00" fill-rule="nonzero"></path>
            <path d="M70.5770143,12.3130673 C70.0565325,11.6769478 69.4493038,11.083002 69.1491593,10.3273905 C68.8490148,9.57177899 68.986075,8.53149522 69.7043398,8.14490328 C70.5423155,7.69329361 71.557255,8.37158674 72.1037608,9.15707127 C73.6652062,11.4010618 73.3997605,14.4006638 73.9063627,17.096264 C74.0156639,17.6779091 74.3175433,18.3825608 74.9022179,18.3737746 C75.1337201,18.3513431 75.3387399,18.2129546 75.4482881,18.0051769 C75.5578364,17.7973992 75.5573486,17.5478565 75.4469888,17.3405198 C75.3650747,17.2712572 75.2562522,17.2440199 75.1519145,17.2666654 C75.0475768,17.2893108 74.9593285,17.3593203 74.9126275,17.4564974 C74.8831335,17.0769344 75.2856394,16.7869904 75.6621213,16.769418 C76.3179283,16.739545 76.9147474,17.3211902 76.9945546,17.981911 C77.0471311,18.6604051 76.7157782,19.3105246 76.1392296,19.6600714 C75.5608524,19.9956907 74.8752837,20.0872226 74.2307964,19.9148707 C73.7391258,19.8201142 73.2999553,19.5432014 72.9989895,19.1381723 C72.6762908,18.6514179 72.671086,18.0258419 72.6242426,17.4406822 C72.4687288,15.5613005 71.7550035,13.7736599 70.5770143,12.3130673 Z" id="Shape" fill="#E20400" fill-rule="nonzero"></path>
            <path d="M75.4711372,20.9998363 C75.2114486,20.9991386 74.952711,20.9659718 74.7001086,20.9010003 C74.1023005,20.7751121 73.5700099,20.4120661 73.2083749,19.8835712 C72.8615019,19.3273766 72.8165701,18.6568423 72.7770302,18.0657644 C72.7770302,17.986308 72.7662466,17.9068517 72.7608548,17.8273953 C72.6031632,15.8332716 71.8902317,13.9370914 70.715562,12.3875407 C70.595145,12.228628 70.4693361,12.0735912 70.3435273,11.9185543 C69.9013989,11.3720495 69.4448925,10.8061651 69.1806939,10.0949337 C68.8104563,9.09300823 68.9865888,7.73837398 69.9193716,7.20155898 C70.942018,6.62017089 72.1767422,7.37791337 72.8668937,8.43603969 C74.0584834,10.2596603 74.2687639,12.5057563 74.4718554,14.6743339 C74.5545298,15.5619197 74.6407987,16.4785749 74.7935666,17.3429052 C74.8834301,17.8487129 75.1116833,18.4378528 75.4639482,18.4378528 C75.5727524,18.4231128 75.6673471,18.350256 75.7155659,18.2440568 C75.745533,18.1843128 75.7627273,18.1180976 75.7658894,18.0502607 C75.6770184,18.1780362 75.5245578,18.2339463 75.381868,18.1910885 C75.2391782,18.1482307 75.1354797,18.0153815 75.1206697,17.8564647 C75.1035018,17.589086 75.1885782,17.3257821 75.356112,17.1277916 C75.5846338,16.8598459 75.9014357,16.6991333 76.2385713,16.6801228 C77.0814907,16.6394256 77.883073,17.4068579 77.9927064,18.3564585 C78.0603193,19.2485758 77.6537589,20.10508 76.943101,20.5676712 C76.4990718,20.8560362 75.9894536,21.0056589 75.4711372,20.9998363 Z M70.6850085,7.77713319 C70.5359873,7.77577603 70.3889924,7.81440248 70.2572583,7.88953488 C69.6875239,8.21705017 69.6012549,9.14145724 69.8474809,9.8119915 C70.0649505,10.3933796 70.462147,10.8914354 70.8845054,11.4127467 C71.0157061,11.5735974 71.1451095,11.7344481 71.2709183,11.8991747 C72.538053,13.5713765 73.3067605,15.6175738 73.4761681,17.7692565 C73.4761681,17.8506508 73.4869517,17.9320452 73.4941407,18.0153775 C73.5300861,18.5580063 73.5642343,19.0715658 73.8050684,19.4572199 C74.0663666,19.8228019 74.4442532,20.0707357 74.8654574,20.1529477 C75.438579,20.3183861 76.049013,20.2348911 76.5656744,19.9203924 C77.0430249,19.6141963 77.3207666,19.0451779 77.2845822,18.4475426 C77.2218212,17.9108429 76.8193739,17.4946701 76.3194485,17.449493 L76.3410157,17.4824384 C76.5283273,17.8302162 76.5356735,18.2576721 76.3604401,18.6126943 C76.1852068,18.9677165 75.8522764,19.1998929 75.4801236,19.2266026 L75.4657454,19.2266026 C74.7953639,19.2266026 74.2813448,18.5831998 74.0908342,17.501818 C73.9326745,16.6026044 73.8446083,15.6685075 73.7601366,14.765418 C73.5570452,12.5987784 73.3647373,10.5542303 72.2827811,8.89533628 C71.8855845,8.28100286 71.2529456,7.77713319 70.6850085,7.77713319 Z" id="Shape" fill="#312783" fill-rule="nonzero"></path>
            <path d="M46.062168,13.2569255 C46.1033206,13.5029171 46.1601502,13.7489087 46.2150203,13.9929633 C46.4521372,15.0234163 49.4249177,15.9802654 49.4543124,17.024277 C49.4758685,17.8319816 49.8207659,18.7675244 50.1754615,19.4958145 C50.9044492,20.9775748 52.5466311,21.5935223 53.87527,20.2802758 C54.3108738,19.9811121 54.6383804,19.5522103 54.8100204,19.0561287 C54.9732057,18.5478676 54.8198298,17.9922572 54.4180915,17.6363505 C54.0261626,17.3264399 53.3579239,17.3826112 53.0796544,17.787432 C53.318731,17.4717105 53.9458172,17.6053595 54.0594766,18.0004956 C54.1731359,18.3956316 53.8047228,18.8682454 53.3677221,18.9205428 C52.9188312,18.9419315 52.4940407,18.7189921 52.2605231,18.3394603 C52.0347964,17.9631068 51.9006258,17.5400612 51.8685942,17.1036916 C51.4766653,13.903864 50.3263541,10.5180901 53.1286455,8.862005 C54.1927324,8.23443592 55.6409096,7.9032189 56.4130094,6.92506339 C57.1761466,5.92337264 58.113801,5.0641391 59.1819869,4.38766987 C59.6307454,4.09712863 60.1010601,3.79690267 60.636043,3.73492054 C61.1710259,3.67293841 61.7824349,3.9286147 61.9392065,4.43803035 C62.1763234,4.00415543 62.774015,3.87631728 63.2580471,4.00415543 C63.7420793,4.13199357 64.1438064,4.449652 64.5553317,4.72857159 C64.966857,5.00749119 66.2641415,5.96627729 66.7501333,5.8365022 C67.3066723,5.68735769 66.7912859,4.96875235 66.569846,4.52712966 C65.8820109,3.15771194 64.906108,1.91806931 63.561792,1.12779713 C62.5403458,0.557891129 61.4108978,0.202474866 60.2441141,0.0837855941 C56.458235,-0.350652789 52.6752344,0.919443257 49.9403042,3.54316332 C47.7748972,5.65442969 46.5716755,8.57921153 46.0974416,11.5078673 C46.0247861,11.9033223 45.9926162,12.3050055 46.001419,12.7068341 C46.0104352,12.8912404 46.0307218,13.0749393 46.062168,13.2569255 Z" id="Shape" fill="#E20400" fill-rule="nonzero"></path>
            <path d="M52.7456268,22 C52.6183549,21.999991 52.4913041,21.9895179 52.3657862,21.968689 C51.499275,21.8238758 50.7118971,21.1859149 50.2568798,20.2602845 C49.9818911,19.700601 49.5169821,18.6125449 49.4892854,17.6027663 C49.4892854,17.2603026 48.6366225,16.7201885 48.0213599,16.3248875 C47.1766104,15.7828165 46.3793409,15.2720563 46.227009,14.616483 C46.1735939,14.3816508 46.1122655,14.1155076 46.0667637,13.8493644 C46.0327587,13.6505923 46.0109571,13.4499652 46.0014787,13.2485852 C45.9921935,12.8163935 46.0266563,12.3843674 46.1043521,11.9589648 C46.486171,9.59498695 47.4891875,6.2407998 50.0966346,3.69482694 C52.9510608,0.964846425 56.8900304,-0.359542488 60.8350435,0.0842812582 C62.0668014,0.210278978 63.2589478,0.586706327 64.3366986,1.18994972 C65.6384438,1.95706837 66.710702,3.1664544 67.5237982,4.78679685 C67.5574299,4.85137572 67.5969966,4.92378233 67.6385417,4.99814587 C67.8620937,5.40323148 68.1153207,5.86506822 67.9432054,6.26428303 C67.8522646,6.46400072 67.6709577,6.60921982 67.4545564,6.65567009 C66.940189,6.7946125 66.1587462,6.34843124 65.0647263,5.5871834 L64.9123944,5.48150889 L64.7145608,5.34648036 C64.4186278,5.11112704 64.0840459,4.92777385 63.7253927,4.80440927 C63.4049022,4.72026105 62.9874733,4.78875379 62.8450331,5.05098312 C62.7689457,5.18951986 62.616254,5.26937104 62.4576723,5.25355619 C62.2990905,5.23774133 62.1655847,5.12934858 62.1189837,4.97857651 C62.0200669,4.65763912 61.5788979,4.50108429 61.2287324,4.54413687 C60.7717367,4.59697413 60.3266111,4.88660055 59.9329222,5.14295908 C58.891602,5.80333522 57.9772372,6.64154698 57.2324933,7.61848227 C56.6488841,8.36407463 55.7665461,8.75741863 54.9119049,9.13706409 C54.5334117,9.29662758 54.1642086,9.47694557 53.806015,9.67717824 C51.6773252,10.9315738 52.0512308,13.2759823 52.4844864,15.9902516 C52.5695548,16.524495 52.65858,17.0763507 52.7238651,17.6203787 C52.7459039,18.0017932 52.855508,18.3732268 53.0443555,18.7064778 C53.1999168,18.9649762 53.4821131,19.1227854 53.7862316,19.1213481 C53.9139399,19.1019791 54.0278248,19.0311282 54.1007871,18.9256546 C54.149018,18.8603246 54.166991,18.7778321 54.1502455,18.6986501 C54.1163639,18.637696 54.0540932,18.5973645 53.9840652,18.5910187 C53.9408254,18.5788129 53.8944308,18.5844612 53.8554734,18.6066741 C53.7287312,18.7828422 53.4816122,18.8240212 53.3035176,18.6986501 C53.125423,18.573279 53.0837936,18.3288332 53.2105358,18.1526651 C53.4092475,17.8736549 53.7170912,17.6898111 54.059242,17.6458189 C54.439923,17.5864317 54.8286191,17.6832613 55.1354569,17.913919 C55.6708374,18.3704301 55.8787605,19.0991471 55.6636727,19.7651799 C55.4719229,20.333474 55.1018227,20.8264018 54.6072411,21.1722164 C54.1227408,21.6821354 53.4527823,21.9800385 52.7456268,22 Z M46.8482065,13.7221636 C46.8877733,13.9628666 46.945145,14.2074835 46.9985601,14.4423158 C47.0776935,14.7886933 47.839353,15.2759702 48.4506589,15.6673573 C49.3804769,16.2544379 50.2568798,16.825863 50.2786415,17.5792831 C50.2964465,18.2094163 50.5476952,19.0626401 50.9671025,19.9158639 C51.3093547,20.6144898 51.8810938,21.0900251 52.4963564,21.1937426 C53.0403989,21.2837617 53.5844413,21.0802404 54.0671553,20.606662 L54.1067221,20.5714372 C54.4797352,20.3213294 54.7613787,19.9590162 54.9099266,19.5381754 C54.9618523,19.3591697 54.9679708,19.1702021 54.9277316,18.9882765 C54.8955455,19.1158809 54.8413346,19.2370324 54.7674864,19.3463957 C54.5684103,19.6484304 54.2463536,19.8498599 53.8851484,19.8982515 C53.2828553,19.9390046 52.7072072,19.646762 52.3895262,19.1389606 C52.1283801,18.7076079 51.9732077,18.2216558 51.9364873,17.7201824 C51.8712022,17.1918099 51.7841554,16.6458249 51.7010652,16.1194093 C51.2618746,13.3796999 50.8088356,10.5362728 53.3984777,9.01182023 C53.7827086,8.79427484 54.1790013,8.59827196 54.5854794,8.42473963 C55.3768139,8.0685774 56.14243,7.73002759 56.6053607,7.14099005 C57.4025371,6.09537836 58.3811986,5.19820302 59.4957099,4.49129962 C59.9388572,4.20363012 60.484878,3.84551096 61.1337722,3.76919048 C61.6572227,3.70612238 62.1817891,3.87765095 62.5641093,4.23689802 C62.9721965,3.98975577 63.4649061,3.91901853 63.927183,4.04120449 C64.3784458,4.18487201 64.7999356,4.40758835 65.1715564,4.69873476 L65.3594984,4.82789249 L65.5197436,4.93943781 C66.5920018,5.6869871 67.0232791,5.86311128 67.193416,5.88855144 C67.124625,5.70550978 67.0398979,5.52872176 66.940189,5.3601789 C66.8927089,5.27603068 66.8491855,5.19579634 66.8115971,5.12143279 C66.0657644,3.63807581 65.0963797,2.53827816 63.927183,1.84943692 C62.9431619,1.30167914 61.8554957,0.960588793 60.73217,0.847486036 C57.0256364,0.429625635 53.3244616,1.67369432 50.6426554,4.23885496 C48.1875402,6.63610074 47.2399171,9.82003452 46.8838166,12.0665963 C46.8146554,12.4402665 46.783506,12.8198497 46.7908348,13.1996618 C46.7990165,13.3695558 46.8175143,13.5388098 46.8462282,13.7065081 L46.8482065,13.7221636 Z" id="Shape" fill="#312783" fill-rule="nonzero"></path>
            <path d="M60.5842415,2.00059015 C61.7323899,2.02701328 63.3401888,2.34056777 63.0565746,3.27066198 C63.6159791,2.60127599 64.5118087,2.17322127 65.468273,2.31062155 C66.3845373,2.45430409 67.1315459,3.05269011 67.3968493,3.85549395 C67.5650618,4.38395657 67.1836497,5.31933542 67.5357224,5.72272855 C67.8877952,6.12612169 68.6643112,5.98872141 68.963573,5.62936682 C69.1435213,5.41269715 69.1806846,5.0674349 68.9498813,4.89304223 C68.7190781,4.71864957 68.2652954,4.93708079 68.3767851,5.1889813 C68.042316,4.85428831 68.1811891,4.26417171 68.5978086,4.0122712 C69.0397947,3.77809612 69.5935879,3.80089205 70.0100115,4.07040208 C70.4138575,4.3429862 70.7050515,4.72923146 70.8373825,5.1678428 C71.1913828,6.16136036 70.9591702,7.248843 70.2212552,8.05324872 C69.453762,8.8434207 68.234167,9.14076572 67.1288828,8.80718873 C66.1509029,8.48130344 65.4917445,7.66923255 65.032094,6.8342616 C64.3299044,5.56242822 63.7098652,5.41269715 62.7377532,6.41501459 C62.8288589,6.00840735 62.5433149,5.61054936 62.0942424,5.51838967 C61.6943425,5.46620788 61.2905445,5.5869931 61.0047729,5.84427496 C59.880096,6.77084609 60.2908476,8.63103452 59.1348754,9.52765944 C58.5715589,9.96452187 57.7657035,10.0561221 57.0224388,9.97156804 C55.991648,9.86235243 54.9569453,9.43429771 54.3877611,8.65217302 C53.8185768,7.87004834 53.85574,6.71447674 54.634212,6.09089085 C54.9004136,5.85370741 55.2805566,5.75192539 55.6473991,5.81961337 C55.8174607,5.86134942 55.9604302,5.96517073 56.0417728,6.1059989 C56.1231155,6.24682708 56.1354346,6.41185607 56.0757543,6.56122258 C56.0757543,5.80552103 54.7065825,6.68276898 55.3970363,7.5582554 C56.1794202,8.55176513 56.8855217,7.5582554 56.7838117,6.72504599 C56.6684101,5.7790979 56.6977495,4.78734971 57.1476203,3.92419409 C57.7267277,2.6931991 59.1044699,1.9245819 60.5861975,2.00587477 L60.5842415,2.00059015 Z" id="Shape" fill="#E20400" fill-rule="nonzero"></path>
            <path d="M57.9337346,10.9979736 C57.7570834,10.9977765 57.5805967,10.988052 57.405184,10.9688501 C56.1204299,10.8286932 55.0455124,10.273526 54.4536149,9.44350564 C53.7409624,8.44420477 53.8834929,7.04445548 54.7723289,6.32364829 C55.1399866,5.9907674 55.6670116,5.85348809 56.1699197,5.95960426 C56.413093,6.02027472 56.6240924,6.15996377 56.7637968,6.35277182 C56.7413831,5.61102168 56.8996533,4.87405101 57.2270209,4.19581094 C57.7765654,3.13187467 58.8176034,2.35178769 60.0617942,2.07161402 C60.3962207,2.01234586 60.7371091,1.98973874 61.077324,2.00426587 C61.6949562,2.01882763 63.1954857,2.12986106 63.7755056,2.84884802 L63.8249954,2.91437595 C64.5530856,2.34226673 65.5487461,2.15215242 66.4643679,2.41040646 C67.3799897,2.6686605 68.0884546,3.33942879 68.3424205,4.18853006 C68.4055241,4.44457977 68.4209195,4.70861874 68.3879511,4.9694045 C68.4491147,4.63646812 68.6530921,4.34005116 68.9541139,4.14666499 C69.5348862,3.81684702 70.2743909,3.84054185 70.8287859,4.20673226 C71.3116634,4.53407178 71.6603831,5.00157287 71.8185811,5.53367275 C72.2159759,6.68104238 71.951175,7.93549247 71.1158265,8.86285541 C70.2336639,9.79581592 68.8246275,10.1441883 67.552564,9.74384196 C66.6241361,9.42530343 65.8362592,8.67901317 65.2126882,7.5249936 C64.8167701,6.80782686 64.5574438,6.63672616 64.4030358,6.61488352 C64.2486277,6.59304088 64.0071177,6.68041144 63.5438936,7.16094956 C63.4275405,7.28347318 63.2369094,7.32015605 63.0768879,7.25081481 C62.9168664,7.18147358 62.8262905,7.02293683 62.8549961,6.86243346 C62.9100097,6.63541926 62.7593989,6.40917232 62.5145066,6.3509516 C62.2349764,6.32165325 61.9564528,6.41306974 61.7602827,6.59850154 C61.2871606,6.99712975 61.1228546,7.63238658 60.9506303,8.30586804 C60.7526712,9.07218072 60.5547122,9.86579671 59.859876,10.4118628 C59.3159516,10.814833 58.6317144,11.0230415 57.9337346,10.9979736 Z M55.6413691,6.68223166 C55.5141706,6.72172061 55.3965184,6.78353799 55.2949408,6.86425368 C54.6396964,7.39575796 54.6733494,8.41690147 55.114798,9.03941676 C55.5780222,9.68923536 56.4450827,10.1315489 57.4903064,10.2407621 C57.9376938,10.289908 58.7711013,10.30629 59.323407,9.87671803 C59.816325,9.4853707 59.9845902,8.83919255 60.1607737,8.15478977 C60.3587328,7.40485907 60.5566918,6.62762506 61.207977,6.07791857 C61.5900093,5.73247146 62.1281295,5.57497429 62.6570371,5.65380728 C63.0064688,5.71851595 63.3070676,5.9216523 63.4785671,6.20897443 C63.7567032,5.98750075 64.1192127,5.87682897 64.4861786,5.90135722 C65.1612189,5.98144691 65.5987083,6.6403666 65.9035652,7.20645507 C66.4340954,8.18937395 67.0754827,8.81370946 67.8099107,9.06672006 C68.7744043,9.35809103 69.8349171,9.09155905 70.5041331,8.38959817 C71.1610688,7.6546765 71.3661967,6.66291098 71.0485204,5.75755983 C70.9387357,5.38321629 70.6989094,5.05211856 70.3655618,4.81468579 C70.0765827,4.6189395 69.690218,4.59549235 69.3757666,4.75461852 C69.3026888,4.80107591 69.2434696,4.8636641 69.2035423,4.93664054 C69.4042363,4.9103921 69.6077862,4.96179598 69.7657459,5.07861771 C70.1834395,5.40079668 70.1319701,5.98872779 69.8429499,6.33638984 C69.5662333,6.64552205 69.1539738,6.82504632 68.7185426,6.82602906 C68.3541143,6.84139394 68.0029926,6.69850238 67.7703189,6.44014238 C67.4694212,6.0888399 67.5149517,5.59374001 67.5604823,5.11502211 C67.6000691,4.87369092 67.6000691,4.62826525 67.5604823,4.38693405 C67.3332749,3.69426321 66.7019568,3.17780051 65.9273203,3.05089246 C65.1220146,2.96308235 64.3296508,3.29062537 63.8665668,3.90275549 C63.7526391,4.04412204 63.5450583,4.09033557 63.3734218,4.01254393 C63.2017852,3.93475229 63.1152203,3.75522173 63.1677714,3.58603719 C63.208737,3.48477934 63.1900305,3.37125565 63.1182817,3.28570086 C62.874792,2.98536454 62.019609,2.75783702 61.0357527,2.73963481 C59.6925817,2.65898451 58.4421296,3.37211291 57.9238367,4.51434946 C57.5655308,5.213314 57.458633,6.097941 57.5912655,7.21373595 C57.6684695,7.85263322 57.3774698,8.64078855 56.7598376,8.85193409 C56.550001,8.92474289 56.0036341,9.01939434 55.4691447,8.3204298 C55.068652,7.81455315 55.1372,7.11422649 55.6294915,6.68223166 L55.6413691,6.68223166 Z M56.1422054,7.25378079 C56.0986873,7.3020508 56.0645351,7.35685156 56.0412463,7.41578039 C55.9770327,7.58219059 56.0107077,7.76728646 56.1303279,7.90541961 C56.2946339,8.12020559 56.4332052,8.19483461 56.4925929,8.17481219 C56.6549193,8.11838537 56.8667355,7.71611671 56.8152661,7.29564586 C56.7354875,7.39869079 56.6032561,7.45627274 56.4660065,7.44773568 C56.3287569,7.43919861 56.2061642,7.36576634 56.1422054,7.25378079 Z M68.3661756,5.20239268 C68.3384613,5.50454923 68.3067879,5.87405392 68.4097266,5.99418845 C68.4922256,6.07231983 68.608432,6.11238896 68.726461,6.10340166 C68.8613973,6.1012113 68.9932669,6.06602904 69.1085219,6.00146933 C68.9523019,6.06469714 68.7695981,6.02875063 68.6551958,5.91227854 C68.4647897,5.71705829 68.3584897,5.46461168 68.3562776,5.20239268 L68.3661756,5.20239268 Z" id="Shape" fill="#312783" fill-rule="nonzero"></path>
        </g>
    </g>
</svg>