<?xml version="1.0" encoding="UTF-8" standalone="no"?>
<svg width="150px" height="150px" viewBox="0 0 150 150" version="1.1" xmlns="http://www.w3.org/2000/svg" xmlns:xlink="http://www.w3.org/1999/xlink">
    <!-- Generator: Sketch 50.2 (55047) - http://www.bohemiancoding.com/sketch -->
    <title>payasos</title>
    <desc>Created with Sketch.</desc>
    <defs></defs>
    <g id="payasos" stroke="none" stroke-width="1" fill="none" fill-rule="evenodd">
        <rect id="Rectangle" fill-opacity="0" fill="#FFFFFF" opacity="0" x="0" y="0" width="150" height="150"></rect>
        <g transform="translate(32.000000, 21.000000)" fill-rule="nonzero">
            <path d="M41,5.93507443 C42.483123,2.87090848 45.7149679,-0.69361673 49.6237374,1.88943453 C51.9154092,3.4824587 52.1833585,6.54662464 51.9154092,8.8752197 C48.4132646,9.4889082 43.5619716,7.77186336 41.5405995,5.19736525" id="Shape" fill="#E20400"></path>
            <path d="M49.8659715,9.99857943 C46.7277504,9.99857943 43.0870418,8.44607143 41.0957021,6.19517076 L41.0654598,6.2659538 L40,5.79406687 C40.4838769,4.67805428 42.2960891,0.971382428 45.2528563,0.157377471 C46.6486552,-0.224850944 48.044454,0.0889538658 49.4076842,1.10115133 C52.115534,3.20104818 52.1387973,7.16961728 51.9131431,9.35917264 L51.8689428,9.79330862 L51.4455505,9.87588883 C50.9240294,9.96731569 50.3951374,10.0083963 49.8659715,9.99857943 Z M41.6656533,5.04376665 C43.5081078,7.46454661 47.6815463,9.14918295 50.7965041,8.75987624 C50.9453893,6.77087282 50.7965041,3.64226246 48.7028058,2.03076859 C47.6489777,1.25687402 46.5835179,1.00441451 45.5459741,1.28990611 C43.7640042,1.78538739 42.4263637,3.67293511 41.6656533,5.04612608 L41.6656533,5.04376665 Z" id="Shape" fill="#312783"></path>
            <path d="M39.3184833,9.45276548 C36.3060189,6.42764955 38.9256525,3.1362867 42.4611301,3.00545847 C45.7339591,2.87463024 50.3177469,5.11018632 52.0192526,8.13759748 C56.7332227,16.5588041 43.1120416,11.9545685 39.5811319,9.71671718" id="Shape" fill="#E20400"></path>
            <path d="M49.5196357,13 C45.9584146,13 40.6901618,10.8517636 38.8314444,9.67464783 L39.4336598,8.71710939 C42.3066347,10.5280568 49.8841345,12.9343532 51.5458868,11.3520379 C52.2771483,10.6570868 51.6364455,9.09967203 50.970839,7.91802885 C49.3475742,5.04767721 44.8988777,3.02847085 42.0123189,3.14618243 C40.2849116,3.20956559 38.7929569,4.09919351 38.299412,5.35780195 C37.8986897,6.37872355 38.2450767,7.50830199 39.275182,8.52695991 L38.4737375,9.32830414 C36.6263399,7.48113778 36.9115998,5.78337459 37.244403,4.934493 C37.9009537,3.26163033 39.8004225,2.08451452 41.9670396,2.00528557 C45.1841376,1.87851925 50.0833636,4.0426014 51.9556649,7.35210778 C53.212167,9.58410046 53.3344212,11.200371 52.3246916,12.1624368 C51.7043645,12.7600495 50.7059548,13 49.5196357,13 Z" id="Shape" fill="#312783"></path>
            <ellipse id="Oval" fill="#312783" transform="translate(45.500000, 9.000000) rotate(-72.630000) translate(-45.500000, -9.000000) " cx="45.5" cy="9" rx="2.5" ry="5"></ellipse>
            <path d="M32.4805511,14.8510371 C30.7580312,12.3846949 27.1788893,12.1333047 26.912997,15.6301205 C20.832155,8.86976096 17.4148606,17.6004765 20.9940025,19.2900002 C18.8738002,19.5504495 17.7732372,21.4234201 18.0391296,23.5002207 C18.436812,25.5770213 19.7038467,27.0264786 22.5384901,26.7977361 C21.7431253,29.2640783 23.333855,31.4722359 25.5858474,29.3954354 C25.188165,30.8222449 24.9245848,32.7699532 26.7788947,33.1594948 C28.1037322,33.2885871 28.7673069,32.1199622 28.7673069,32.1199622 C28.7673069,32.1199622 29.5626718,34.7153966 32.0805565,33.8072211 C36.642344,32.1607281 37.5140084,15.1114865 33.1395016,14.9823942" id="Shape" fill="#312783"></path>
            <path d="M31.5356009,34.9999605 C31.1258259,35.0021948 30.7212749,34.9096436 30.3547106,34.7298024 C29.8423267,34.464051 29.4140388,34.0653509 29.1164956,33.5771279 C28.5968638,34.019737 27.9135133,34.2308806 27.2293641,34.1602191 L27.1651604,34.1602191 C26.5281667,34.0530273 25.9677961,33.6845989 25.6242706,33.1471263 C25.3009589,32.6270719 25.1863093,31.9449228 25.275736,31.0804169 C24.6791535,31.3454282 23.9879158,31.3050108 23.4275854,30.9723536 C22.5424909,30.4252835 22.1412175,29.2118234 22.3498797,27.8700382 C19.9926851,27.8160066 18.5114131,26.5192478 18.0505219,24.1125895 L18.0505219,24.0788197 C17.8869829,22.9838084 18.1233529,21.8673009 18.7177822,20.9269753 C19.1091682,20.3343522 19.6665249,19.8653003 20.3228758,19.5761849 C19.7352294,18.8429676 19.4569505,17.9161102 19.5455519,16.9871699 C19.6326856,15.5418241 20.4627482,13.8353255 22.1091156,13.2747474 C23.1959933,12.9055314 24.9019785,12.9528091 27.0757337,15.0060105 C27.4105104,14.0199335 28.0846497,13.3445383 29.015604,13.0991447 C30.512927,12.7029128 32.3243897,13.520141 33.4181463,15.0893093 L32.4619692,15.7309347 C31.6525434,14.569255 30.3249017,13.9298808 29.3045208,14.1932849 C28.5386619,14.3959035 28.0708918,15.1185764 27.9860511,16.2194706 L27.8851595,17.5545018 L26.9908931,16.548163 C25.3307677,14.69758 23.7279672,13.9118703 22.4805802,14.3351179 C21.3340847,14.7223445 20.7493721,16.0123494 20.6874613,17.0479554 C20.6255506,18.0835614 21.0405819,18.9480673 21.7995619,19.2992728 L23.5514069,20.1277576 L21.6207086,20.364146 C20.8264265,20.4428479 20.1113268,20.870899 19.6762524,21.5280771 C19.2349294,22.2391298 19.0613047,23.0795269 19.1855524,23.903217 C19.5914117,25.9946908 20.8135758,26.8862125 23.0331909,26.7061071 L23.8838905,26.6363163 L23.6247826,27.4377853 C23.2372671,28.6444914 23.5307699,29.6891027 24.0375209,30.0020358 C24.4433803,30.2519321 25.0510229,30.0470622 25.7068182,29.4414578 L27.1857973,28.0749081 L26.6515304,29.9997845 C26.3167538,31.2042393 26.3007029,32.0597399 26.6010846,32.5460245 C26.7765712,32.8087296 27.0558911,32.9874775 27.3715296,33.039063 C28.2749679,33.1066025 28.747324,32.2983796 28.747324,32.2893743 L29.4077054,31.1231919 L29.7975138,32.3996889 C29.7975138,32.3996889 30.1047746,33.3519961 30.8637546,33.7212122 C31.2787859,33.9238308 31.762607,33.9193281 32.3358547,33.7212122 C35.007189,32.755397 36.4632381,24.8645295 35.6056596,19.6797455 C35.238781,17.4644491 34.4752151,16.1249153 33.5671907,16.0978995 L33.6015856,14.9722408 C34.6953422,15.0037592 36.1238755,15.8164848 36.738397,19.4973888 C37.6097335,24.7519636 36.3119007,33.4803212 32.7325421,34.7748287 C32.3501116,34.9182637 31.9449468,34.9944708 31.5356009,34.9999605 Z" id="Shape" fill="#E20400"></path>
            <path d="M44.6726572,32.9917811 C48.1952443,34.9677212 48.7823422,34.9677212 51.5221322,32.398999 C51.7178315,36.7460672 57.1974116,35.1561247 56.806013,31.213435 C61.1113973,32.7941871 65.0253831,25.8783967 60.1329009,25.4832087 C64.6339845,25.0880207 65.4167816,22.9144866 64.8296838,20.7409525 C64.2425859,18.7650124 60.5242995,19.1602004 59.3501037,19.9505765 C63.2640895,14.8131322 57.0017123,10.2707676 54.4576215,15.9986963 C53.6748244,9.675688 47.2167479,11.6516281 44.6726572,16.3938843 C43.1070629,19.3577944 43.6941607,23.9024567 43.3073133,27.2615548 C42.9159147,29.6326829 42.5245162,31.015841 44.6726572,32.398999" id="Shape" fill="#312783"></path>
            <path d="M54.2201147,34.9999402 C53.8037607,35.0027259 53.3924274,34.9081434 53.0183739,34.7236103 C52.3273113,34.3632348 51.8211061,33.7228631 51.6265271,32.9628632 C49.3362037,34.9519821 48.3245687,34.830945 44.9320837,32.9286075 L45.4820329,31.9306224 C48.8269914,33.8055554 49.1144134,33.7827182 51.6333166,31.4213532 L52.5385828,30.5832285 L52.5951619,31.8141528 C52.6381621,32.7641797 52.9617947,33.4127558 53.5321124,33.7005043 C54.1024301,33.9882529 54.8900117,33.8717832 55.5463297,33.4127558 C56.4004556,32.8018647 56.8519224,31.7660867 56.7209125,30.7179679 L56.6303859,29.8044804 L57.4768098,30.1150662 C58.7441825,30.5718099 60.1428187,30.2086986 61.2178223,29.1193649 C62.061983,28.2629704 62.4670896,27.1622181 62.2045624,26.440563 C61.9601406,25.7737172 61.1702958,25.5750336 60.5479253,25.5270756 L60.5479253,24.3852163 C62.5417741,24.2093699 63.8634627,23.6726961 64.4745174,22.7866133 C64.8999925,22.1700093 64.9837296,21.3638566 64.7212024,20.3932762 C64.6125705,20.0324487 64.3228853,19.7629699 63.8340416,19.5871235 C62.6323007,19.1509333 60.7878209,19.4912074 60.1315029,19.9342488 L57.2776512,21.8548561 L59.3688161,19.1143938 C60.5117147,17.6139907 60.8081894,16.0405086 60.1835557,14.795882 C59.8159649,13.980306 59.0097127,13.4569751 58.121812,13.4576229 C57.0762295,13.4827438 56.1098579,14.325436 55.469382,15.7664624 L54.6433267,17.627693 L54.3921153,15.6043184 C54.1454303,13.6243343 53.3012695,12.4390844 51.9456334,12.1787405 C49.8725739,11.7859409 47.13867,13.5489716 45.7196653,16.1935177 C44.717083,18.0890042 44.6582407,20.7472526 44.6016615,23.3187197 C44.5745035,24.549644 44.5473456,25.7120568 44.4228715,26.7899719 L44.4228715,26.8173766 L44.3504502,27.2467156 C43.9996595,29.3157647 43.8389748,30.2612242 45.5295594,31.3574091 L44.923031,32.3211383 C42.5964969,30.8275864 42.8861821,29.167323 43.2347096,27.0685856 L43.3048677,26.6575163 C43.4225523,25.636694 43.4474471,24.5062534 43.4746051,23.3095848 C43.5357106,20.605662 43.5968161,17.8081068 44.7283988,15.6705462 C46.3963517,12.5624052 49.5896782,10.5869886 52.1606342,11.0734207 C53.0659003,11.2446996 54.5030104,11.8567362 55.2023285,13.9988642 C55.9899101,12.9483537 57.0015451,12.3545868 58.1014435,12.3294659 C59.4248594,12.3180406 60.634205,13.0837542 61.199717,14.2911802 C61.8107717,15.5084022 61.7722978,16.9699821 61.131822,18.4018736 C62.1411938,18.2031901 63.3180398,18.2054738 64.2255692,18.5343293 C65.0493614,18.8334964 65.5993106,19.3747377 65.809785,20.1009602 C66.1628388,21.409531 66.0225226,22.5673763 65.4046784,23.462594 C64.8547292,24.2596117 63.9426735,24.8328251 62.6888799,25.1936526 C62.9503368,25.4340918 63.1512697,25.7339227 63.2750397,26.0683169 C63.7005148,27.2261622 63.2116711,28.7494025 62.0302987,29.9506384 C60.8489263,31.1518744 59.3348686,31.674846 57.8660743,31.4190695 C57.782454,32.6052456 57.1708065,33.6893383 56.2026477,34.3673502 C55.6213703,34.7776467 54.9294862,34.9984143 54.2201147,34.9999402 Z" id="Shape" fill="#E20400"></path>
            <path d="M39.218235,39.8255945 L37.7209152,37.0183525 C34.6443555,36.523895 32.3392112,35.2364829 30.8646471,33.1834592 C28.7187922,30.1984859 28.9804818,26.4160006 29.1784557,24.9941507 C28.8930607,25.0290608 28.6058098,25.0465624 28.3182933,25.0465587 C27.1122454,25.0465587 26.0700381,24.7526185 25.5330054,24.2581611 L25.5125254,24.2376537 L25.4943209,24.2148676 C25.0867923,23.7922744 24.9161523,23.1942354 25.0392085,22.6198437 C25.1962223,21.936262 25.7969706,21.3187599 26.6821642,20.9496258 L26.7117465,20.9359542 L26.7436044,20.9359542 C27.039903,20.853388 27.346281,20.8127386 27.6538292,20.8151881 C28.2455151,20.8311783 28.8318107,20.9324783 29.3946341,21.115964 L29.7655507,10.1171348 C29.8196785,8.37860647 31.2438713,6.99792582 32.9809197,7.00000234 L33.119729,7.00000234 L49.8200781,7.70637007 C51.5493064,7.77617357 52.9141419,9.20221089 52.9102912,10.9351542 L52.9102912,19.7556365 C53.3777713,19.6229097 53.8603546,19.5509232 54.3461708,19.5414475 C54.6537208,19.5389681 54.960103,19.5796181 55.2563956,19.6622136 L55.2882535,19.6622136 L55.3178358,19.6758853 C56.2053049,20.0450194 56.8037777,20.6556857 56.9607915,21.3461032 C57.0838477,21.9204949 56.9132077,22.5185338 56.5056791,22.9411271 L56.4874746,22.9639131 L56.4669946,22.9844206 C55.9299619,23.478878 54.8877546,23.7728181 53.6817067,23.7728181 C53.4278127,23.7726905 53.1741062,23.7589994 52.921669,23.7318032 L52.921669,28.5670043 C52.921669,28.6194122 52.921669,28.6695416 52.921669,28.7219495 C52.9831092,29.4716107 53.2265943,35.9109501 44.0105685,37.0707604 L44.9207932,39.1921422 L48.9576401,41.0583202 L40.2877491,44 L39.218235,39.8255945 Z" id="Shape" fill="#FECE85"></path>
            <path d="M32.5206392,7.13044453 L32.6339502,7.13044453 L49.2657392,7.83130069 C50.6831901,7.89067641 51.8016738,9.05436171 51.8016394,10.469685 L51.8016394,19.9832421 C52.4416582,19.7436947 53.1153333,19.6056186 53.7981793,19.5740325 C54.0500321,19.5716625 54.3009833,19.6043836 54.5437657,19.6712481 C55.7131352,20.1573257 56.29782,21.129481 55.5182403,22.0044208 C55.0649963,22.4136304 54.1222487,22.6374522 53.1273781,22.6374522 C52.6825425,22.638908 52.2388379,22.5926725 51.8039056,22.4995418 L51.8039056,27.9616982 C51.8039056,28.0272621 51.8039056,28.0928261 51.8039056,28.1606509 C51.8650936,28.9225493 52.0713196,35.0900835 42.6687726,35.9175459 L43.9673167,38.9244449 L46.895273,40.2809407 L40.1849954,42.541767 L39.2603776,38.9244449 L37.6015046,35.8293737 C27.8182326,34.4434872 29.1077118,25.4295727 29.3547298,24.0911635 C29.377545,23.9672333 29.3911792,23.8417949 29.3955217,23.7158663 C28.8979232,23.8426126 28.386179,23.9056687 27.8726219,23.9035149 C26.8777513,23.9035149 25.9304713,23.6774323 25.4817597,23.2704836 C24.70218,22.3955438 25.2868648,21.4233885 26.4562343,20.9373108 C26.6990167,20.8704463 26.9499679,20.8377253 27.2018207,20.8400953 C27.9542058,20.8400953 28.749649,21.0955687 29.4680408,21.3442595 L29.8623631,9.68065661 C29.9113733,8.25330637 31.0890614,7.12349354 32.5206392,7.13044453 Z M32.5206392,6.00003138 C30.4790629,5.99178817 28.8030612,7.60863547 28.7428504,9.64448339 L28.3961187,19.8498534 C28.0048646,19.7614717 27.6052322,19.7152368 27.2040869,19.711943 C26.8472592,19.7096502 26.4918422,19.7568249 26.1480284,19.8521142 L26.0845742,19.8702008 L26.0233863,19.8950699 C24.969594,20.3336702 24.2512022,21.0820037 24.0517748,21.9479002 C23.8907297,22.6933024 24.1105881,23.4698671 24.6387258,24.0210779 L24.6772516,24.0640336 L24.7203098,24.1024676 C25.6381289,24.943495 27.2335478,25.0339281 27.8771543,25.0339281 L28.090179,25.0339281 C27.9202125,26.8900665 27.9859329,30.150178 29.9530119,32.8767346 C31.4668469,34.9770422 33.7942549,36.3154514 36.8717817,36.8625713 L38.1997866,39.3494803 L39.0926773,42.8175878 L39.3963508,44 L40.5543893,43.608877 L47.2646669,41.3480507 L49.9546701,40.4437202 L47.3757116,39.2341781 L44.8420776,38.0675918 L44.3049835,36.8490064 C47.8062935,36.2770173 50.303668,34.8572184 51.7381852,32.6190004 C52.6085783,31.2652655 53.0266812,29.6712332 52.9324832,28.0656962 C52.9324832,28.0340446 52.9324832,27.9978714 52.9324832,27.9594373 L52.9324832,23.7633437 L53.1228457,23.7633437 C53.7664522,23.7633437 55.3618711,23.6729106 56.2796902,22.8318833 L56.3227484,22.7934492 L56.3612742,22.7504935 C56.8894119,22.1992827 57.1092703,21.422718 56.9482252,20.6773158 C56.7487978,19.8091585 56.0417371,19.060825 54.9766137,18.6222247 L54.9154258,18.5973556 L54.8519716,18.579269 C54.5082656,18.4832159 54.1528467,18.4352801 53.7959131,18.4368369 C53.5064684,18.4386125 53.2176694,18.4643232 52.9324832,18.513705 L52.9324832,10.4674242 C52.936468,8.44278336 51.3344592,6.77766299 49.3065311,6.69862671 L32.6815408,6.00003138 L32.5206392,6.00003138 Z" id="Shape" fill="#312783"></path>
            <path d="M38.6667774,25.0002699 C40.5958263,24.6051021 45.1326214,19.5773173 46.5788387,23.4687156 C47.8360229,26.7640132 46.1233372,30.8518791 43.497371,32.7518102 C42.2743494,33.6247515 40.4887834,34.0355475 38.997016,33.9975935 C33.608433,33.8614057 28.3838306,25.804001 35.3530038,24.8797102 C36.2116242,24.7658483 37.4551433,25.2145982 38.6622224,24.9980373" id="Shape" fill="#FFFFFF"></path>
            <path d="M37.1234064,26.4968065 C38.3646158,26.4291684 39.1725933,26.2962246 40.1560298,25.5638675 C40.9618411,25.0297599 41.8326372,24.164459 42.7554212,24.0268505 C45.1771876,23.6256867 43.4377614,27.8379063 42.7554212,28.7731777 C41.4557255,30.6390557 39.1227717,31.613977 37.2923668,30.5784147 C36.2829365,30.0069896 33.7528622,27.2361607 35.7413966,26.5014712 C35.990505,26.4338331 36.8591349,26.5014712 37.1082433,26.5014712" id="Shape" fill="#E20400"></path>
            <path d="M39,23.4210526 C39,24.8453659 37.8807119,26 36.5,26 C35.1192881,26 34,24.8453659 34,23.4210526 C34,21.996328 34.9159943,21 36.2947318,21 C37.6734694,21 39,21.996328 39,23.4210526 Z" id="Shape" fill="#E20400"></path>
            <path d="M36.356742,23.9425968 C36.0048702,24.0646165 35.6125019,23.9889589 35.3351645,23.7456134 C35.0578272,23.5022678 34.9403076,23.1305316 35.0291884,22.7777542 C35.1180691,22.4249768 35.398997,22.1481276 35.7606174,22.0569444 C35.9984899,21.9689673 36.2636162,21.9834518 36.4898532,22.0967843 C36.7160902,22.2101168 36.8821047,22.4116106 36.9464796,22.6509974 C37.1104139,23.1705349 36.8932542,23.7811468 36.356742,23.9425968 Z" id="Shape" fill="#8E2118"></path>
            <path d="M47,17.7482193 C47,19.5497058 45.4384959,21 43.5,21 C41.5615041,21 40,19.5388665 40,17.7482193 C40,15.957572 41.2157425,14 43.1475462,14 C45.0793499,14 47,15.9510684 47,17.7482193 Z" id="Shape" fill="#FFFFFF"></path>
            <path d="M30,16.6030411 C30,18.4849563 31.5615041,20 33.5,20 C35.4384959,20 37,18.4736331 37,16.6030411 C37,14.732449 35.9604844,13 34.02645,13 C32.0924156,13 30,14.7211258 30,16.6030411 Z" id="Shape" fill="#FFFFFF"></path>
            <path d="M46.0097854,21.7681952 C45.9206076,21.0705509 46.4459812,20.1915192 47.3804093,20.0217591 C47.7478975,19.9501039 48.1240425,20.0570246 48.4256469,20.318872 C48.7272514,20.5807195 48.9294603,20.9759149 48.9875483,21.4170476 C49.0767261,22.1146918 48.6889965,22.812336 47.756507,22.9751197 C46.8240175,23.1379033 46.0989632,22.4751413 46.0097854,21.7681952 Z" id="Shape" fill="#E20400"></path>
            <path d="M32.983165,22.1521971 C33.0995509,22.8465592 32.6068507,23.744601 31.6796433,23.9644823 C31.3156294,24.0554817 30.9362295,23.9699806 30.6251065,23.7268331 C30.3139835,23.4836857 30.0966908,23.1028621 30.0211446,22.6683396 C29.9047587,21.9739775 30.2655549,21.2796153 31.1850033,21.0481613 C32.1044517,20.8167072 32.8706587,21.4578349 32.983165,22.1521971 Z" id="Shape" fill="#E20400"></path>
            <path d="M31.5312858,11.9169467 C32.6743844,11.9479973 34.947997,12.3040442 35.6988765,11.256604 C36.6993499,9.85932696 34.9647764,9.51570032 34.0209336,10.7970551 C34.1132204,9.6129922 33.083383,9.8820974 32.8170095,10.8239656 C32.8988092,10.0539107 31.7431261,10.5569304 31.3110558,10.9026271 C30.8202575,11.2462538 30.9251289,11.8424253 31.5207986,11.9169467" id="Shape" fill="#312783"></path>
            <path d="M45.4662725,11.963414 C44.3138824,11.963414 42.0112168,12.2511084 41.2838366,11.2129944 C40.3132916,9.82884238 42.0704221,9.54114799 42.9754184,10.8106246 C42.9140985,9.65783522 43.9459634,9.94552961 44.1870138,10.8689682 C44.1256939,10.1185486 45.278084,10.6376056 45.7009794,10.9836436 C46.1851947,11.3296816 46.0646695,11.9070822 45.459929,11.963414" id="Shape" fill="#312783"></path>
            <path d="M41,18.9378601 C41.036243,18.4552568 41.105232,17.9770307 41.2062767,17.5079668 C41.3026968,17.0172329 41.4459807,16.5415754 41.6332695,16.0904857 C41.7418843,15.8198949 41.8884208,15.573844 42.0664505,15.3631268 C42.2708429,15.1023087 42.564168,14.9702758 42.8606158,15.0056535 C43.1326134,15.0717418 43.3806827,15.2383693 43.5702077,15.4822846 C43.6592976,15.5859711 43.7413805,15.6980362 43.815677,15.8174158 C43.8907905,15.9276059 43.9597029,16.0437123 44.0219537,16.1649594 C44.1405873,16.3879528 44.2493771,16.6183127 44.3478709,16.8550815 L44.5933401,17.4930721 C44.7315455,17.8952295 44.8305583,18.2378081 44.8965669,18.4860535 L44.9976425,18.8633865 C45.0015001,18.8768772 45.0005948,18.8916812 44.9951377,18.904347 C44.9896806,18.9170127 44.9801485,18.9264334 44.9687637,18.9304127 C44.9477508,18.9381347 44.9251594,18.9266321 44.9151318,18.9031057 L44.7645498,18.5530798 C44.6779136,18.324694 44.5335199,18.0119049 44.3705613,17.6345719 C44.1887722,17.2086094 43.9819709,16.7987924 43.7517312,16.4082398 C43.6888628,16.299327 43.6199467,16.1956549 43.5454545,16.0979331 C43.4768155,15.9966229 43.4016345,15.9019954 43.3206129,15.8149334 C43.1841,15.6407011 43.0073626,15.5196546 42.8131722,15.4673899 C42.6298669,15.4552076 42.4515294,15.541602 42.3263592,15.703223 C42.1763119,15.8812005 42.0484691,16.0843874 41.9468101,16.3064592 C41.7566082,16.7251546 41.5951744,17.1618667 41.4641226,17.6122298 C41.3465449,18.0119049 41.2578459,18.3569659 41.1939001,18.5903166 L41.1010756,18.9676495 C41.092653,18.99035 41.072554,19.0033403 41.0521774,18.9992533 C41.0318008,18.9951662 41.016289,18.9750332 41.0144394,18.9502723 L41,18.9378601 Z" id="Shape" fill="#312783"></path>
            <path d="M41.3833823,18.9998444 C41.2775017,19.0000505 41.1762646,18.9590122 41.1037637,18.886496 C41.0312629,18.8139799 40.993982,18.7164708 41.0007933,18.6171744 C41.0385715,18.1916198 41.1134008,17.7696909 41.2245295,17.3556249 C41.336118,16.9189213 41.5005148,16.4956516 41.7145119,16.0940754 C41.8485805,15.8341488 42.0294917,15.5979801 42.2492416,15.3960181 C42.544764,15.1044601 42.9693664,14.9610608 43.3947712,15.0091429 C43.7559984,15.0741352 44.0867555,15.2431456 44.3411756,15.4927369 C44.4543744,15.5952568 44.5583909,15.7063688 44.652169,15.8249449 C44.7387155,15.9241805 44.8179531,16.028852 44.8893294,16.1382297 C44.993601,16.2870572 45.0884795,16.4415127 45.1734744,16.6007978 L45.2495448,16.7353631 L45.5269777,17.2925474 C45.6567447,17.586909 45.7708502,17.8728602 45.8715316,18.1567088 L45.9811623,18.4784039 C46.0125366,18.5679962 46.0044805,18.6656591 45.9587887,18.7496371 C45.8933029,18.8713707 45.7605025,18.948121 45.6153535,18.948121 C45.4702046,18.948121 45.3374041,18.8713707 45.2719184,18.7496371 L45.1108283,18.4573781 C45.0459448,18.3228128 44.9542129,18.1630166 44.8512942,17.9779893 L44.683492,17.6794226 C44.4911708,17.3337343 44.2728464,17.0013831 44.0301822,16.6849011 C43.9695725,16.5995841 43.9030537,16.5181082 43.8310569,16.4410015 C43.7623949,16.3655674 43.6875903,16.295269 43.6073207,16.2307433 C43.5127493,16.1299379 43.3892247,16.0569295 43.25158,16.0204851 C43.150735,16.0245838 43.0557594,16.0661853 42.9875712,16.1361271 C42.8493168,16.2652617 42.7317474,16.4125776 42.6385427,16.5734642 C42.4413566,16.9105102 42.2737447,17.2621057 42.1373735,17.6247555 C42.0344548,17.9001938 41.9136372,18.2155811 41.8509911,18.4321471 L41.7480724,18.7538422 C41.718246,18.8442747 41.6514599,18.9198926 41.5623713,18.9641005 C41.5066058,18.9892877 41.4452277,19.0015449 41.3833823,18.9998444 Z M45.8648195,18.4594807 L45.8648195,18.4699936 L45.8648195,18.4594807 Z" id="Shape" fill="#312783"></path>
            <path d="M35.8905188,18.9710112 L35.7932535,18.6926311 C35.7324627,18.5142939 35.6327658,18.2576622 35.5136158,17.9705828 C35.3799066,17.639258 35.2172974,17.3178418 35.0272894,17.0093015 C34.8230324,16.6895993 34.5117835,16.3568481 34.1956713,16.4046947 C34.0099008,16.4429294 33.8407871,16.5291447 33.7093449,16.652627 C33.5512825,16.7830098 33.4101665,16.9289217 33.2886726,17.0875959 C33.0542796,17.3746668 32.8430054,17.6762809 32.6564483,17.9901564 C32.4910973,18.2685365 32.3427678,18.49907 32.255229,18.666533 L32.0996046,18.9253395 C32.093842,18.9368849 32.0829862,18.9457771 32.069622,18.9498988 C32.0562579,18.9540204 32.0415814,18.9530027 32.0290872,18.947088 C32.0060425,18.9365156 31.9947754,18.9126967 32.0023393,18.890542 L32.0996046,18.6078122 C32.162827,18.429475 32.2600923,18.1728433 32.393832,17.8748896 C32.5528924,17.5306627 32.7423479,17.198311 32.9604023,16.8809857 C33.0892049,16.6952938 33.2409169,16.523127 33.4126858,16.3677224 C33.6071249,16.1810905 33.8623756,16.054006 34.1421754,16.0045233 C34.4476463,15.9768485 34.7502313,16.077231 34.9616354,16.2763789 C35.1415073,16.4348437 35.2888363,16.6203531 35.3968975,16.8244397 C35.5836663,17.1612894 35.7248862,17.5168463 35.8175698,17.883589 C35.9120583,18.2335419 35.9730693,18.5900535 35.9999422,18.9492628 C36.000602,18.9619559 35.9955894,18.9743624 35.98601,18.9837463 C35.9764305,18.9931301 35.9630711,18.9987203 35.948878,18.9992842 C35.9244495,19.0030965 35.9002941,18.991394 35.8905188,18.9710112 Z" id="Shape" fill="#312783"></path>
            <path d="M34.6480691,18.9999934 C34.4944114,19.0009967 34.3575573,18.8875681 34.3087083,18.7187214 L34.2243823,18.4112291 C34.1750207,18.2229199 34.0906947,17.9535662 33.9940282,17.6413066 C33.8858259,17.2954564 33.7544812,16.959929 33.6011924,16.6377852 C33.4222566,16.2730851 33.2515479,16.1419837 33.2124699,16.161053 C33.173392,16.1801223 33.1219737,16.1729713 32.9594919,16.3445949 C32.8435447,16.4689841 32.7400557,16.6081135 32.650982,16.759352 C32.4590974,17.0626621 32.2859025,17.3812734 32.1326854,17.7128164 L31.9989978,17.9988557 C31.9187853,18.1704793 31.8488564,18.3158827 31.7933246,18.4350657 L31.6637505,18.728256 C31.6242715,18.8191645 31.5555913,18.8884911 31.4724743,18.9213326 C31.3488136,18.9723837 31.2109287,18.9398766 31.1143045,18.836892 C31.0176802,18.7339074 30.978206,18.5773809 31.0117663,18.4302984 L31.0960923,18.1085041 C31.1763049,17.8153138 31.2606309,17.5435765 31.3552406,17.2766064 L31.3799214,17.2146312 C31.5154585,16.8389881 31.676384,16.4763385 31.8611968,16.1300654 C31.9818706,15.9049472 32.1239914,15.6962591 32.2848836,15.5079299 C32.4949583,15.2488466 32.7709458,15.0743032 33.0726121,15.0097447 C33.4288496,14.9591082 33.7846414,15.1077654 34.0310494,15.4101998 C34.2077907,15.6113136 34.3526011,15.8469193 34.4588498,16.1062288 C34.6266548,16.4981974 34.753691,16.9118799 34.8372885,17.3385816 C34.9218679,17.7448128 34.9762277,18.158703 34.9997704,18.5757017 C35.0067211,18.8012885 34.8550238,18.9909505 34.6604095,18.9999934 L34.6480691,18.9999934 Z M31.1248866,18.3659395 L31.1104894,18.3993108 L31.1248866,18.3659395 Z" id="Shape" fill="#312783"></path>
            <polygon id="Shape" fill="#312783" points="34 38 8.80817148 50.6352342 5 74.8174256 7.78263561 79 16.9698212 60.0011493 26.3118471 54.8581983"></polygon>
            <path d="M7.47811497,80 L4,74.8501527 L7.91457543,50.3588774 L8.17464254,50.2297416 L35,37 L26.5105048,55.3306063 L17.0892909,60.4381505 L7.47811497,80 Z M5.18952437,74.600787 L7.3220747,77.7601615 L16.2276773,59.6277119 L25.6353224,54.5268472 L32.6458273,39.4045979 L8.94579807,51.1025216 L5.18952437,74.600787 Z" id="Shape" fill="#E20400"></path>
            <polygon id="Shape" fill="#312783" points="47 37.0211992 66.177201 33.2561745 73.5554641 16.9259742 77 16 74.7515147 41.1892151 57.1585758 49"></polygon>
            <path d="M57.1660057,49 L46,36.1287311 L66.0362606,32.2838922 L73.4787535,16.1892176 L78,15 L75.6271955,40.9973702 L57.1660057,49 Z M48.125779,36.8596976 L57.4787535,47.6431295 L74.5552408,40.2328731 L76.7286119,16.4753452 L74.2923513,17.1168968 L66.8249292,33.2719264 L48.125779,36.8596976 Z" id="Shape" fill="#E20400"></path>
            <path d="M34.1523436,120.286618 C34.1523436,120.286618 32.6216601,124.481603 29.1048648,124.481603 C25.5880696,124.481603 18.7033264,123.675416 19.0099074,125.449496 C19.3164884,127.223576 33.3881126,130.291305 38.7421724,127.064214 L38.8954629,129 L41.3392246,128.676588 C41.3392246,128.676588 43.1742675,124.319897 40.7282842,121.898992 C38.2823008,119.478088 37.9846062,119 37.9846062,119 L34.1523436,120.286618 Z" id="Shape" fill="#E20400"></path>
            <path d="M37.8590649,129 L37.7263542,127.366337 C32.5705437,129.635314 22.5376151,127.820132 19.3901598,126.308993 C18.5253284,125.89604 18.102866,125.501238 18.0188159,125.027021 C17.9572125,124.695738 18.0486961,124.353869 18.2665425,124.101279 C19.0849252,123.134695 21.8054944,123.170998 25.8730772,123.341172 C26.8816785,123.382013 27.8349837,123.422855 28.6135531,123.422855 C31.710136,123.422855 33.108022,119.760726 33.1235049,119.724422 L33.2186142,119.470297 L37.6776936,118 L37.8988781,118.356229 C37.8988781,118.356229 38.2859509,118.882632 40.553092,121.079002 C43.2449073,123.667904 41.3714746,128.096947 41.2896363,128.285272 L41.1635612,128.57797 L37.8590649,129 Z M38.6885067,125.555693 L38.8654543,127.729373 L40.4137458,127.531972 C40.7433106,126.594884 41.5970828,123.613449 39.8209713,121.904909 C38.3191286,120.459571 37.6091264,119.710809 37.2751378,119.334158 L34.0591153,120.389233 C33.6366529,121.342203 31.9644981,124.557343 28.6246123,124.557343 C27.8239244,124.557343 26.8551364,124.516502 25.8398995,124.47566 C23.822697,124.391708 19.6622167,124.219266 19.1313739,124.820545 C19.5272941,125.310644 22.4049044,126.436056 26.9060088,127.005569 C31.7720676,127.620462 35.8042609,127.252888 37.943115,125.998144 L38.6885067,125.555693 Z" id="Shape" fill="#312783"></path>
            <path d="M68.9354256,114.257239 C68.9354256,114.257239 72.526193,118.198691 75.630455,116.485213 C78.734717,114.771735 84.445577,110.732824 84.9811794,112.391905 C85.5167817,114.050987 74.4923,123.497779 68.2971661,123.373121 L69.0425461,125.093398 L66.7349926,126 C66.7349926,126 63.1352985,123.191801 64.1953448,119.943899 C65.2553911,116.695998 65.311183,116.133905 65.311183,116.133905 L68.9354256,114.257239 Z" id="Shape" fill="#E20400"></path>
            <path d="M67.1895655,127 L66.9410212,126.807854 C66.7812428,126.684969 63.0619549,123.758088 64.2247872,120.219019 C65.2078686,117.231813 65.3010727,116.599517 65.3032919,116.57494 L65.3299216,116.268846 L65.6006574,116.143728 L69.5840235,114.090442 L69.8702933,114.401004 C69.9080187,114.441221 73.1990115,117.946776 75.8619861,116.48557 C76.5499212,116.110214 77.371005,115.616442 78.24091,115.093625 C81.7449407,112.988952 84.128303,111.641693 85.302231,112.084076 C85.6118506,112.197959 85.8518406,112.449479 85.9524406,112.765526 C86.0989042,113.212378 85.9102768,113.762006 85.3421756,114.53506 C83.2606171,117.352463 75.2716934,123.767025 69.668351,124.292076 L70.3141224,125.768922 L67.1895655,127 Z M66.3485094,117.012855 C66.2464287,117.459707 65.9801312,118.440548 65.2788813,120.569798 C64.5088378,122.913537 66.6525323,125.074067 67.3826312,125.724237 L68.8361715,125.152266 L67.9773622,123.188351 L68.8472672,123.206225 L68.9671011,123.206225 C71.4392291,123.206225 75.1030383,121.590855 79.048679,118.753344 C82.7524328,116.090105 84.7629786,113.728492 84.8828125,113.11407 C84.1393987,112.850428 80.5488213,115.004255 78.8090113,116.049889 C77.9213531,116.579408 77.0980501,117.077649 76.3901427,117.464176 C73.4764047,119.059438 70.3340947,116.398433 69.3598898,115.453341 L66.3485094,117.012855 Z" id="Shape" fill="#312783"></path>
            <path d="M71.8529784,18.7865039 C71.8529784,18.7865039 65.4137774,15.8794473 66.0433274,14.8081925 C66.6728773,13.7369377 71.383097,15.1149003 71.383097,15.1149003 C71.383097,15.1149003 70.2836655,7.92282455 71.6978719,7.46276284 C73.1120783,7.00270114 73.7507522,13.276876 73.7507522,13.276876 C73.7507522,13.276876 75.0075711,6.84934724 76.4194965,7.00270114 C77.8314219,7.15605504 77.0353605,13.2679859 77.0353605,13.2679859 C77.0353605,13.2679859 79.7041048,8.82294528 80.8035363,9.13632065 C81.9029677,9.44969602 78.1347919,16.9395895 75.7853846,20 L71.8529784,18.7865039 Z" id="Shape" fill="#E20400"></path>
            <path d="M76.257634,20.9998024 C76.1993079,20.9997183 76.1413495,20.9907973 76.0858342,20.9733589 L72.1954724,19.7591617 L72.1299172,19.7349218 C70.8142922,19.1421468 66.4921703,17.0905722 66.0513681,15.752972 C65.9641249,15.5095705 65.9888422,15.2413111 66.1191838,15.0169613 C66.7566516,13.9305743 69.3155648,14.3448558 71.2279681,14.8362641 C71.1398077,14.137715 71.0245209,13.0733643 70.9680078,12.000199 C70.8165527,9.13548691 71.1352866,7.77805407 72.0349752,7.48497199 C72.3388186,7.3839636 72.6736939,7.42803384 72.9391848,7.60396772 C73.617342,8.04469267 74.0694468,9.46382699 74.376878,10.8675359 C74.4175675,10.7287076 74.4582569,10.5876756 74.5034674,10.4488472 C75.2810877,7.93451143 76.0134974,6.90541868 76.9561359,7.00678542 C77.2521089,7.04182154 77.5202526,7.19403587 77.6975878,7.42767774 C78.2921056,8.1636884 78.3486187,10.0323622 78.2740215,11.5881212 C79.3477704,10.0962673 80.5209823,8.90190268 81.4071077,9.14870865 C81.6668725,9.22222313 81.8709594,9.41868612 81.9496335,9.67096771 C82.4808566,11.213505 78.6786552,18.2408643 76.723302,20.7816436 C76.6132595,20.9233229 76.4398662,21.0045552 76.257634,20.9998024 Z M72.5729799,18.7212545 L76.0428842,19.8032342 C78.1112637,16.9781873 80.6091428,11.8834069 80.8555399,10.3496841 C80.2203326,10.8124453 79.0064312,12.3615935 77.9914559,14.0517737 C77.8561772,14.2777838 77.5764747,14.3798452 77.322209,14.2959768 C77.0679433,14.2121085 76.9092796,13.9654542 76.9425728,13.7058046 C77.2748698,11.1055274 77.2115752,8.55372998 76.8114624,8.11961591 C76.2666761,8.43473424 75.3376008,11.0658622 74.7882934,13.8776873 C74.7341867,14.1454272 74.487165,14.3342067 74.207536,14.3215153 C73.927907,14.3088238 73.6999476,14.0984864 73.6715946,13.8270039 C73.4229369,11.3457225 72.8261586,8.9658078 72.3672722,8.56695173 C71.9287305,9.11345066 71.9648989,12.2756521 72.4599537,15.5127769 C72.4881599,15.6991105 72.4167574,15.8865773 72.2706413,16.0098153 C72.1245253,16.1330534 71.9239495,16.1749801 71.7388465,16.1209773 C69.760888,15.5436276 67.6947691,15.276989 67.1771091,15.5149805 C67.5681797,16.1143664 69.9349484,17.5246862 72.5729799,18.7212545 Z" id="Shape" fill="#312783"></path>
            <path d="M5.1018054,74 C5.1018054,74 0.208132115,82.8811012 1.11120945,83.4848843 C2.01428678,84.0886675 4.19654144,79.1398412 4.19654144,79.1398412 C4.19654144,79.1398412 2.6899548,85.4894444 3.59521876,86.0932275 C4.50048272,86.6970106 6.30445076,80.0839385 6.30445076,80.0839385 C6.30445076,80.0839385 6.79425541,87 7.54645542,87 C8.29865542,87 9.35261008,78.2703935 9.35261008,78.2703935 C9.35261008,78.2703935 12.3264241,79.2913359 12.9277467,78.3845634 C13.5290694,77.4777909 10.2032083,76.6281034 9.38322287,75.1592636 L5.1018054,74 Z" id="Shape" fill="#E20400"></path>
            <path d="M7.03330094,87 C6.63405266,87 6.00480265,87 5.51442161,82.4254786 C4.92205868,84.1681534 4.19733626,85.8236945 3.52251987,86.0763823 C3.28941869,86.1665668 3.02719232,86.1373162 2.81949573,85.997962 C2.38553021,85.712599 2.06439572,85.0394908 2.49619141,82.1226888 C2.023169,82.8284721 1.5284483,83.3861281 1.08363364,83.5146504 C0.83786053,83.5894823 0.571695167,83.5511955 0.356741395,83.4100899 C-0.166187058,83.0615549 -0.415717233,82.3971601 1.81269572,77.7877852 C2.89760952,75.522308 4.1300716,73.3025759 4.14092074,73.2807925 C4.26143495,73.0611158 4.5162473,72.953026 4.75715178,73.0193912 L9.00784406,74.1673783 C9.14872594,74.2054504 9.26839268,74.2988898 9.33982768,74.4266012 C9.6479432,74.9755437 10.5071949,75.4830978 11.2644648,75.9318365 C12.1454148,76.4524606 12.8397596,76.8641676 12.9764587,77.4675687 C13.0345039,77.7195979 12.9840906,77.9845155 12.8375898,78.1973138 C12.2170191,79.1318232 10.3921941,78.7985366 9.29643113,78.4957469 C8.22453629,87 7.50415353,87 7.03330094,87 Z M5.80083886,79.0490461 L5.85508455,79.0490461 C6.11822793,79.0749157 6.32445988,79.2874781 6.34329576,79.5522435 C6.49084404,81.6303832 6.77726128,83.9895292 7.04198025,85.2159367 C7.43688887,83.7259497 7.94896819,80.5390331 8.28963112,77.7202566 C8.30901585,77.5570308 8.4008034,77.4113288 8.53939299,77.3237889 C8.67798258,77.236249 8.84854365,77.2162388 9.0035044,77.2693395 C10.305401,77.7050082 11.5335234,77.8248171 11.8589975,77.6505496 C11.5011942,77.3524545 11.1144703,77.0911942 10.7046492,76.8707026 C9.90615269,76.398002 9.01001388,75.8686646 8.51529319,75.1650596 L4.87866212,74.1826267 C3.22308366,77.2323076 1.56533537,80.6675554 1.16825692,82.1030837 C1.70637417,81.4343323 2.53741814,79.9639504 3.21657418,78.4238615 C3.32939833,78.1653922 3.62020445,78.0362655 3.886591,78.1263538 C4.15297755,78.2164422 4.30668504,78.4958974 4.24073281,78.7702182 C3.70478539,81.0313387 3.29034832,83.6736694 3.37280177,84.7323444 C3.89573022,83.8479369 4.71592505,81.5062176 5.28008023,79.4367913 C5.34916867,79.2061609 5.56094679,79.0484756 5.80083886,79.0490461 Z" id="Shape" fill="#312783"></path>
            <path d="M69.1043119,69.0021421 C61.0279096,45.5988872 51.3853608,38.2048797 46.107842,36 L40.9180626,38.8377002 L41.0759933,39.9479115 L40.9224495,38.8377002 L35.1579777,37.5742797 C30.6964344,41.1780257 23.4667163,50.9989551 22.1462398,75.752227 C20.4813867,106.978031 33.5808638,120.482642 33.5808638,120.482642 L38.4131056,121 C41.2536654,119.414618 43.8178463,111.412215 44.6776915,108.949766 C45.3357362,107.066848 48.112685,105.499229 49.3870983,104.866409 C49.8562028,104.834806 50.3204005,104.750657 50.7711857,104.615501 C52.0741142,104.837543 55.3774988,105.548079 56.5795272,107.23782 C58.0820626,109.362765 62.7454063,116.32379 65.9106015,117.045427 L70.4204014,115.184713 C70.4204014,115.184713 79.2908443,98.5248818 69.1043119,69.0021421 Z" id="Shape" fill="#E20400"></path>
            <path d="M38.3792805,121 L33.0778988,120.446076 L32.9373319,120.304272 C32.7989961,120.164683 29.4967887,116.776885 26.3708477,109.500541 C23.5014972,102.818004 20.2662264,91.4537023 21.1475588,75.250322 C22.5242223,49.9315711 30.1616926,40.2622765 34.592898,36.7503993 L34.8004016,36.5864379 L40.7131379,37.858247 L46.0435254,35 L46.2889598,35.0997063 C51.5278673,37.2467151 61.5750565,44.4233524 69.9956855,68.3595095 C75.3840848,83.6766115 75.4621775,95.4884835 74.5808451,102.702788 C73.6191888,110.555212 71.3968924,114.720719 71.3031811,114.889112 L71.2072386,115.064152 L66.2717772,117.058278 L66.0999732,117.020611 C63.2864032,116.391354 59.7499175,111.877982 56.6596761,107.546298 L56.2781373,107.014531 C55.2004574,105.521152 52.0008862,104.840934 50.8540384,104.641521 C50.4327371,104.754815 50.0017464,104.82899 49.5666238,104.863091 C47.2126854,106.026331 45.5660441,107.41114 45.1510369,108.578812 L44.9279148,109.192559 C43.1741749,114.206678 41.0411274,119.519915 38.515385,120.904725 L38.3792805,121 Z M33.6022358,119.386974 L38.1360774,119.861133 C40.5792646,118.310146 42.9755962,111.454784 43.8903969,108.84248 L44.1135191,108.222085 C44.8297411,106.210233 47.5964554,104.608286 49.1828537,103.835008 L49.2810275,103.786263 L49.3903573,103.786263 C49.8256803,103.759791 50.2567069,103.685481 50.6755407,103.564693 L50.7982579,103.527026 L50.9254375,103.549183 C52.7104145,103.846086 55.912217,104.612717 57.1951692,106.389705 L57.5789393,106.925903 C59.1876498,109.181481 63.4135828,115.104035 66.1936845,115.917195 L70.4173863,114.208894 C70.8368559,113.35142 72.6686885,109.309991 73.4920092,102.512238 C74.3487981,95.4220127 74.2573181,83.8228474 68.9537052,68.7406091 C60.7941291,45.5688669 51.2445022,38.425465 46.1149245,36.2274952 L41.4137414,38.7489566 L41.5833142,39.916628 L40.5100968,40.3065904 L40.3092869,38.9040552 L35.0882291,37.7829134 C30.7775097,41.3125161 23.5974397,50.8178492 22.2654007,75.3123615 C21.3974556,91.2653682 24.5635585,102.436904 27.3726661,109.00201 C30.0679813,115.303447 32.9596441,118.677951 33.604467,119.384758 L33.6022358,119.386974 Z" id="Shape" fill="#312783"></path>
            <g id="Group" transform="translate(20.000000, 36.000000)">
                <ellipse id="Oval" fill="#312783" cx="13.6796713" cy="11.2364784" rx="3.17407007" ry="3.21614169"></ellipse>
                <ellipse id="Oval" fill="#D7A611" cx="24.1084451" cy="17.2083598" rx="3.17407007" ry="3.21614169"></ellipse>
                <ellipse id="Oval" fill="#D7A611" cx="33.8567474" cy="19.0477437" rx="3.17407007" ry="3.21614169"></ellipse>
                <ellipse id="Oval" fill="#D7A611" cx="44.7377054" cy="30.9915064" rx="3.17407007" ry="3.21614169"></ellipse>
                <ellipse id="Oval" fill="#D7A611" cx="39.9787954" cy="66.3668409" rx="3.17407007" ry="3.21614169"></ellipse>
                <ellipse id="Oval" fill="#312783" cx="39.9787954" cy="76.2443549" rx="3.17407007" ry="3.21614169"></ellipse>
                <ellipse id="Oval" fill="#8E2118" cx="31.5892409" cy="46.9943691" rx="3.17407007" ry="3.21614169"></ellipse>
                <ellipse id="Oval" fill="#8E2118" cx="28.4151708" cy="61.6960957" rx="3.17407007" ry="3.21614169"></ellipse>
                <ellipse id="Oval" fill="#D7A611" cx="25.9215722" cy="71.1132076" rx="3.17407007" ry="3.21614169"></ellipse>
                <ellipse id="Oval" fill="#D7A611" cx="36.8047253" cy="57.790463" rx="3.17407007" ry="3.21614169"></ellipse>
                <ellipse id="Oval" fill="#D7A611" cx="50.6336613" cy="67.897066" rx="3.17407007" ry="3.21614169"></ellipse>
                <ellipse id="Oval" fill="#8E2118" cx="49.4988106" cy="77.77458" rx="3.17407007" ry="3.21614169"></ellipse>
                <ellipse id="Oval" fill="#D7A611" cx="25.2432958" cy="7.48431313" rx="3.17407007" ry="3.21614169"></ellipse>
                <ellipse id="Oval" fill="#D7A611" cx="14.1340506" cy="3.34959155" rx="3.17407007" ry="3.21614169"></ellipse>
                <ellipse id="Oval" fill="#8E2118" cx="34.0828395" cy="8.86329505" rx="3.17407007" ry="3.21614169"></ellipse>
                <ellipse id="Oval" fill="#8E2118" cx="14.3601427" cy="22.7220633" rx="3.17407007" ry="3.21614169"></ellipse>
                <ellipse id="Oval" fill="#8E2118" cx="12.5470156" cy="52.7371616" rx="3.17407007" ry="3.21614169"></ellipse>
                <ellipse id="Oval" fill="#312783" cx="7.33372621" cy="60.0880248" rx="3.17407007" ry="3.21614169"></ellipse>
                <ellipse id="Oval" fill="#8E2118" cx="16.175465" cy="72.7212785" rx="3.17407007" ry="3.21614169"></ellipse>
                <ellipse id="Oval" fill="#D7A611" cx="17.3081207" cy="82.5987925" rx="3.17407007" ry="3.21614169"></ellipse>
                <ellipse id="Oval" fill="#D7A611" cx="23.2018815" cy="54.8034103" rx="3.17407007" ry="3.21614169"></ellipse>
                <ellipse id="Oval" fill="#D7A611" cx="6.19887543" cy="18.5117201" rx="3.17407007" ry="3.21614169"></ellipse>
                <ellipse id="Oval" fill="#8E2118" cx="24.3345372" cy="27.6997432" rx="3.17407007" ry="3.21614169"></ellipse>
                <ellipse id="Oval" fill="#312783" cx="33.8567474" cy="29.0765009" rx="3.17407007" ry="3.21614169"></ellipse>
                <ellipse id="Oval" fill="#8E2118" cx="49.9531899" cy="38.9540149" rx="3.17407007" ry="3.21614169"></ellipse>
                <ellipse id="Oval" fill="#312783" cx="47.9117755" cy="58.9381318" rx="3.17407007" ry="3.21614169"></ellipse>
                <ellipse id="Oval" fill="#D7A611" cx="39.7505082" cy="39.8725948" rx="3.17407007" ry="3.21614169"></ellipse>
                <ellipse id="Oval" fill="#D7A611" cx="52.6728806" cy="48.60244" rx="3.17407007" ry="3.21614169"></ellipse>
                <ellipse id="Oval" fill="#D7A611" cx="42.472394" cy="48.8315289" rx="3.17407007" ry="3.21614169"></ellipse>
                <ellipse id="Oval" fill="#D7A611" cx="28.8695502" cy="37.3459441" rx="3.17407007" ry="3.21614169"></ellipse>
                <ellipse id="Oval" fill="#D7A611" cx="19.1212478" cy="45.6153872" rx="3.17407007" ry="3.21614169"></ellipse>
                <ellipse id="Oval" fill="#D7A611" cx="17.3081207" cy="63.5332554" rx="3.17407007" ry="3.21614169"></ellipse>
                <ellipse id="Oval" fill="#D7A611" cx="6.65325476" cy="70.8841187" rx="3.17407007" ry="3.21614169"></ellipse>
                <ellipse id="Oval" fill="#D7A611" cx="42.472394" cy="20.8070578" rx="3.17407007" ry="3.21614169"></ellipse>
                <ellipse id="Oval" fill="#312783" cx="7.78591047" cy="32.0635537" rx="3.17407007" ry="3.21614169"></ellipse>
                <ellipse id="Oval" fill="#D7A611" cx="3.25309256" cy="52.5080726" rx="3.17407007" ry="3.21614169"></ellipse>
                <ellipse id="Oval" fill="#312783" cx="17.9885921" cy="35.2796954" rx="3.17407007" ry="3.21614169"></ellipse>
                <ellipse id="Oval" fill="#D7A611" cx="7.33372621" cy="42.1701566" rx="3.17407007" ry="3.21614169"></ellipse>
            </g>
        </g>
    </g>
</svg>